G04 CAM350 V9.5 (Build 208) Date:  Tue Nov 30 12:45:10 2021 *
G04 Database: d:\baza\svetovie_tehn\30-11-21\rsc-p01f-v00.cam *
G04 Layer 6: Border *
%FSLAX44Y44*%
%MOMM*%
%SFA1.000B1.000*%

%MIA0B0*%
%IPPOS*%
%ADD107C,0.01000*%
%ADD109C,0.01000*%
%LNBorder*%
%LPD*%
G54D109*
X50000Y692000D02*
G01X1950000D01*
Y0*
X50000*
Y692000*
Y1384000D02*
G01X1950000D01*
Y692000*
X50000*
Y1384000*
Y2076000D02*
G01X1950000D01*
Y1384000*
X50000*
Y2076000*
Y2768000D02*
G01X1950000D01*
Y2076000*
X50000*
Y2768000*
Y3460000D02*
G01X1950000D01*
Y2768000*
X50000*
Y3460000*
G54D107*
X30000Y0D02*
G01X27385Y114D01*
X24791Y456*
X22235Y1022*
X19739Y1809*
X17321Y2811*
X15000Y4019*
X12793Y5425*
X10716Y7019*
X8787Y8787*
X7019Y10716*
X5425Y12793*
X4019Y15000*
X2811Y17321*
X1809Y19739*
X1022Y22235*
X456Y24791*
X114Y27385*
X0Y30000*
Y3430000*
X114Y3432615*
X456Y3435209*
X1022Y3437765*
X1809Y3440261*
X2811Y3442679*
X4019Y3445000*
X5425Y3447207*
X7019Y3449284*
X8787Y3451213*
X10716Y3452981*
X12793Y3454575*
X15000Y3455981*
X17321Y3457189*
X19739Y3458191*
X22235Y3458978*
X24791Y3459544*
X27385Y3459886*
X30000Y3460000*
X50000D02*
G01Y0D01*
X1970000Y3460000D02*
G01X1972615Y3459886D01*
X1975209Y3459544*
X1977765Y3458978*
X1980261Y3458191*
X1982679Y3457189*
X1985000Y3455981*
X1987207Y3454575*
X1989284Y3452981*
X1991213Y3451213*
X1992981Y3449284*
X1994575Y3447207*
X1995981Y3445000*
X1997189Y3442679*
X1998191Y3440261*
X1998978Y3437765*
X1999544Y3435209*
X1999886Y3432615*
X2000000Y3430000*
Y30000*
X1999886Y27385*
X1999544Y24791*
X1998978Y22235*
X1998191Y19739*
X1997189Y17321*
X1995981Y15000*
X1994575Y12793*
X1992981Y10716*
X1991213Y8787*
X1989284Y7019*
X1987207Y5425*
X1985000Y4019*
X1982679Y2811*
X1980261Y1809*
X1977765Y1022*
X1975209Y456*
X1972615Y114*
X1970000Y0*
X50000D02*
G01X30000D01*
X50000Y3460000D02*
G01X30000D01*
X1970000Y0D02*
G01X1950000D01*
X1970000Y3460000D02*
G01X1950000D01*
Y0D02*
G01Y3460000D01*
M02*
