M48
;Layer_Color=9474304
;FILE_FORMAT=2:5
INCH,LZ
;TYPE=PLATED
T1F00S00C0.00787
T2F00S00C0.01181
T3F00S00C0.01968
T4F00S00C0.03150
T5F00S00C0.03937
T6F00S00C0.04331
%
T01
X0228562Y0077178
X0270636Y010166
X0281244Y0098259
X0291399Y0098573
X0290332Y0105156
X0292041Y0108613
X029204Y011806
X029834
X0298288Y0114852
X0297924Y012166
X029518Y0121305
X0298291Y0127471
X0298184Y0130767
X0295034Y0130719
X029845Y0133774
X0298229Y013712
X0301496Y0137008
X0304639Y0133808
Y0130658
X0307789Y0133808
X0320476Y0133808
X0323575Y0133821
X0324721Y0139452
X0333792Y0133249
X0342739Y0129798
X0350362Y0127394
X0349735Y0124729
X034937Y012126
X0352041Y012293
X0351448Y0133
X0324324Y0123178
X0317255Y0127448
X0310982Y0118016
X0314088Y0111761
X0313952Y0108692
X0310938Y0108523
X0312513Y0104708
X0309363Y0104465
X0300013Y0104827
X0301419Y0108692
X0317286Y010865
X0322415Y0104426
X0337501Y0104253
X0283425Y0115513
X0283204Y0124291
X0281129Y0123673
X0285776Y0126457
X028622Y0129803
X0288157Y0134287
X0266442Y0133845
X025869Y0138886
X0241689Y0133854
X0266838Y0115045
X0356664Y0117234
X0366095Y0128831
X0365504Y0135859
X0371253Y01321
X0374016Y0125984
X0395691Y0127734
X0399744Y0128001
X0388899Y0064309
X0428065Y0062955
X0445692Y0062528
X0681318Y0077178
X0723391Y010166
X0734Y0098259
X0744155Y0098573
X0743088Y0105156
X0744797Y0108613
X0744797Y011806
X0751096
X0751044Y0114852
X075068Y012166
X0747935Y0121305
X0751047Y0127471
X075094Y0130767
X074779Y0130719
X0751206Y0133774
X0750985Y013712
X0754251Y0137008
X0757395Y0133808
Y0130658
X0760544Y0133808
X0773232Y0133808
X0776331Y0133821
X0777477Y0139452
X0786548Y0133249
X0795495Y0129798
X0803118Y0127394
X0802491Y0124729
X0802125Y012126
X0804797Y012293
X080942Y0117234
X0804204Y0133
X0818259Y0135859
X0818851Y0128831
X077708Y0123178
X0770011Y0127448
X0763738Y0118016
X0766844Y0111761
X0766708Y0108692
X0763694Y0108523
X0765269Y0104708
X0762119Y0104465
X0752769Y0104827
X0754175Y0108692
X0770042Y010865
X0775171Y0104426
X0790257Y0104253
X0736181Y0115513
X073596Y0124291
X0733885Y0123673
X0738532Y0126457
X0738976Y0129803
X0740912Y0134287
X0719198Y0133845
X0711446Y0138886
X0694445Y0133854
X0719594Y0115045
X0826772Y0125984
X0824009Y01321
X0848447Y0127734
X08525Y0128001
X0841655Y0064309
X0880821Y0062955
X0898448Y0062528
Y0196387
X0880821Y0196813
X0841655Y0198167
X0848447Y0261592
X08525Y0261859
X0826772Y0259842
X0824009Y0265959
X0818851Y0262689
X0818259Y0269717
X0804204Y0266858
X0803118Y0261252
X0802491Y0258587
X0802125Y0255118
X0804797Y0256789
X080942Y0251093
X0795495Y0263657
X0786548Y0267108
X0776331Y0267679
X0773232Y0267666
X0772248Y0275212
X0777477Y027331
X078109Y0274349
X0783524Y0280067
X0799749Y0279126
X079971Y0274047
X0765214Y0275363
X0764207Y0281293
X0755627Y0275197
X0754251Y0270866
X0750985Y0270979
X0751206Y0267632
X075094Y0264625
X074779Y0264578
X0751047Y0261329
X075068Y0255519
X0747935Y0255164
X0744797Y0251918
X0751096
X0751044Y024871
X0754175Y0242551
X0752769Y0238685
X0762119Y0238323
X0765269Y0238566
X0763694Y0242381
X0766708Y0242551
X0766844Y0245619
X0770042Y0242508
X0775171Y0238284
X0790257Y0238111
X077708Y0257036
X0770011Y0261306
X0763738Y0251875
X0757395Y0264517
Y0267666
X0760544Y0267666
X0740912Y0268145
X0738976Y0263661
X0738532Y0260315
X073596Y025815
X0733885Y0257532
X0736181Y0249371
X0744797Y0242471
X0743088Y0239014
X0744155Y0232431
X0734Y0232118
X0723391Y0235519
X0719594Y0248903
X0719198Y0267703
X0711446Y0272745
X0694445Y0267712
X0729678Y0281005
X0739482Y0280775
X0740958Y0275103
X0747347Y027747
X0681318Y0211036
X0729678Y0147147
X0739482Y0146916
X0740958Y0141245
X0747347Y0143612
X0755627Y0141338
X0765214Y0141505
X0764207Y0147435
X0772248Y0141354
X078109Y0140491
X0783524Y0146209
X0799749Y0145268
X079971Y0140189
X0445692Y0196387
X0428065Y0196813
X0388899Y0198167
X0395691Y0261592
X0399744Y0261859
X0374016Y0259842
X0371253Y0265959
X0366095Y0262689
X0365504Y0269717
X0356664Y0251093
X0352041Y0256789
X0349735Y0258587
X0350362Y0261252
X0351448Y0266858
X0346954Y0274047
X0346993Y0279126
X0330768Y0280067
X0328334Y0274349
X0324721Y027331
X0323575Y0267679
X0320476Y0267666
X0319493Y0275212
X0312458Y0275363
X0311451Y0281293
X0302871Y0275197
X0301496Y0270866
X0298229Y0270979
X029845Y0267632
X0298184Y0264625
X0295034Y0264578
X0298291Y0261329
X0297924Y0255519
X029518Y0255164
X029204Y0251918
X029834
X0298288Y024871
X0301419Y0242551
X0300013Y0238685
X0309363Y0238323
X0312513Y0238566
X0310938Y0242381
X0313952Y0242551
X0314088Y0245619
X0317286Y0242508
X0322415Y0238284
X0337501Y0238111
X034937Y0255118
X0342739Y0263657
X0333792Y0267108
X0324324Y0257036
X0317255Y0261306
X0310982Y0251875
X0304639Y0264517
Y0267666
X0307789Y0267666
X0288157Y0268145
X028622Y0263661
X0285776Y0260315
X0283204Y025815
X0281129Y0257532
X0283425Y0249371
X0292041Y0242471
X0290332Y0239014
X0291399Y0232431
X0281244Y0232118
X0270636Y0235519
X0266838Y0248903
X0266442Y0267703
X025869Y0272745
X0241689Y0267712
X0276922Y0281005
X0286726Y0280775
X0288202Y0275103
X0294591Y027747
X0228562Y0211036
X0276922Y0147147
X0286726Y0146916
X0288202Y0141245
X0294591Y0143612
X0302871Y0141338
X0312458Y0141505
X0311451Y0147435
X0319493Y0141354
X0328334Y0140491
X0330768Y0146209
X0346993Y0145268
X0346954Y0140189
X0337501Y0371969
X0322415Y0372142
X0317286Y0376366
X0313952Y0376409
X0310938Y0376239
X0312513Y0372424
X0309363Y0372181
X0300013Y0372543
X0301419Y0376409
X0298288Y0382569
X029834Y0385777
X0297924Y0389377
X029518Y0389022
X029204Y0385777
X0292041Y0376329
X0290332Y0372872
X0291399Y0366289
X0281244Y0365976
X0270636Y0369377
X0266838Y0382762
X0283425Y0383229
X0283204Y0392008
X0281129Y039139
X0285776Y0394173
X028622Y039752
X0288157Y0402003
X0288202Y0408962
X0286726Y0414633
X0276922Y0414863
X0294591Y0411329
X0298229Y0404837
X0301496Y0404724
X0302871Y0409055
X0304639Y0401525
Y0398375
X0307789Y0401525
X029845Y040149
X0298184Y0398483
X0295034Y0398436
X0298291Y0395187
X0317255Y0395164
X0320476Y0401525
X0323575Y0401537
X0324721Y0407168
X0328334Y0408208
X0330768Y0413926
X0333792Y0400966
X0342739Y0397515
X0350362Y039511
X0349735Y0392445
X034937Y0388976
X0352041Y0390647
X0351448Y0400717
X0346954Y0407906
X0346993Y0412984
X0319493Y0409071
X0312458Y0409222
X0311451Y0415151
X0310982Y0385733
X0314088Y0379477
X0324324Y0390895
X0266442Y0401561
X025869Y0406603
X0241689Y040157
X0228562Y0344894
X0356664Y0384951
X0366095Y0396547
X0365504Y0403575
X0371253Y0399817
X0374016Y0393701
X0395691Y039545
X0399744Y0395718
X0388899Y0332025
X0428065Y0330672
X0445692Y0330245
X0681318Y0344894
X0723391Y0369377
X0734Y0365976
X0744155Y0366289
X0743088Y0372872
X0744797Y0376329
X0744797Y0385777
X0751096
X0751044Y0382569
X075068Y0389377
X0747935Y0389022
X0751047Y0395187
X075094Y0398483
X074779Y0398436
X0751206Y040149
X0750985Y0404837
X0754251Y0404724
X0755627Y0409055
X0757395Y0401525
Y0398375
X0760544Y0401525
X0765214Y0409222
X0764207Y0415151
X0772248Y0409071
X0777477Y0407168
X078109Y0408208
X0783524Y0413926
X0786548Y0400966
X0776331Y0401537
X0773232Y0401525
X0770011Y0395164
X077708Y0390895
X0763738Y0385733
X0766844Y0379477
X0766708Y0376409
X0763694Y0376239
X0765269Y0372424
X0762119Y0372181
X0752769Y0372543
X0754175Y0376409
X0770042Y0376366
X0775171Y0372142
X0790257Y0371969
X0802125Y0388976
X0802491Y0392445
X0803118Y039511
X0804797Y0390647
X080942Y0384951
X0804204Y0400717
X079971Y0407906
X0799749Y0412984
X0795495Y0397515
X0818851Y0396547
X0818259Y0403575
X0747347Y0411329
X0740958Y0408962
X0740912Y0402003
X0738976Y039752
X0738532Y0394173
X073596Y0392008
X0733885Y039139
X0736181Y0383229
X0719594Y0382762
X0719198Y0401561
X0711446Y0406603
X0694445Y040157
X0729678Y0414863
X0739482Y0414633
X0824009Y0399817
X0826772Y0393701
X0848447Y039545
X08525Y0395718
X0841655Y0332025
X0880821Y0330672
X0898448Y0330245
Y0464103
X0880821Y046453
X0841655Y0465884
X0848447Y0529309
X08525Y0529576
X0826772Y0527559
X0824009Y0533675
X0841655Y0599742
X0880821Y0598388
X0898448Y0597962
X0818259Y0537434
X0818851Y0530406
X0803118Y0528969
X0802491Y0526304
X0802125Y0522835
X0804797Y0524505
X080942Y0518809
X0804204Y0534575
X079971Y0541764
X0799749Y0546843
X0783524Y0547784
X078109Y0542066
X0777477Y0541027
X0776331Y0535395
X0773232Y0535383
X0772248Y0542929
X0765214Y054308
X0764207Y054901
X0755627Y0542913
X0754251Y0538583
X0750985Y0538695
X0751206Y0535349
X075094Y0532342
X074779Y0532294
X0751047Y0529046
X075068Y0523235
X0747935Y052288
X0744797Y0519635
X0751096
X0751044Y0516427
X0754175Y0510267
X0752769Y0506402
X0762119Y0506039
X0765269Y0506283
X0763694Y0510098
X0766708Y0510267
X0766844Y0513336
X0770042Y0510225
X0775171Y0506001
X0790257Y0505827
X0795495Y0531373
X0786548Y0534824
X077708Y0524753
X0770011Y0529023
X0763738Y0519591
X0757395Y0532233
Y0535383
X0760544Y0535383
X0740912Y0535861
X0738976Y0531378
X0738532Y0528031
X073596Y0525866
X0733885Y0525248
X0736181Y0517088
X0744797Y0510188
X0743088Y0506731
X0744155Y0500147
X0734Y0499834
X0723391Y0503235
X0719594Y051662
X0719198Y053542
X0711446Y0540461
X0694445Y0535429
X0729678Y0548722
X0739482Y0548491
X0740958Y054282
X0747347Y0545187
X0681318Y0478753
X0445692Y0464103
X0428065Y046453
X0388899Y0465884
X0395691Y0529309
X0399744Y0529576
X0374016Y0527559
X0371253Y0533675
X0366095Y0530406
X0365504Y0537434
X0356664Y0518809
X0388899Y0599742
X0428065Y0598388
X0445692Y0597962
X0346993Y0546843
X0346954Y0541764
X0351448Y0534575
X0350362Y0528969
X0349735Y0526304
X034937Y0522835
X0352041Y0524505
X0342739Y0531373
X0333792Y0534824
X0323575Y0535395
X0320476Y0535383
X0319493Y0542929
X0324721Y0541027
X0328334Y0542066
X0330768Y0547784
X0311451Y054901
X0312458Y054308
X0302871Y0542913
X0301496Y0538583
X0298229Y0538695
X029845Y0535349
X0298184Y0532342
X0295034Y0532294
X0298291Y0529046
X0297924Y0523235
X029518Y052288
X029204Y0519635
X029834
X0298288Y0516427
X0301419Y0510267
X0300013Y0506402
X0309363Y0506039
X0312513Y0506283
X0310938Y0510098
X0313952Y0510267
X0314088Y0513336
X0317286Y0510225
X0322415Y0506001
X0337501Y0505827
X0324324Y0524753
X0317255Y0529023
X0310982Y0519591
X0304639Y0532233
Y0535383
X0307789Y0535383
X0288157Y0535861
X028622Y0531378
X0285776Y0528031
X0283204Y0525866
X0281129Y0525248
X0283425Y0517088
X0292041Y0510188
X0290332Y0506731
X0291399Y0500147
X0281244Y0499834
X0270636Y0503235
X0266838Y051662
X0266442Y053542
X025869Y0540461
X0241689Y0535429
X0276922Y0548722
X0286726Y0548491
X0288202Y054282
X0294591Y0545187
X0228562Y0478753
Y0612611
X0270636Y0637093
X0281244Y0633692
X0291399Y0634006
X0290332Y0640589
X0292041Y0644046
X029204Y0653493
X029834
X0298288Y0650285
X0297924Y0657094
X029518Y0656739
X0298291Y0662904
X0298184Y06662
X0295034Y0666152
X029845Y0669207
X0298229Y0672553
X0301496Y0672441
X0302871Y0676771
X0304639Y0669241
Y0666092
X0307789Y0669241
X0312458Y0676938
X0311451Y0682868
X0319493Y0676787
X0324721Y0674885
X0328334Y0675924
X0330768Y0681642
X0333792Y0668682
X0323575Y0669254
X0320476Y0669241
X0317255Y0662881
X0324324Y0658611
X0310982Y0653449
X0314088Y0647194
X0313952Y0644125
X0310938Y0643956
X0312513Y0640141
X0309363Y0639898
X0300013Y064026
X0301419Y0644125
X0317286Y0644083
X0322415Y0639859
X0337501Y0639686
X034937Y0656693
X0349735Y0660162
X0350362Y0662827
X0352041Y0658363
X0351448Y0668433
X0346954Y0675622
X0346993Y0680701
X0342739Y0665231
X028622Y0665236
X0285776Y066189
X0283204Y0659724
X0281129Y0659106
X0283425Y0650946
X0266838Y0650478
X0266442Y0669278
X025869Y067432
X0241689Y0669287
X0288157Y066972
X0288202Y0676678
X0286726Y0682349
X0276922Y068258
X0294591Y0679045
X0365504Y0671292
X0366095Y0664264
X0371253Y0667533
X0374016Y0661417
X0395691Y0663167
X0399744Y0663434
X0356664Y0652667
X0694445Y0669287
X0711446Y067432
X0719198Y0669278
X0719594Y0650478
X0736181Y0650946
X073596Y0659724
X0733885Y0659106
X0738532Y066189
X0738976Y0665236
X0740912Y066972
X0740958Y0676678
X0739482Y0682349
X0729678Y068258
X0747347Y0679045
X0750985Y0672553
X0754251Y0672441
X0755627Y0676771
X0757395Y0669241
Y0666092
X0760544Y0669241
X0751206Y0669207
X075094Y06662
X074779Y0666152
X0751047Y0662904
X075068Y0657094
X0747935Y0656739
X0744797Y0653493
X0751096
X0751044Y0650285
X0754175Y0644125
X0752769Y064026
X0762119Y0639898
X0765269Y0640141
X0763694Y0643956
X0766708Y0644125
X0766844Y0647194
X0770042Y0644083
X0775171Y0639859
X0790257Y0639686
X0802125Y0656693
X0802491Y0660162
X0803118Y0662827
X0804797Y0658363
X080942Y0652667
X0804204Y0668433
X079971Y0675622
X0799749Y0680701
X0783524Y0681642
X078109Y0675924
X0777477Y0674885
X0776331Y0669254
X0773232Y0669241
X0772248Y0676787
X0765214Y0676938
X0764207Y0682868
X0770011Y0662881
X077708Y0658611
X0763738Y0653449
X0744797Y0644046
X0743088Y0640589
X0744155Y0634006
X0734Y0633692
X0723391Y0637093
X0681318Y0612611
X0786548Y0668682
X0795495Y0665231
X0818851Y0664264
X0818259Y0671292
X0824009Y0667533
X0826772Y0661417
X0848447Y0663167
X08525Y0663434
T02
X0142705Y0074976
X0154516
X0166327
X0177086Y008647
X0173034Y0091992
X0173684Y0107072
X0159416
X0159686Y0100158
X0142705Y0098598
X014861Y0134031
X0136799
X0187002Y0086517
X0190945Y0086591
X0195854Y0063165
X0184043
X0207665
X0217176Y0062315
X0217705Y0071406
X0213571Y0074976
X0224545Y0077842
X0229616Y0080892
X0229638Y0084841
X0229829Y0093061
X0239419Y0093343
X0239363Y0099408
X0232625Y0103392
X0231287Y0110409
X0230895Y0125207
X0234566Y0122609
X0230576Y0134639
X0231874Y0137539
X0241211Y0139276
X0245456Y013471
X0253815Y012003
X0261944Y011937
X0262025Y0115533
X0265524Y0121867
X02597Y0107241
X0260321Y0103697
X0250606Y010596
X0239363Y0085727
Y0080806
X0237193Y0074976
X0233477Y007116
X0254909Y0063165
X0278531
X0290342
X0302153
X0313964
X0325776
X0331681Y0074976
X0343492
X0346897Y0082014
X0351113Y0087942
X0351175Y0095279
X0344511Y0093604
X03446Y0103769
X0330739Y0112899
X0324324Y0119665
X033522Y0126812
X0331709Y0093604
X0329439Y0088769
X0325776Y0086787
X0323548Y0089022
X0320031Y0088139
X031987Y0074976
X0313952Y0079927
X0307622Y007011
X0300308Y0073966
X029204Y0076328
X0304866Y008822
X02778Y0091044
X0276805Y0096433
X0280417Y0115599
X0213502Y0115111
X0213699Y0110072
X0208267Y0111761
X0213571Y012222
X0205591Y0127747
X0211391Y0134221
X022022Y0134644
X0221009Y0096841
X020076Y0086311
X0349397Y0063165
X037302
X0384831
X0378925Y0074976
X0367114
X037302Y0086787
X0378925Y0098598
X038176Y0106773
X037302Y0110409
X0364374Y0106589
X0367114Y0098598
X0397244Y0121412
X0443219Y0099208
X0456198Y0102721
X0455697Y0063165
X0420264
X0408453
X0595461Y0074976
X0607272
X0619083
X0629842Y008647
X062579Y0091992
X062644Y0107072
X0612172
X0612441Y0100158
X0595461Y0098598
X0601366Y0134031
X0589555
X0664147Y0134221
X0658347Y0127747
X0661023Y0111761
X0653516Y0086311
X0643701Y0086591
X0639758Y0086517
X0636799Y0063165
X064861
X0660421
X0669932Y0062315
X0670461Y0071406
X0666327Y0074976
X0677301Y0077842
X0682372Y0080892
X0682393Y0084841
X0682584Y0093061
X0692175Y0093343
X0692119Y0099408
X0685381Y0103392
X0684043Y0110409
X0683651Y0125207
X0687322Y0122609
X0683332Y0134639
X068463Y0137539
X0693967Y0139276
X0698212Y013471
X0706571Y012003
X07147Y011937
X0714781Y0115533
X071828Y0121867
X0712456Y0107241
X0713077Y0103697
X0703361Y010596
X0692119Y0085727
Y0080806
X0689949Y0074976
X0686233Y007116
X0707665Y0063165
X0731287
X0743098
X0754909
X076672
X0778531
X0784437Y0074976
X0796248
X0799653Y0082014
X0803869Y0087942
X0803931Y0095279
X0797267Y0093604
X0797356Y0103769
X081713Y0106589
X081987Y0098598
Y0074976
X0802153Y0063165
X0772626Y0074976
X0766708Y0079927
X0772787Y0088139
X0776304Y0089022
X0778531Y0086787
X0782195Y0088769
X0784464Y0093604
X0783495Y0112899
X077708Y0119665
X0787976Y0126812
X0733173Y0115599
X0729561Y0096433
X0730556Y0091044
X0744797Y0076328
X0753064Y0073966
X0760378Y007011
X0757622Y008822
X0673765Y0096841
X0666455Y0110072
X0666258Y0115111
X0666327Y012222
X0672976Y0134644
X0825776Y0110409
X0834516Y0106773
X0831681Y0098598
X0825776Y0086787
X0831681Y0074976
X0837586Y0063165
X0825776
X0861209
X087302
X0908453
X0908953Y0102721
X0895975Y0099208
X085Y0121412
X0861209Y0197023
X087302
X0908453
X0908953Y0236579
X0895975Y0233067
X0831681Y0232456
X0834516Y0240631
X0825776Y0244267
Y0220645
X0831681Y0208834
X0837586Y0197023
X0825776
X085Y025527
X081713Y0240447
X081987Y0232456
X0803931Y0229137
X0803869Y02218
X0799653Y0215873
X0796248Y0208834
X0784437
X0772626
X0766708Y0213785
X0772787Y0221997
X0776304Y022288
X0778531Y0220645
X0782195Y0222627
X0784464Y0227462
X0797267
X0797356Y0237627
X0783495Y0246757
X077708Y0253524
X0787976Y026067
X0743873Y0276563
X0736181Y0276496
X0733173Y0249458
X0714781Y0249392
X07147Y0253228
X071828Y0255726
X0706571Y0253889
X0703361Y0239818
X0712456Y0241099
X0713077Y0237555
X0729561Y0230291
X0730556Y0224903
X0731287Y0197023
X0743098
X0754909
X076672
X0778531
X0802153
X081987Y0208834
X0760378Y0203968
X0753064Y0207824
X0744797Y0210186
X0757622Y0222078
X0692119Y0219585
Y0214664
X0689949Y0208834
X0686233Y0205019
X0682372Y021475
X0682393Y0218699
X0682584Y0226919
X0692175Y0227202
X0692119Y0233266
X0685381Y0237251
X0684043Y0244267
X0683651Y0259065
X0687322Y0256467
X0683332Y0268497
X068463Y0271397
X0693967Y0273135
X0698212Y0268568
X0702962Y0273966
X0706448Y0274044
X0672976Y0268503
X0666327Y0256078
X0666258Y024897
X0666455Y024393
X0673765Y0230699
X0677301Y02117
X0670461Y0205264
X0666327Y0208834
X0669932Y0196173
X0707665Y0197023
X0706448Y0140186
X0702962Y0140107
X0736181Y0142638
X0743873Y0142705
X0660421Y0197023
X064861
X0636799
X0639758Y0220375
X0643701Y022045
X0653516Y0220169
X0629842Y0220328
X062579Y0225851
X062644Y0240931
X0612172
X0612441Y0234016
X0595461Y0232456
Y0208834
X0607272
X0619083
X0601366Y0267889
X0589555
X0664147Y026808
X0658347Y0261605
X0661023Y0245619
X0456198Y0236579
X0443219Y0233067
X0455697Y0197023
X0420264
X0408453
X0384831
X037302
X0378925Y0208834
X0367114
X037302Y0220645
X0378925Y0232456
X038176Y0240631
X037302Y0244267
X0364374Y0240447
X0367114Y0232456
X0397244Y025527
X033522Y026067
X0324324Y0253524
X0330739Y0246757
X0331709Y0227462
X0329439Y0222627
X0325776Y0220645
X0323548Y022288
X0320031Y0221997
X031987Y0208834
X0313952Y0213785
X0307622Y0203968
X0300308Y0207824
X029204Y0210186
X0290342Y0197023
X0302153
X0313964
X0325776
X0331681Y0208834
X0343492
X0346897Y0215873
X0351113Y02218
X0351175Y0229137
X0344511Y0227462
X03446Y0237627
X0349397Y0197023
X0304866Y0222078
X02778Y0224903
X0276805Y0230291
X0280417Y0249458
X0262025Y0249392
X0261944Y0253228
X0265524Y0255726
X0253815Y0253889
X0250606Y0239818
X02597Y0241099
X0260321Y0237555
X0239363Y0233266
X0239419Y0227202
X0239363Y0219585
Y0214664
X0237193Y0208834
X0233477Y0205019
X0229616Y021475
X0229638Y0218699
X0229829Y0226919
X0221009Y0230699
X0232625Y0237251
X0231287Y0244267
X0230895Y0259065
X0234566Y0256467
X0230576Y0268497
X0231874Y0271397
X0241211Y0273135
X0245456Y0268568
X0250206Y0273966
X0253692Y0274044
X0283425Y0276496
X0291117Y0276563
X022022Y0268503
X0211391Y026808
X0205591Y0261605
X0213571Y0256078
X0213502Y024897
X0213699Y024393
X0208267Y0245619
X020076Y0220169
X0213571Y0208834
X0217705Y0205264
X0217176Y0196173
X0207665Y0197023
X0224545Y02117
X0254909Y0197023
X0278531
X0283425Y0142638
X0291117Y0142705
X0253692Y0140186
X0250206Y0140107
X0195854Y0197023
X0184043
X0187002Y0220375
X0190945Y022045
X0177086Y0220328
X0173034Y0225851
X0173684Y0240931
X0159416
X0159686Y0234016
X0142705Y0232456
Y0208834
X0154516
X0166327
X014861Y0267889
X0136799
X0142705Y0342693
X0154516
X0166327
X0177086Y0354187
X0173034Y0359709
X0173684Y0374789
X0159416
X0159686Y0367875
X0142705Y0366315
X014861Y0401748
X0136799
X0187002Y0354233
X0190945Y0354308
X0195854Y0330882
X0184043
X0207665
X0217176Y0330031
X0217705Y0339123
X0213571Y0342693
X0224545Y0345558
X0229616Y0348608
X0229638Y0352558
X0229829Y0360778
X0239419Y036106
X0239363Y0367125
X0232625Y0371109
X0231287Y0378126
X0230895Y0392923
X0234566Y0390326
X0230576Y0402355
X0231874Y0405255
X0241211Y0406993
X0245456Y0402426
X0250206Y0407824
X0253692Y0407902
X0253815Y0387747
X0261944Y0387087
X0262025Y038325
X0265524Y0389584
X02597Y0374957
X0260321Y0371413
X0250606Y0373676
X0239363Y0353444
Y0348522
X0237193Y0342693
X0233477Y0338877
X0254909Y0330882
X0278531
X0290342
X0302153
X0313964
X0325776
X0331681Y0342693
X0343492
X0346897Y0349731
X0351113Y0355658
X0351175Y0362995
X0344511Y0361321
X03446Y0371485
X0330739Y0380615
X0324324Y0387382
X033522Y0394528
X0331709Y0361321
X0329439Y0356485
X0325776Y0354504
X0323548Y0356738
X0320031Y0355855
X031987Y0342693
X0313952Y0347643
X0307622Y0337826
X0300308Y0341682
X029204Y0344044
X0304866Y0355936
X02778Y0358761
X0276805Y036415
X0280417Y0383316
X0283425Y0410354
X0291117Y0410422
X022022Y0402361
X0211391Y0401938
X0205591Y0395463
X0213571Y0389937
X0213502Y0382828
X0213699Y0377789
X0208267Y0379477
X0221009Y0364557
X020076Y0354028
X0349397Y0330882
X037302
X0384831
X0378925Y0342693
X0367114
X037302Y0354504
X0378925Y0366315
X038176Y0374489
X037302Y0378126
X0364374Y0374306
X0367114Y0366315
X0397244Y0389128
X0443219Y0366925
X0456198Y0370437
X0455697Y0330882
X0420264
X0408453
X0595461Y0342693
X0607272
X0619083
X0629842Y0354187
X062579Y0359709
X062644Y0374789
X0612172
X0612441Y0367875
X0595461Y0366315
X0601366Y0401748
X0589555
X0664147Y0401938
X0658347Y0395463
X0661023Y0379477
X0653516Y0354028
X0643701Y0354308
X0639758Y0354233
X0636799Y0330882
X064861
X0660421
X0669932Y0330031
X0670461Y0339123
X0666327Y0342693
X0677301Y0345558
X0682372Y0348608
X0682393Y0352558
X0682584Y0360778
X0692175Y036106
X0692119Y0367125
X0685381Y0371109
X0684043Y0378126
X0683651Y0392923
X0687322Y0390326
X0683332Y0402355
X068463Y0405255
X0693967Y0406993
X0698212Y0402426
X0702962Y0407824
X0706448Y0407902
X0706571Y0387747
X07147Y0387087
X0714781Y038325
X071828Y0389584
X0712456Y0374957
X0713077Y0371413
X0703361Y0373676
X0692119Y0353444
Y0348522
X0689949Y0342693
X0686233Y0338877
X0707665Y0330882
X0731287
X0743098
X0754909
X076672
X0778531
X0784437Y0342693
X0796248
X0799653Y0349731
X0803869Y0355658
X0803931Y0362995
X0797267Y0361321
X0797356Y0371485
X081713Y0374306
X081987Y0366315
Y0342693
X0802153Y0330882
X0772626Y0342693
X0766708Y0347643
X0772787Y0355855
X0776304Y0356738
X0778531Y0354504
X0782195Y0356485
X0784464Y0361321
X0783495Y0380615
X077708Y0387382
X0787976Y0394528
X0743873Y0410422
X0736181Y0410354
X0733173Y0383316
X0729561Y036415
X0730556Y0358761
X0744797Y0344044
X0753064Y0341682
X0760378Y0337826
X0757622Y0355936
X0673765Y0364557
X0666455Y0377789
X0666258Y0382828
X0666327Y0389937
X0672976Y0402361
X0825776Y0378126
X0834516Y0374489
X0831681Y0366315
X0825776Y0354504
X0831681Y0342693
X0837586Y0330882
X0825776
X0861209
X087302
X0908453
X0908953Y0370437
X0895975Y0366925
X085Y0389128
X0861209Y046474
X087302
X0908453
X0908953Y0504295
X0895975Y0500783
X0831681Y0500173
X0834516Y0508348
X0825776Y0511984
Y0488362
X0831681Y0476551
X0837586Y046474
X0825776
X085Y0522987
X0861209Y0598598
X087302
X0908453
X0837586
X0825776
X0802153
X0778531
X076672
X0754909
X0743098
X0731287
X0707665
X0686233Y0606594
X0670461Y0606839
X0669932Y0597748
X0672976Y0536219
X0683332Y0536214
X068463Y0539114
X0693967Y0540851
X0698212Y0536284
X0702962Y0541682
X0706448Y0541761
X0706571Y0521605
X07147Y0520945
X0714781Y0517108
X071828Y0523442
X0712456Y0508816
X0713077Y0505271
X0703361Y0507535
X0692119Y0500983
X0692175Y0494918
X0692119Y0487302
Y048238
X0689949Y0476551
X0686233Y0472735
X0682372Y0482467
X0682393Y0486416
X0682584Y0494636
X0673765Y0498416
X0685381Y0504967
X0684043Y0511984
X0683651Y0526782
X0687322Y0524184
X0666327Y0523795
X0666258Y0516686
X0666455Y0511647
X0666327Y0476551
X0670461Y0472981
X0669932Y046389
X0677301Y0479417
X0707665Y046474
X0731287
X0743098
X0754909
X076672
X0778531
X0784437Y0476551
X0796248
X0799653Y0483589
X0803869Y0489517
X0803931Y0496854
X0797267Y0495179
X0797356Y0505344
X081713Y0508164
X081987Y0500173
Y0476551
X0802153Y046474
X0772626Y0476551
X0766708Y0481502
X0772787Y0489714
X0776304Y0490597
X0778531Y0488362
X0782195Y0490344
X0784464Y0495179
X0783495Y0514474
X077708Y052124
X0787976Y0528386
X0743873Y054428
X0736181Y0544212
X0733173Y0517174
X0729561Y0498008
X0730556Y0492619
X0744797Y0477903
X0753064Y047554
X0760378Y0471685
X0757622Y0489795
X0760378Y0605543
X0660421Y0598598
X064861
X0636799
X0664147Y0535796
X0658347Y0529322
X0661023Y0513336
X0653516Y0487886
X0643701Y0488166
X0639758Y0488091
X0629842Y0488045
X062579Y0493567
X062644Y0508647
X0612172
X0612441Y0501733
X0595461Y0500173
Y0476551
X0607272
X0619083
X0636799Y046474
X064861
X0660421
X0601366Y0535606
X0589555
X0456198Y0504295
X0443219Y0500783
X0455697Y046474
X0420264
X0408453
X0384831
X037302
X0378925Y0476551
X0367114
X037302Y0488362
X0378925Y0500173
X038176Y0508348
X037302Y0511984
X0364374Y0508164
X0367114Y0500173
X0397244Y0522987
X0408453Y0598598
X0420264
X0455697
X0384831
X037302
X0349397
X0325776
X0313964
X0302153
X0290342
X0278531
X0254909
X0233477Y0606594
X0217705Y0606839
X0217176Y0597748
X0207665Y0598598
X0211391Y0535796
X022022Y0536219
X0230576Y0536214
X0231874Y0539114
X0241211Y0540851
X0245456Y0536284
X0250206Y0541682
X0253692Y0541761
X0253815Y0521605
X0261944Y0520945
X0262025Y0517108
X0265524Y0523442
X02597Y0508816
X0260321Y0505271
X0250606Y0507535
X0239363Y0500983
X0239419Y0494918
X0239363Y0487302
Y048238
X0237193Y0476551
X0233477Y0472735
X0229616Y0482467
X0229638Y0486416
X0229829Y0494636
X0221009Y0498416
X0232625Y0504967
X0231287Y0511984
X0230895Y0526782
X0234566Y0524184
X0213571Y0523795
X0213502Y0516686
X0213699Y0511647
X0208267Y0513336
X0205591Y0529322
X020076Y0487886
X0213571Y0476551
X0217705Y0472981
X0217176Y046389
X0207665Y046474
X0224545Y0479417
X0254909Y046474
X0278531
X0290342
X0302153
X0313964
X0325776
X0331681Y0476551
X0343492
X0346897Y0483589
X0351113Y0489517
X0351175Y0496854
X0344511Y0495179
X03446Y0505344
X0330739Y0514474
X0324324Y052124
X033522Y0528386
X0331709Y0495179
X0329439Y0490344
X0325776Y0488362
X0323548Y0490597
X0320031Y0489714
X031987Y0476551
X0313952Y0481502
X0307622Y0471685
X0300308Y047554
X029204Y0477903
X0304866Y0489795
X02778Y0492619
X0276805Y0498008
X0280417Y0517174
X0283425Y0544212
X0291117Y054428
X0307622Y0605543
X0349397Y046474
X0195854
X0184043
X0187002Y0488091
X0190945Y0488166
X0177086Y0488045
X0173034Y0493567
X0173684Y0508647
X0159416
X0159686Y0501733
X0142705Y0500173
Y0476551
X0154516
X0166327
X014861Y0535606
X0136799
X0184043Y0598598
X0195854
X0190945Y0622024
X0187002Y062195
X0177086Y0621903
X0173034Y0627425
X0173684Y0642505
X0159416
X0159686Y0635591
X0142705Y0634031
Y0610409
X0154516
X0166327
X014861Y0669464
X0136799
X0211391Y0669655
X022022Y0670078
X0230576Y0670072
X0231874Y0672972
X0241211Y0674709
X0245456Y0670143
X0250206Y067554
X0253692Y0675619
X0253815Y0655464
X0261944Y0654803
X0262025Y0650966
X0265524Y06573
X02597Y0642674
X0260321Y063913
X0250606Y0641393
X0239363Y0634841
X0239419Y0628777
X0239363Y062116
Y0616239
X0237193Y0610409
X0229616Y0616325
X0229638Y0620274
X0229829Y0628494
X0221009Y0632274
X0232625Y0638825
X0231287Y0645842
X0230895Y066064
X0234566Y0658042
X0213571Y0657653
X0213502Y0650545
X0213699Y0645505
X0208267Y0647194
X0205591Y066318
X020076Y0621744
X0213571Y0610409
X0224545Y0613275
X02778Y0626478
X0276805Y0631866
X0280417Y0651032
X0283425Y0678071
X0291117Y0678138
X0324324Y0655098
X0330739Y0648332
X033522Y0662245
X03446Y0639202
X0344511Y0629037
X0351175Y0630712
X0351113Y0623375
X0346897Y0617448
X0343492Y0610409
X0331681
X031987
X0313952Y061536
X0320031Y0623572
X0323548Y0624455
X0325776Y062222
X0329439Y0624202
X0331709Y0629037
X0304866Y0623653
X0300308Y0609399
X029204Y0611761
X0367114Y0610409
X0378925
X037302Y062222
X0378925Y0634031
X038176Y0642206
X037302Y0645842
X0364374Y0642022
X0367114Y0634031
X0397244Y0656845
X0443219Y0634642
X0456198Y0638154
X0595461Y0634031
X0612441Y0635591
X0612172Y0642505
X062644
X062579Y0627425
X0629842Y0621903
X0639758Y062195
X0643701Y0622024
X0653516Y0621744
X0661023Y0647194
X0658347Y066318
X0664147Y0669655
X0601366Y0669464
X0589555
X0595461Y0610409
X0607272
X0619083
X0666327
X0677301Y0613275
X0682372Y0616325
X0682393Y0620274
X0682584Y0628494
X0692175Y0628777
X0692119Y0634841
X0685381Y0638825
X0684043Y0645842
X0683651Y066064
X0687322Y0658042
X0683332Y0670072
X068463Y0672972
X0693967Y0674709
X0698212Y0670143
X0702962Y067554
X0706448Y0675619
X0706571Y0655464
X07147Y0654803
X0714781Y0650966
X071828Y06573
X0712456Y0642674
X0713077Y063913
X0703361Y0641393
X0692119Y062116
Y0616239
X0689949Y0610409
X0673765Y0632274
X0666455Y0645505
X0666258Y0650545
X0666327Y0657653
X0672976Y0670078
X0736181Y0678071
X0743873Y0678138
X0733173Y0651032
X0729561Y0631866
X0730556Y0626478
X0744797Y0611761
X0753064Y0609399
X0757622Y0623653
X0772787Y0623572
X0776304Y0624455
X0778531Y062222
X0782195Y0624202
X0784464Y0629037
X0797267
X0803931Y0630712
X0803869Y0623375
X0799653Y0617448
X0796248Y0610409
X0784437
X0772626
X0766708Y061536
X0783495Y0648332
X077708Y0655098
X0787976Y0662245
X0797356Y0639202
X081713Y0642022
X081987Y0634031
Y0610409
X0831681
X0825776Y062222
X0831681Y0634031
X0834516Y0642206
X0825776Y0645842
X085Y0656845
X0895975Y0634642
X0908953Y0638154
T03
X0062992Y0044488
X0082992
X0064204Y0123784
X0101732Y0135443
X0151666Y0127949
Y0123797
X0151684Y0097336
X0190848Y0095761
X0187048Y0076131
Y0072022
X0179154Y0114806
X0201174Y0095895
X0198866Y0076
Y0071892
X0229202Y0063564
X023331
X0243058Y0044488
X0253058
X0263058
X0318829
X0328829
X0338819
X0348829
X0358829
X0368829
X0378829
X0388829
X0398829
X0408829
X0418829
X0415883Y0082113
X0415883Y0086226
X0405359Y0084804
Y0088917
X0405359Y0093031
X0407209Y0134961
X0403095
X0398982
X051696Y0123784
X0554487Y0135443
X0604422Y0127949
Y0123797
X060444Y0097336
X0643604Y0095761
X065393Y0095895
X0651622Y0076
Y0071892
X0639804Y0072022
Y0076131
X063191Y0114806
X0535748Y0044488
X0515748
X0695814
X0705814
X0715814
X0686066Y0063564
X0681957
X0771585Y0044488
X0781585
X0791575
X0801585
X0811585
X0821585
X0831585
X0841585
X0851585
X0861585
X0871585
X0868639Y0082113
X0868639Y0086226
X0858115Y0084804
Y0088917
X0858115Y0093031
X0859965Y0134961
X0855851
X0851738
X0843729Y0145105
Y0149213
X0841585Y0178347
X0831585
X0851585
X0861585
X0871585
X0868639Y0215971
X0868639Y0220085
X0858115Y0218662
Y0222776
X0858115Y0226889
X0859965Y026882
X0855851
X0851738
X0843729Y0278964
Y0283071
X0821585Y0178347
X0811585
X0801585
X0791575
X0781585
X0771585
X0715814
X0705814
X0695814
X0686066Y0197422
X0681957
X0651622Y020575
Y0209859
X0639804Y0209989
Y0205881
X0643604Y0229619
X065393Y0229754
X063191Y0248664
X0604422Y0257655
Y0261807
X0595474Y027981
X0591322
X0554487Y0269301
X051696Y0257642
X0515748Y0178347
X0535748
X0591322Y0145952
X0595474
X060444Y0231194
X0499498Y0280569
X0407209Y026882
X0403095
X0398982
X0390973Y0278964
Y0283071
X0405359Y0226889
X0405359Y0222776
Y0218662
X0415883Y0220085
X0415883Y0215971
X0418829Y0178347
X0408829
X0398829
X0388829
X0378829
X0368829
X0358829
X0390973Y0149213
Y0145105
X0499498Y014671
X0348829Y0178347
X0338819
X0328829
X0318829
X0263058
X0253058
X0243058
X023331Y0197422
X0229202
X0198866Y020575
Y0209859
X0201174Y0229754
X0190848Y0229619
X0187048Y0209989
Y0205881
X0179154Y0248664
X0151666Y0257655
Y0261807
X0142718Y027981
X0138566
X0101732Y0269301
X0064204Y0257642
X0046742Y0280569
X0062992Y0178347
X0082992
X0046742Y014671
X0138566Y0145952
X0142718
X0151684Y0231194
Y0365053
X0151666Y0391513
Y0395665
X0142718Y0413669
X0138566
X0101732Y040316
X0064204Y03915
X0046742Y0414427
X0062992Y0446063
X0082992
Y0312205
X0062992
X0187048Y0339739
Y0343847
X0190848Y0363477
X0179154Y0382522
X0201174Y0363612
X0198866Y0343717
Y0339608
X0229202Y033128
X023331
X0243058Y0312205
X0253058
X0263058
X0318829
X0328829
X0338819
X0348829
Y0446063
X0338819
X0328829
X0318829
X0263058
X0253058
X0243058
X0358829
X0368829
X0378829
X0388829
X0398829
X0408829
X0418829
X0407209Y0402678
X0403095
X0398982
X0390973Y0412822
Y0416929
X0405359Y0360747
X0405359Y0356634
Y035252
X0415883Y0353943
X0415883Y034983
X0418829Y0312205
X0408829
X0398829
X0388829
X0378829
X0368829
X0358829
X0499498Y0414427
X051696Y03915
X0554487Y040316
X0591322Y0413669
X0595474
X0604422Y0395665
Y0391513
X060444Y0365053
X0643604Y0363477
X065393Y0363612
X0651622Y0343717
Y0339608
X0639804Y0339739
Y0343847
X063191Y0382522
X0535748Y0446063
X0515748
Y0312205
X0535748
X0695814
X0705814
X0715814
X0686066Y033128
X0681957
X0771585Y0312205
X0781585
X0791575
X0801585
X0811585
X0821585
Y0446063
X0811585
X0801585
X0791575
X0781585
X0771585
X0715814
X0705814
X0695814
X0831585
X0841585
X0851585
X0861585
X0871585
X0859965Y0402678
X0855851
X0851738
X0843729Y0412822
Y0416929
X0858115Y0360747
X0858115Y0356634
Y035252
X0868639Y0353943
X0868639Y034983
X0871585Y0312205
X0861585
X0851585
X0841585
X0831585
X0858115Y0486379
Y0490492
X0858115Y0494605
X0868639Y0487801
X0868639Y0483688
X0859965Y0536536
X0855851
X0851738
X0843729Y054668
Y0550787
X0841585Y0579921
X0831585
X0851585
X0861585
X0871585
X0821585
X0811585
X0801585
X0791575
X0781585
X0771585
X0715814
X0705814
X0695814
X0686066Y0598997
X0681957
Y0465138
X0686066
X0651622Y0473467
Y0477575
X0639804Y0477706
Y0473597
X0643604Y0497336
X065393Y049747
X063191Y0516381
X0604422Y0525372
Y0529523
X0595474Y0547527
X0591322
X0554487Y0537018
X051696Y0525359
X0515748Y0579921
X0535748
X0639804Y0607455
X0651622Y0607325
X060444Y0498911
X0499498Y0548285
X0407209Y0536536
X0403095
X0398982
X0390973Y054668
Y0550787
X0388829Y0579921
X0378829
X0368829
X0358829
X0398829
X0408829
X0418829
X0415883Y0487801
X0415883Y0483688
X0405359Y0486379
Y0490492
X0405359Y0494605
X0348829Y0579921
X0338819
X0328829
X0318829
X0263058
X0253058
X0243058
X023331Y0598997
X0229202
X0198866Y0607325
X0201174Y049747
X0198866Y0477575
Y0473467
X0229202Y0465138
X023331
X0187048Y0473597
Y0477706
X0190848Y0497336
X0179154Y0516381
X0151666Y0525372
Y0529523
X0142718Y0547527
X0138566
X0101732Y0537018
X0064204Y0525359
X0046742Y0548285
X0062992Y0579921
X0082992
X0187048Y0607455
X0151684Y0498911
Y0632769
X0151666Y065923
Y0663382
X0142718Y0681385
X0138566
X0101732Y0670876
X0064204Y0659217
X0046742Y0682143
X0179154Y0650239
X0190848Y0631194
X0187048Y0611564
X0198866Y0611433
X0201174Y0631328
X0405359Y0628464
X0405359Y062435
Y0620237
X0415883Y062166
X0415883Y0617546
X0407209Y0670394
X0403095
X0398982
X0390973Y0680539
Y0684646
X0499498Y0682143
X051696Y0659217
X0554487Y0670876
X0591322Y0681385
X0595474
X0604422Y0663382
Y065923
X060444Y0632769
X0643604Y0631194
X065393Y0631328
X0651622Y0611433
X0639804Y0611564
X063191Y0650239
X0851738Y0670394
X0855851
X0859965
X0843729Y0680539
Y0684646
X0858115Y0628464
X0858115Y062435
Y0620237
X0868639Y062166
X0868639Y0617546
T04
X0359984Y0097292
X0373764Y0097292
X081274Y0097292
X082652Y0097292
Y023115
X081274Y023115
X0373764Y023115
X0359984Y023115
Y0365008
X0373764Y0365008
X081274Y0365008
X082652Y0365008
Y0498867
X081274Y0498867
X0373764Y0498867
X0359984Y0498867
Y0632725
X0373764Y0632725
X081274Y0632725
X082652Y0632725
T05
X0666807Y0146537
X0676807
X0686807
X0696807
X0807282Y0146306
X0817282Y0146306
Y0280165
X0807282Y0280165
X0696807Y0280396
X0686807
X0676807
X0666807
X0656807
X0646807
X0636807
Y0146537
X0646807
X0656807
X0364527Y0146306
X0354526Y0146306
Y0280165
X0364527Y0280165
X0244051Y0280396
X0234051
X0224051
X0214051
X0204051
Y0146537
X0214051
X0224051
X0234051
X0244051
X0194051
X0184051
Y0280396
X0194051
Y0414254
X0184051
X0204051
X0214051
X0224051
X0234051
X0244051
X0354526Y0414023
X0364527Y0414023
X0636807Y0414254
X0646807
X0656807
X0666807
X0676807
X0686807
X0696807
X0807282Y0414023
X0817282Y0414023
Y0547881
X0807282Y0547881
X0696807Y0548112
X0686807
X0676807
X0666807
X0656807
X0646807
X0636807
X0364527Y0547881
X0354526Y0547881
X0244051Y0548112
X0234051
X0224051
X0214051
X0204051
X0194051
X0184051
Y0681971
X0194051
X0204051
X0214051
X0224051
X0234051
X0244051
X0354526Y0681739
X0364527Y0681739
X0636807Y0681971
X0646807
X0656807
X0666807
X0676807
X0686807
X0696807
X0807282Y0681739
X0817282Y0681739
T06
X0062992Y0069089
X0060938Y0083595
X0082992Y0069089
X0242992
X0262992
X0318829Y006922
X0338829
X0358829
X0378829
X0398829
X0418829
X0462992Y0069089
Y0111181
Y0131181
X0513694Y0083595
X0515748Y0069089
X0535748
X0695748
X0715748
X0771585Y006922
X0791585
X0811585
X0831585
X0851585
X0871585
X0915748Y0069089
Y0111181
Y0131181
Y0202947
Y0245039
Y0265039
X0871585Y0203078
X0851585
X0831585
X0811585
X0791585
X0771585
X0715748Y0202947
X0695748
X0535748
X0515748
X0513694Y0217453
Y0276508
Y014265
X0462992Y0202947
Y0245039
Y0265039
X0418829Y0203078
X0398829
X0378829
X0358829
X0338829
X0318829
X0262992Y0202947
X0242992
X0082992
X0062992
X0060938Y0217453
Y0276508
Y014265
X0062992Y0336805
X0060938Y0351311
X0082992Y0336805
X0060938Y0410366
X0242992Y0336805
X0262992
X0318829Y0336936
X0338829
X0358829
X0378829
X0398829
X0418829
X0462992Y0336805
Y0378898
Y0398898
X0513694Y0410366
Y0351311
X0515748Y0336805
X0535748
X0695748
X0715748
X0771585Y0336936
X0791585
X0811585
X0831585
X0851585
X0871585
X0915748Y0336805
Y0378898
Y0398898
Y0470664
Y0512756
Y0532756
Y0604522
X0871585Y0604653
X0851585
X0831585
Y0470794
X0851585
X0871585
X0811585
X0791585
X0771585
X0715748Y0470664
X0695748
Y0604522
X0715748
X0771585Y0604653
X0791585
X0811585
X0535748Y0604522
X0515748
X0513694Y0544225
Y0485169
X0515748Y0470664
X0535748
X0462992
Y0512756
Y0532756
Y0604522
X0418829Y0604653
X0398829
X0378829
X0358829
Y0470794
X0378829
X0398829
X0418829
X0338829
X0318829
X0262992Y0470664
X0242992
Y0604522
X0262992
X0318829Y0604653
X0338829
X0082992Y0604522
X0062992
X0060938Y0544225
Y0485169
X0062992Y0470664
X0082992
X0060938Y0619028
Y0678083
X0462992Y0666614
Y0646614
X0513694Y0619028
Y0678083
X0915748Y0666614
Y0646614
M30
