%FSDAX44Y44*%
%MOMM*%
%SFA1B1*%

%IPPOS*%
%AMD110*
4,1,8,0.398780,0.398780,-0.398780,0.398780,-0.599440,0.200660,-0.599440,-0.200660,-0.398780,-0.398780,0.398780,-0.398780,0.599440,-0.200660,0.599440,0.200660,0.398780,0.398780,0.0*
1,1,0.400000,0.398780,0.200660*
1,1,0.400000,-0.398780,0.200660*
1,1,0.400000,-0.398780,-0.200660*
1,1,0.400000,0.398780,-0.200660*
%
%AMD145*
4,1,4,0.749300,-0.497840,0.749300,0.497840,-0.749300,0.497840,-0.749300,-0.497840,0.749300,-0.497840,0.0*
%
%AMD146*
4,1,4,0.698500,-0.474980,0.698500,0.474980,-0.698500,0.474980,-0.698500,-0.474980,0.698500,-0.474980,0.0*
%
%AMD147*
4,1,4,0.998220,-0.749300,0.998220,0.749300,-0.998220,0.749300,-0.998220,-0.749300,0.998220,-0.749300,0.0*
%
%AMD148*
4,1,4,0.474980,-0.698500,0.474980,0.698500,-0.474980,0.698500,-0.474980,-0.698500,0.474980,-0.698500,0.0*
%
%AMD149*
4,1,4,0.449580,-0.398780,0.449580,0.398780,-0.449580,0.398780,-0.449580,-0.398780,0.449580,-0.398780,0.0*
%
%AMD150*
4,1,4,0.848360,-0.497840,0.848360,0.497840,-0.848360,0.497840,-0.848360,-0.497840,0.848360,-0.497840,0.0*
%
%AMD151*
4,1,4,0.398780,-0.449580,0.398780,0.449580,-0.398780,0.449580,-0.398780,-0.449580,0.398780,-0.449580,0.0*
%
%AMD152*
4,1,4,0.899160,-0.449580,0.899160,0.449580,-0.899160,0.449580,-0.899160,-0.449580,0.899160,-0.449580,0.0*
%
%AMD153*
4,1,4,0.353060,-1.013460,0.353060,1.013460,-0.353060,1.013460,-0.353060,-1.013460,0.353060,-1.013460,0.0*
%
%AMD154*
4,1,4,0.749300,-0.998220,0.749300,0.998220,-0.749300,0.998220,-0.749300,-0.998220,0.749300,-0.998220,0.0*
%
%AMD155*
4,1,4,0.497840,-0.848360,0.497840,0.848360,-0.497840,0.848360,-0.497840,-0.848360,0.497840,-0.848360,0.0*
%
%AMD156*
4,1,4,1.099820,-0.848360,1.099820,0.848360,-1.099820,0.848360,-1.099820,-0.848360,1.099820,-0.848360,0.0*
%
%AMD157*
4,1,4,0.619760,-1.584960,0.619760,1.584960,-0.619760,1.584960,-0.619760,-1.584960,0.619760,-1.584960,0.0*
%
%AMD158*
4,1,8,0.398780,-0.398780,0.398780,0.398780,0.200660,0.599440,-0.200660,0.599440,-0.398780,0.398780,-0.398780,-0.398780,-0.200660,-0.599440,0.200660,-0.599440,0.398780,-0.398780,0.0*
1,1,0.400000,0.200660,-0.398780*
1,1,0.400000,0.200660,0.398780*
1,1,0.400000,-0.200660,0.398780*
1,1,0.400000,-0.200660,-0.398780*
%
%AMD159*
4,1,4,0.449580,-0.899160,0.449580,0.899160,-0.449580,0.899160,-0.449580,-0.899160,0.449580,-0.899160,0.0*
%
%AMD160*
4,1,4,0.299720,-0.899160,0.299720,0.899160,-0.299720,0.899160,-0.299720,-0.899160,0.299720,-0.899160,0.0*
%
%AMD161*
4,1,4,1.899920,-1.399540,1.899920,1.399540,-1.899920,1.399540,-1.899920,-1.399540,1.899920,-1.399540,0.0*
%
%AMD162*
4,1,8,0.000000,-0.563880,0.563880,0.000000,0.566420,0.281940,0.281940,0.566420,0.000000,0.563880,-0.563880,0.000000,-0.566420,-0.281940,-0.281940,-0.566420,0.000000,-0.563880,0.0*
1,1,0.400000,-0.139700,-0.424180*
1,1,0.400000,0.424180,0.139700*
1,1,0.400000,0.139700,0.424180*
1,1,0.400000,-0.424180,-0.139700*
%
%AMD163*
4,1,4,0.899160,-0.299720,0.899160,0.299720,-0.899160,0.299720,-0.899160,-0.299720,0.899160,-0.299720,0.0*
%
%AMD164*
4,1,4,0.848360,-1.099820,0.848360,1.099820,-0.848360,1.099820,-0.848360,-1.099820,0.848360,-1.099820,0.0*
%
%AMD165*
4,1,4,1.348740,-0.497840,1.348740,0.497840,-1.348740,0.497840,-1.348740,-0.497840,1.348740,-0.497840,0.0*
%
%AMD166*
4,1,4,1.460500,-1.584960,1.460500,1.584960,-1.460500,1.584960,-1.460500,-1.584960,1.460500,-1.584960,0.0*
%
%AMD167*
4,1,4,1.435100,-1.584960,1.435100,1.584960,-1.435100,1.584960,-1.435100,-1.584960,1.435100,-1.584960,0.0*
%
%AMD168*
4,1,4,1.435100,-1.562100,1.435100,1.562100,-1.435100,1.562100,-1.435100,-1.562100,1.435100,-1.562100,0.0*
%
%AMD169*
4,1,4,1.460500,-1.562100,1.460500,1.562100,-1.460500,1.562100,-1.460500,-1.562100,1.460500,-1.562100,0.0*
%
%AMD170*
4,1,4,0.698500,-1.399540,0.698500,1.399540,-0.698500,1.399540,-0.698500,-1.399540,0.698500,-1.399540,0.0*
%
G04~CAMADD=110~8~0.0~0.0~472.4~315.0~78.7~0.0~15~0.0~0.0~0.0~0.0~0~0.0~0.0~0.0~0.0~0~0.0~0.0~0.0~0.0~472.4~315.0*
%ADD110D110*%
G04~CAMADD=145~9~0.0~0.0~393.7~590.5~0.0~0.0~0~0.0~0.0~0.0~0.0~0~0.0~0.0~0.0~0.0~0~0.0~0.0~0.0~-90.0~590.0~392.0*
%ADD145D145*%
G04~CAMADD=146~9~0.0~0.0~374.0~551.2~0.0~0.0~0~0.0~0.0~0.0~0.0~0~0.0~0.0~0.0~0.0~0~0.0~0.0~0.0~-90.0~550.0~374.0*
%ADD146D146*%
G04~CAMADD=147~9~0.0~0.0~590.5~787.4~0.0~0.0~0~0.0~0.0~0.0~0.0~0~0.0~0.0~0.0~0.0~0~0.0~0.0~0.0~-90.0~786.0~590.0*
%ADD147D147*%
G04~CAMADD=148~9~0.0~0.0~551.2~374.0~0.0~0.0~0~0.0~0.0~0.0~0.0~0~0.0~0.0~0.0~0.0~0~0.0~0.0~0.0~-90.0~374.0~550.0*
%ADD148D148*%
G04~CAMADD=149~9~0.0~0.0~315.0~354.3~0.0~0.0~0~0.0~0.0~0.0~0.0~0~0.0~0.0~0.0~0.0~0~0.0~0.0~0.0~-90.0~354.0~314.0*
%ADD149D149*%
G04~CAMADD=150~9~0.0~0.0~393.7~669.3~0.0~0.0~0~0.0~0.0~0.0~0.0~0~0.0~0.0~0.0~0.0~0~0.0~0.0~0.0~-90.0~668.0~392.0*
%ADD150D150*%
G04~CAMADD=151~9~0.0~0.0~354.3~315.0~0.0~0.0~0~0.0~0.0~0.0~0.0~0~0.0~0.0~0.0~0.0~0~0.0~0.0~0.0~-90.0~314.0~354.0*
%ADD151D151*%
G04~CAMADD=152~9~0.0~0.0~354.3~708.7~0.0~0.0~0~0.0~0.0~0.0~0.0~0~0.0~0.0~0.0~0.0~0~0.0~0.0~0.0~-90.0~708.0~354.0*
%ADD152D152*%
G04~CAMADD=153~9~0.0~0.0~800.0~280.0~0.0~0.0~0~0.0~0.0~0.0~0.0~0~0.0~0.0~0.0~0.0~0~0.0~0.0~0.0~-90.0~278.0~798.0*
%ADD153D153*%
G04~CAMADD=154~9~0.0~0.0~787.4~590.5~0.0~0.0~0~0.0~0.0~0.0~0.0~0~0.0~0.0~0.0~0.0~0~0.0~0.0~0.0~-90.0~590.0~786.0*
%ADD154D154*%
G04~CAMADD=155~9~0.0~0.0~669.3~393.7~0.0~0.0~0~0.0~0.0~0.0~0.0~0~0.0~0.0~0.0~0.0~0~0.0~0.0~0.0~-90.0~392.0~668.0*
%ADD155D155*%
G04~CAMADD=156~9~0.0~0.0~669.3~866.1~0.0~0.0~0~0.0~0.0~0.0~0.0~0~0.0~0.0~0.0~0.0~0~0.0~0.0~0.0~-90.0~866.0~668.0*
%ADD156D156*%
G04~CAMADD=157~9~0.0~0.0~1250.0~490.0~0.0~0.0~0~0.0~0.0~0.0~0.0~0~0.0~0.0~0.0~0.0~0~0.0~0.0~0.0~-90.0~488.0~1248.0*
%ADD157D157*%
G04~CAMADD=158~8~0.0~0.0~472.4~315.0~78.7~0.0~15~0.0~0.0~0.0~0.0~0~0.0~0.0~0.0~0.0~0~0.0~0.0~0.0~-90.0~314.0~472.0*
%ADD158D158*%
G04~CAMADD=159~9~0.0~0.0~708.7~354.3~0.0~0.0~0~0.0~0.0~0.0~0.0~0~0.0~0.0~0.0~0.0~0~0.0~0.0~0.0~-90.0~354.0~708.0*
%ADD159D159*%
G04~CAMADD=160~9~0.0~0.0~708.7~236.2~0.0~0.0~0~0.0~0.0~0.0~0.0~0~0.0~0.0~0.0~0.0~0~0.0~0.0~0.0~-90.0~236.0~708.0*
%ADD160D160*%
G04~CAMADD=161~9~0.0~0.0~1102.4~1496.1~0.0~0.0~0~0.0~0.0~0.0~0.0~0~0.0~0.0~0.0~0.0~0~0.0~0.0~0.0~-90.0~1496.0~1102.0*
%ADD161D161*%
G04~CAMADD=162~8~0.0~0.0~472.4~315.0~78.7~0.0~15~0.0~0.0~0.0~0.0~0~0.0~0.0~0.0~0.0~0~0.0~0.0~0.0~225.0~490.0~490.0*
%ADD162D162*%
G04~CAMADD=163~9~0.0~0.0~236.2~708.7~0.0~0.0~0~0.0~0.0~0.0~0.0~0~0.0~0.0~0.0~0.0~0~0.0~0.0~0.0~-90.0~708.0~236.0*
%ADD163D163*%
G04~CAMADD=164~9~0.0~0.0~866.1~669.3~0.0~0.0~0~0.0~0.0~0.0~0.0~0~0.0~0.0~0.0~0.0~0~0.0~0.0~0.0~-90.0~668.0~866.0*
%ADD164D164*%
G04~CAMADD=165~9~0.0~0.0~393.7~1063.0~0.0~0.0~0~0.0~0.0~0.0~0.0~0~0.0~0.0~0.0~0.0~0~0.0~0.0~0.0~-90.0~1062.0~392.0*
%ADD165D165*%
G04~CAMADD=166~9~0.0~0.0~1250.0~1151.6~0.0~0.0~0~0.0~0.0~0.0~0.0~0~0.0~0.0~0.0~0.0~0~0.0~0.0~0.0~-90.0~1150.0~1248.0*
%ADD166D166*%
G04~CAMADD=167~9~0.0~0.0~1250.0~1131.9~0.0~0.0~0~0.0~0.0~0.0~0.0~0~0.0~0.0~0.0~0.0~0~0.0~0.0~0.0~-90.0~1130.0~1248.0*
%ADD167D167*%
G04~CAMADD=168~9~0.0~0.0~1230.3~1131.9~0.0~0.0~0~0.0~0.0~0.0~0.0~0~0.0~0.0~0.0~0.0~0~0.0~0.0~0.0~-90.0~1130.0~1230.0*
%ADD168D168*%
G04~CAMADD=169~9~0.0~0.0~1230.3~1151.6~0.0~0.0~0~0.0~0.0~0.0~0.0~0~0.0~0.0~0.0~0.0~0~0.0~0.0~0.0~-90.0~1150.0~1230.0*
%ADD169D169*%
G04~CAMADD=170~9~0.0~0.0~1102.4~551.2~0.0~0.0~0~0.0~0.0~0.0~0.0~0~0.0~0.0~0.0~0.0~0~0.0~0.0~0.0~-90.0~550.0~1102.0*
%ADD170D170*%
%LNrc150w_mdp_1.0_(rsc-p01f-v00)_sngl_gerber-0-1*%
%LPD*%
G54D145*
X00064960Y00974707D03*
X00024960D03*
X00064960Y01177707D03*
Y01370706D03*
Y01319707D03*
X00024960D03*
Y01370706D03*
Y01177707D03*
Y01126706D03*
X00064960D03*
X00024960Y01076707D03*
X00064960D03*
X00024960Y01025706D03*
X00064960D03*
X00024960Y00923707D03*
X00064960D03*
X00024960Y01776706D03*
Y01827707D03*
X00064960Y01776706D03*
Y01827707D03*
X00024960Y01345206D03*
X00064960D03*
X00024960Y01152207D03*
X00064960D03*
X00024960Y01101707D03*
X00064960D03*
X00024960Y01051206D03*
X00064960D03*
X00024960Y00949206D03*
X00064960D03*
X00024960Y00425975D03*
X00064960D03*
X00024960Y00345974D03*
Y00305975D03*
Y00325975D03*
X00064960D03*
Y00305975D03*
Y00345974D03*
Y00365974D03*
X00024960D03*
X00064960Y00385975D03*
X00024960D03*
X00064960Y00405975D03*
X00024960D03*
X00064960Y00445975D03*
X00024960D03*
X00064960Y00273975D03*
Y00253974D03*
G54D146*
X00140382Y00390934D03*
Y00409435D03*
X00097242Y01660618D03*
Y01642117D03*
X00659598Y00764955D03*
Y00746454D03*
X00665948Y00207974D03*
Y00226475D03*
X00667980Y00266861D03*
Y00248360D03*
X00669146Y00300897D03*
Y00282396D03*
X00237450Y00811478D03*
Y00829979D03*
X00390358Y01214535D03*
Y01196034D03*
X00407122Y00253761D03*
Y00272260D03*
G54D147*
X00468082Y01215713D03*
Y01185712D03*
X00632928Y00783659D03*
Y00753658D03*
X00531930Y00251651D03*
Y00281650D03*
X00499418Y00251397D03*
Y00281396D03*
X00305014Y00078047D03*
Y00048046D03*
X00625308Y01278197D03*
Y01248196D03*
X00232370Y00871768D03*
Y00901769D03*
X00398486Y00772200D03*
Y00802201D03*
X00409916Y00424728D03*
Y00454729D03*
X00279868Y00452414D03*
Y00482415D03*
G54D148*
X00064878Y01605588D03*
X00083378D03*
X00513442Y00547678D03*
X00531942D03*
X00111106Y00432362D03*
X00129606D03*
X00573795Y00291392D03*
X00555296D03*
X00420436Y00706936D03*
X00401936D03*
X00398084Y00942902D03*
X00379584D03*
X00429686Y00603304D03*
X00411186D03*
G54D149*
X00658582Y00732741D03*
Y00719741D03*
X00436586Y00260415D03*
Y00273414D03*
X00406106Y00298909D03*
Y00285909D03*
X00622834Y00714455D03*
Y00733455D03*
X00642834Y00723954D03*
X00668742Y00329539D03*
Y00316538D03*
X00416520Y01293781D03*
Y01306781D03*
X00147788Y01677216D03*
X00167788Y01667717D03*
Y01686717D03*
X00105370Y01091597D03*
Y01104597D03*
X00105116Y01135285D03*
Y01148285D03*
X00241514Y01019969D03*
Y01032969D03*
X00311872Y00861773D03*
Y00848773D03*
X00504404Y00881481D03*
Y00868480D03*
X00329558Y00827993D03*
Y00846993D03*
X00349558Y00837492D03*
X00026376Y00581565D03*
Y00594565D03*
X00149406Y00351336D03*
X00129406Y00360837D03*
Y00341837D03*
X00155662Y00422156D03*
Y00435156D03*
X00607782Y00733457D03*
Y00746457D03*
X00575364Y00274731D03*
Y00255731D03*
X00555364Y00265230D03*
X00348390Y00702469D03*
Y00715469D03*
X00384770Y01252125D03*
Y01265125D03*
X00464526Y01246686D03*
Y01259687D03*
X00138136Y01578918D03*
Y01591918D03*
X00386184Y00715469D03*
Y00702469D03*
X00367440Y00715469D03*
Y00702469D03*
X00173790Y01588062D03*
X00153790Y01597563D03*
Y01578563D03*
X00046188Y00581565D03*
Y00594565D03*
X00398994Y01293676D03*
Y01306677D03*
X00321524Y01149555D03*
Y01136555D03*
X00364958Y00811076D03*
Y00824077D03*
X00388580Y00286163D03*
Y00299163D03*
Y00260509D03*
Y00273509D03*
X00282408Y00786335D03*
Y00773335D03*
X00099456Y00363171D03*
Y00350171D03*
Y00337891D03*
X00099455Y00324891D03*
G54D150*
X00605258Y00759017D03*
Y00792016D03*
X00368208Y00298614D03*
Y00265614D03*
X00472540Y00273085D03*
Y00240084D03*
X00592956Y00280930D03*
Y00247930D03*
X00124674Y01648725D03*
Y01681725D03*
X00226020Y00788701D03*
Y00755701D03*
X00169996Y01866182D03*
Y01833183D03*
X00307808Y00796080D03*
Y00763081D03*
X00221702Y01042460D03*
Y01009461D03*
G54D151*
X00640190Y00687886D03*
X00627190D03*
X00575696Y00575110D03*
X00562696D03*
X00626445Y00570284D03*
X00613445D03*
X00657670Y00540566D03*
X00670670D03*
X00657670Y00557584D03*
X00670670D03*
X00670416Y00523294D03*
X00657416D03*
X00148954Y01563678D03*
X00135954D03*
X00090488Y01625500D03*
X00103488D03*
X00388984Y01876352D03*
X00375984D03*
X00584772Y00481384D03*
X00597772D03*
X00571310Y00369624D03*
X00584310D03*
X00609606Y00369370D03*
X00596606D03*
X00584518Y00464112D03*
X00597518D03*
X00609918D03*
X00622918D03*
X00232325Y00159566D03*
X00245324D03*
X00245174Y00142040D03*
X00258174D03*
X00257874Y00159566D03*
X00270874D03*
X00335344Y00577904D03*
X00348344D03*
X00656146Y00704142D03*
X00669146D03*
X00640190Y00671122D03*
X00627190D03*
X00470472Y00564950D03*
X00483472D03*
X00571604Y00549456D03*
X00584604D03*
X00600797Y00570284D03*
X00587798D03*
X00609029Y00550921D03*
X00622028D03*
X00600520Y00516947D03*
X00613520D03*
X00505570Y00650040D03*
X00492570D03*
X00636946Y00229416D03*
X00649946D03*
X00624427Y00229162D03*
X00611427D03*
X00635318Y00334064D03*
X00648318D03*
X00579588Y00347875D03*
X00570088Y00327874D03*
X00589088D03*
X00394930Y01279452D03*
X00381930D03*
X00456248Y01295454D03*
X00469248D03*
X00468994Y01277674D03*
X00455994D03*
X00428054Y01184456D03*
X00441054D03*
X00306640Y01133816D03*
X00287640D03*
X00297140Y01153817D03*
X00337630Y01134164D03*
X00350630D03*
X00337630Y01154738D03*
X00350630D03*
X00232924Y00845620D03*
X00219924D03*
X00267064Y00829110D03*
X00254064D03*
X00254318Y00811076D03*
X00267318D03*
X00259906Y00928932D03*
X00272906D03*
X00327470Y00861876D03*
X00340470D03*
X00296482Y00928678D03*
X00309482D03*
X00584772Y00498402D03*
X00597772D03*
X00114006Y00413153D03*
X00104506Y00393152D03*
X00123506D03*
X00635658Y00534352D03*
X00626158Y00514352D03*
X00645158D03*
X00609918Y00498148D03*
X00622918D03*
X00258278Y00793399D03*
X00248778Y00773399D03*
X00267778D03*
X00142604Y00284026D03*
X00129604D03*
X00262238Y00758498D03*
X00249238D03*
X00419718Y01279452D03*
X00406718D03*
X00280734Y00834444D03*
X00293734D03*
X00584446Y00531676D03*
X00571446D03*
X00657670Y00574400D03*
X00670670D03*
X00583502Y00670106D03*
X00596502D03*
X00616568Y00347780D03*
X00603568D03*
X00611292Y00211636D03*
X00624292D03*
X00350408Y00812600D03*
X00337408D03*
X00397874Y00890578D03*
X00384874D03*
X00376284Y00849684D03*
X00363284D03*
X00366378Y00944680D03*
X00353378D03*
X00656146Y00669598D03*
X00669146D03*
X00591676Y00311458D03*
X00578676D03*
X00636946Y00211382D03*
X00649946D03*
X00273876Y00758752D03*
X00286876D03*
X00554546Y00240592D03*
X00567546D03*
X00622918Y00481130D03*
X00609918D03*
G54D152*
X00390548Y00164183D03*
Y00135182D03*
X00415504Y00164160D03*
Y00135161D03*
X00440396Y00164160D03*
Y00135161D03*
X00339495Y00164183D03*
Y00135182D03*
X00364704Y00164160D03*
Y00135161D03*
X00314666Y00164160D03*
Y00135161D03*
X00044918Y01635582D03*
Y01606583D03*
X00070572Y01653362D03*
Y01624363D03*
X00169886Y01736420D03*
Y01707421D03*
X00282916Y00535000D03*
Y00506001D03*
X00408900Y00504520D03*
Y00475521D03*
X00437856Y01277399D03*
Y01306398D03*
X00097750Y01703908D03*
Y01674909D03*
X00070318Y01696288D03*
Y01667289D03*
X00070572Y01739722D03*
Y01710723D03*
X00098004Y01760042D03*
Y01731043D03*
X00044156Y01724990D03*
Y01695991D03*
X00044410Y01680286D03*
Y01651287D03*
X00398994Y00854024D03*
Y00825025D03*
X00333716Y00906348D03*
Y00877349D03*
X00519898Y00922524D03*
Y00893525D03*
X00503642Y00937547D03*
Y00966546D03*
X00169886Y01820494D03*
Y01791495D03*
Y01778589D03*
Y01749589D03*
X00123150Y01732610D03*
Y01703611D03*
X00417028Y00890303D03*
Y00919302D03*
X00442555Y00893525D03*
Y00922524D03*
X00468336Y00893525D03*
Y00922524D03*
X00494117Y00893525D03*
Y00922524D03*
X00406764Y00646328D03*
Y00675328D03*
X00433256Y00646328D03*
X00433257Y00675328D03*
X00459749Y00646328D03*
Y00675328D03*
G54D153*
X00580604Y00595938D03*
X00593304D03*
X00606004D03*
X00618704D03*
X00631404D03*
X00644104D03*
X00656804D03*
X00669504D03*
X00580604Y00649278D03*
X00593304D03*
X00606004D03*
X00618704D03*
X00631404D03*
X00644104D03*
X00656804D03*
X00669504D03*
G54D154*
X00110210Y00707444D03*
X00080210D03*
X00488670Y00064062D03*
X00458670D03*
X00318744Y01066346D03*
X00288744D03*
X00319224Y00738178D03*
X00349224D03*
X00461492Y01060758D03*
X00431492D03*
X00622020Y01068124D03*
X00592020D03*
X00156184Y00788470D03*
X00126184D03*
G54D155*
X00074372Y01582474D03*
X00041372D03*
X00534366Y00570538D03*
X00501366D03*
X00435814Y00579428D03*
X00402814D03*
X00359360Y00788279D03*
X00326360D03*
X00281402Y00815140D03*
X00314402D03*
X00326614Y00765546D03*
X00359614Y00765547D03*
X00364968Y00964746D03*
X00397968D03*
G54D156*
X00278188Y01098604D03*
X00322188D03*
X00144642Y00458778D03*
X00100642D03*
X00179440Y00713286D03*
X00135440D03*
X00120708Y00757228D03*
X00164708D03*
X00509456Y00163122D03*
X00465456D03*
X00130106Y00625656D03*
X00174106D03*
X00397880Y01061266D03*
X00353880D03*
X00262752Y01067870D03*
X00218752D03*
G54D157*
X00366228Y01741224D03*
X00429728D03*
G54D158*
X00048728Y00566419D03*
X00036028D03*
Y00503539D03*
X00048728D03*
X00594320Y00385175D03*
X00607020D03*
Y00448055D03*
X00594320D03*
G54D159*
X00588456Y00188268D03*
X00617456D03*
X00630620Y00188014D03*
X00659620D03*
X00440120Y01556312D03*
X00469120D03*
X00397702D03*
X00426702D03*
X00229808Y01095302D03*
X00258808D03*
X00497016Y01025960D03*
X00526016D03*
X00062168Y00167440D03*
X00091168D03*
X00132846Y00202492D03*
X00103846D03*
X00132846Y00167440D03*
X00103846D03*
X00091168Y00202492D03*
X00062168D03*
X00142222Y00236782D03*
X00113222D03*
X00142222Y00262182D03*
X00113222D03*
X00338564Y00949760D03*
X00309564D03*
X00296654Y00950014D03*
X00267654D03*
X00554210Y00943664D03*
X00525210D03*
X00338818Y00975414D03*
X00309818D03*
X00296146Y00975922D03*
X00267146D03*
X00109456Y00625148D03*
X00080456D03*
G54D160*
X00651724Y00314837D03*
X00613624Y00260836D03*
X00626324D03*
X00639024D03*
X00651724D03*
X00613624Y00314837D03*
X00626324D03*
X00639024D03*
X00445222Y01258955D03*
X00407122Y01204954D03*
X00419822D03*
X00432522D03*
X00445222D03*
X00407122Y01258955D03*
X00419822D03*
X00432522D03*
X00258532Y00854180D03*
X00296632Y00908181D03*
X00283932D03*
X00271232D03*
X00258532D03*
X00296632Y00854180D03*
X00283932D03*
X00271232D03*
G54D110*
X00124960Y01103684D03*
Y01090984D03*
X00187840D03*
Y01103684D03*
X00188014Y01130354D03*
Y01143054D03*
X00125134D03*
Y01130354D03*
G54D161*
X00579080Y01311897D03*
Y01239896D03*
X00591018Y00869310D03*
Y00941311D03*
G54D162*
X00212011Y00495914D03*
X00220991Y00486934D03*
X00176529Y00442471D03*
X00167549Y00451452D03*
G54D163*
X00263028Y01042470D03*
X00317028Y01004370D03*
Y01017070D03*
Y01029770D03*
Y01042470D03*
X00263028Y01004370D03*
Y01017070D03*
Y01029770D03*
G54D164*
X00125182Y01801071D03*
Y01757070D03*
G54D165*
X00192492Y01011731D03*
Y01042730D03*
G54D166*
X00453165Y00444898D03*
X00323739Y00452145D03*
X00436619Y00769137D03*
G54D167*
X00492416Y00444901D03*
X00362988Y00452147D03*
X00475869Y00769142D03*
G54D168*
X00492417Y00482398D03*
X00362989Y00489645D03*
X00475870Y00806637D03*
G54D169*
X00453165Y00482398D03*
X00323739Y00489645D03*
X00436619Y00806637D03*
G54D170*
X00449540Y00537772D03*
X00495540D03*
X00320114Y00545021D03*
X00366114D03*
X00432994Y00862013D03*
X00478994D03*
G54D145*
X00756960Y00974709D03*
X00716960D03*
X00756960Y01177709D03*
Y01370709D03*
Y01319709D03*
X00716960D03*
Y01370709D03*
Y01177709D03*
Y01126708D03*
X00756960D03*
X00716960Y01076709D03*
X00756960D03*
X00716960Y01025708D03*
X00756960D03*
X00716960Y00923709D03*
X00756960D03*
X00716960Y01776708D03*
Y01827709D03*
X00756960Y01776708D03*
Y01827709D03*
X00716960Y01345208D03*
X00756960D03*
X00716960Y01152209D03*
X00756960D03*
X00716960Y01101709D03*
X00756960D03*
X00716960Y01051209D03*
X00756960D03*
X00716960Y00949208D03*
X00756960D03*
X00716960Y00425977D03*
X00756960D03*
X00716960Y00345976D03*
Y00305977D03*
Y00325977D03*
X00756960D03*
Y00305977D03*
Y00345976D03*
Y00365976D03*
X00716960D03*
X00756960Y00385977D03*
X00716960D03*
X00756960Y00405977D03*
X00716960D03*
X00756960Y00445977D03*
X00716960D03*
X00756960Y00273977D03*
Y00253976D03*
G54D146*
X00832382Y00390937D03*
Y00409437D03*
X00789242Y01660620D03*
Y01642119D03*
X01351598Y00764957D03*
Y00746457D03*
X01357948Y00207977D03*
Y00226477D03*
X01359980Y00266863D03*
Y00248363D03*
X01361146Y00300899D03*
Y00282399D03*
X00929450Y00811481D03*
Y00829981D03*
X01082358Y01214537D03*
Y01196037D03*
X01099122Y00253763D03*
Y00272262D03*
G54D147*
X01160082Y01215715D03*
Y01185714D03*
X01324928Y00783661D03*
Y00753660D03*
X01223930Y00251653D03*
Y00281653D03*
X01191418Y00251399D03*
Y00281399D03*
X00997014Y00078049D03*
Y00048048D03*
X01317308Y01278199D03*
Y01248198D03*
X00924370Y00871770D03*
Y00901771D03*
X01090486Y00772202D03*
Y00802203D03*
X01101916Y00424730D03*
Y00454731D03*
X00971868Y00452416D03*
Y00482417D03*
G54D148*
X00756878Y01605590D03*
X00775378D03*
X01205442Y00547680D03*
X01223942D03*
X00803106Y00432364D03*
X00821606D03*
X01265795Y00291394D03*
X01247296D03*
X01112436Y00706938D03*
X01093936D03*
X01090084Y00942904D03*
X01071584D03*
X01121686Y00603306D03*
X01103186D03*
G54D149*
X01350582Y00732743D03*
Y00719743D03*
X01128586Y00260417D03*
Y00273416D03*
X01098106Y00298911D03*
Y00285911D03*
X01314834Y00714457D03*
Y00733457D03*
X01334834Y00723956D03*
X01360742Y00329541D03*
Y00316540D03*
X01108520Y01293783D03*
Y01306783D03*
X00839788Y01677218D03*
X00859788Y01667719D03*
Y01686719D03*
X00797370Y01091599D03*
Y01104599D03*
X00797116Y01135287D03*
Y01148287D03*
X00933514Y01019971D03*
Y01032971D03*
X01003872Y00861775D03*
Y00848775D03*
X01196404Y00881483D03*
Y00868482D03*
X01021558Y00827995D03*
Y00846995D03*
X01041558Y00837494D03*
X00718376Y00581567D03*
Y00594567D03*
X00841406Y00351338D03*
X00821406Y00360839D03*
Y00341839D03*
X00847662Y00422158D03*
Y00435158D03*
X01299782Y00733459D03*
Y00746459D03*
X01267364Y00274733D03*
Y00255733D03*
X01247364Y00265232D03*
X01040390Y00702471D03*
Y00715471D03*
X01076770Y01252127D03*
Y01265127D03*
X01156526Y01246688D03*
Y01259689D03*
X00830136Y01578920D03*
Y01591920D03*
X01078184Y00715471D03*
Y00702471D03*
X01059440Y00715471D03*
Y00702471D03*
X00865790Y01588064D03*
X00845790Y01597565D03*
Y01578565D03*
X00738188Y00581567D03*
Y00594567D03*
X01090994Y01293678D03*
Y01306679D03*
X01013524Y01149557D03*
Y01136557D03*
X01056958Y00811078D03*
Y00824079D03*
X01080580Y00286165D03*
Y00299165D03*
Y00260511D03*
Y00273511D03*
X00974408Y00786337D03*
Y00773337D03*
X00791456Y00363173D03*
Y00350173D03*
Y00337893D03*
X00791455Y00324893D03*
G54D150*
X01297258Y00759019D03*
Y00792019D03*
X01060208Y00298616D03*
Y00265616D03*
X01164540Y00273087D03*
Y00240086D03*
X01284956Y00280932D03*
Y00247932D03*
X00816674Y01648728D03*
Y01681727D03*
X00918020Y00788703D03*
Y00755703D03*
X00861996Y01866185D03*
Y01833185D03*
X00999808Y00796083D03*
Y00763083D03*
X00913702Y01042463D03*
Y01009463D03*
G54D151*
X01332190Y00687888D03*
X01319190D03*
X01267696Y00575112D03*
X01254696D03*
X01318445Y00570286D03*
X01305445D03*
X01349670Y00540568D03*
X01362670D03*
X01349670Y00557586D03*
X01362670D03*
X01362416Y00523296D03*
X01349416D03*
X00840954Y01563680D03*
X00827954D03*
X00782488Y01625503D03*
X00795488D03*
X01080984Y01876354D03*
X01067984D03*
X01276772Y00481386D03*
X01289772D03*
X01263310Y00369626D03*
X01276310D03*
X01301606Y00369372D03*
X01288606D03*
X01276518Y00464114D03*
X01289518D03*
X01301918D03*
X01314918D03*
X00924325Y00159568D03*
X00937324D03*
X00937174Y00142042D03*
X00950174D03*
X00949874Y00159568D03*
X00962874D03*
X01027344Y00577906D03*
X01040344D03*
X01348146Y00704144D03*
X01361146D03*
X01332190Y00671124D03*
X01319190D03*
X01162472Y00564952D03*
X01175472D03*
X01263604Y00549458D03*
X01276604D03*
X01292797Y00570286D03*
X01279798D03*
X01301029Y00550924D03*
X01314028D03*
X01292520Y00516949D03*
X01305520D03*
X01197570Y00650042D03*
X01184570D03*
X01328946Y00229418D03*
X01341946D03*
X01316427Y00229164D03*
X01303427D03*
X01327318Y00334066D03*
X01340318D03*
X01271588Y00347877D03*
X01262088Y00327876D03*
X01281088D03*
X01086930Y01279454D03*
X01073930D03*
X01148248Y01295456D03*
X01161248D03*
X01160994Y01277676D03*
X01147994D03*
X01120054Y01184458D03*
X01133054D03*
X00998640Y01133818D03*
X00979640D03*
X00989140Y01153819D03*
X01029630Y01134166D03*
X01042630D03*
X01029630Y01154740D03*
X01042630D03*
X00924924Y00845622D03*
X00911924D03*
X00959064Y00829112D03*
X00946064D03*
X00946318Y00811078D03*
X00959318D03*
X00951906Y00928934D03*
X00964906D03*
X01019470Y00861878D03*
X01032470D03*
X00988482Y00928680D03*
X01001482D03*
X01276772Y00498404D03*
X01289772D03*
X00806006Y00413155D03*
X00796506Y00393154D03*
X00815506D03*
X01327658Y00534354D03*
X01318158Y00514354D03*
X01337158D03*
X01301918Y00498150D03*
X01314918D03*
X00950278Y00793401D03*
X00940778Y00773401D03*
X00959778D03*
X00834604Y00284028D03*
X00821604D03*
X00954238Y00758500D03*
X00941238D03*
X01111718Y01279454D03*
X01098718D03*
X00972734Y00834446D03*
X00985734D03*
X01276446Y00531678D03*
X01263446D03*
X01349670Y00574403D03*
X01362670D03*
X01275502Y00670108D03*
X01288502D03*
X01308568Y00347782D03*
X01295568D03*
X01303292Y00211638D03*
X01316292D03*
X01042408Y00812602D03*
X01029408D03*
X01089874Y00890580D03*
X01076874D03*
X01068284Y00849686D03*
X01055284D03*
X01058378Y00944682D03*
X01045378D03*
X01348146Y00669600D03*
X01361146D03*
X01283676Y00311460D03*
X01270676D03*
X01328946Y00211384D03*
X01341946D03*
X00965876Y00758754D03*
X00978876D03*
X01246546Y00240594D03*
X01259546D03*
X01314918Y00481132D03*
X01301918D03*
G54D152*
X01082548Y00164185D03*
Y00135184D03*
X01107504Y00164163D03*
Y00135163D03*
X01132396Y00164163D03*
Y00135163D03*
X01031495Y00164185D03*
Y00135184D03*
X01056704Y00164163D03*
Y00135163D03*
X01006666Y00164163D03*
Y00135163D03*
X00736918Y01635585D03*
Y01606585D03*
X00762572Y01653365D03*
Y01624365D03*
X00861886Y01736423D03*
Y01707423D03*
X00974916Y00535003D03*
Y00506003D03*
X01100900Y00504523D03*
Y00475523D03*
X01129856Y01277401D03*
Y01306401D03*
X00789750Y01703911D03*
Y01674911D03*
X00762318Y01696291D03*
Y01667291D03*
X00762572Y01739725D03*
Y01710725D03*
X00790004Y01760045D03*
Y01731045D03*
X00736156Y01724993D03*
Y01695993D03*
X00736410Y01680289D03*
Y01651289D03*
X01090994Y00854027D03*
Y00825027D03*
X01025716Y00906351D03*
Y00877351D03*
X01211898Y00922527D03*
Y00893527D03*
X01195642Y00937549D03*
Y00966549D03*
X00861886Y01820497D03*
Y01791497D03*
Y01778591D03*
Y01749591D03*
X00815150Y01732613D03*
Y01703613D03*
X01109028Y00890305D03*
Y00919305D03*
X01134555Y00893527D03*
Y00922527D03*
X01160336Y00893527D03*
Y00922527D03*
X01186117Y00893527D03*
Y00922527D03*
X01098764Y00646330D03*
Y00675330D03*
X01125256Y00646330D03*
X01125257Y00675330D03*
X01151749Y00646330D03*
Y00675330D03*
G54D153*
X01272604Y00595940D03*
X01285304D03*
X01298004D03*
X01310704D03*
X01323404D03*
X01336104D03*
X01348804D03*
X01361504D03*
X01272604Y00649280D03*
X01285304D03*
X01298004D03*
X01310704D03*
X01323404D03*
X01336104D03*
X01348804D03*
X01361504D03*
G54D154*
X00802210Y00707446D03*
X00772210D03*
X01180670Y00064064D03*
X01150670D03*
X01010744Y01066348D03*
X00980744D03*
X01011224Y00738180D03*
X01041224D03*
X01153492Y01060760D03*
X01123492D03*
X01314020Y01068126D03*
X01284020D03*
X00848184Y00788472D03*
X00818184D03*
G54D155*
X00766372Y01582476D03*
X00733372D03*
X01226366Y00570540D03*
X01193366D03*
X01127814Y00579430D03*
X01094814D03*
X01051360Y00788281D03*
X01018360D03*
X00973402Y00815142D03*
X01006402D03*
X01018614Y00765548D03*
X01051614Y00765549D03*
X01056968Y00964748D03*
X01089968D03*
G54D156*
X00970188Y01098606D03*
X01014188D03*
X00836642Y00458780D03*
X00792642D03*
X00871440Y00713288D03*
X00827440D03*
X00812708Y00757230D03*
X00856708D03*
X01201456Y00163124D03*
X01157456D03*
X00822106Y00625658D03*
X00866106D03*
X01089880Y01061268D03*
X01045880D03*
X00954752Y01067872D03*
X00910752D03*
G54D157*
X01058228Y01741226D03*
X01121728D03*
G54D158*
X00740728Y00566421D03*
X00728028D03*
Y00503541D03*
X00740728D03*
X01286320Y00385177D03*
X01299020D03*
Y00448057D03*
X01286320D03*
G54D159*
X01280456Y00188270D03*
X01309456D03*
X01322620Y00188016D03*
X01351620D03*
X01132120Y01556314D03*
X01161120D03*
X01089702D03*
X01118702D03*
X00921808Y01095304D03*
X00950808D03*
X01189016Y01025962D03*
X01218016D03*
X00754168Y00167442D03*
X00783168D03*
X00824846Y00202494D03*
X00795846D03*
X00824846Y00167442D03*
X00795846D03*
X00783168Y00202494D03*
X00754168D03*
X00834222Y00236784D03*
X00805222D03*
X00834222Y00262184D03*
X00805222D03*
X01030564Y00949762D03*
X01001564D03*
X00988654Y00950016D03*
X00959654D03*
X01246210Y00943666D03*
X01217210D03*
X01030818Y00975416D03*
X01001818D03*
X00988146Y00975924D03*
X00959146D03*
X00801456Y00625150D03*
X00772456D03*
G54D160*
X01343724Y00314839D03*
X01305624Y00260838D03*
X01318324D03*
X01331024D03*
X01343724D03*
X01305624Y00314839D03*
X01318324D03*
X01331024D03*
X01137222Y01258957D03*
X01099122Y01204956D03*
X01111822D03*
X01124522D03*
X01137222D03*
X01099122Y01258957D03*
X01111822D03*
X01124522D03*
X00950532Y00854182D03*
X00988632Y00908183D03*
X00975932D03*
X00963232D03*
X00950532D03*
X00988632Y00854182D03*
X00975932D03*
X00963232D03*
G54D110*
X00816960Y01103686D03*
Y01090986D03*
X00879840D03*
Y01103686D03*
X00880014Y01130356D03*
Y01143056D03*
X00817134D03*
Y01130356D03*
G54D161*
X01271080Y01311899D03*
Y01239899D03*
X01283018Y00869313D03*
Y00941313D03*
G54D162*
X00904011Y00495917D03*
X00912991Y00486936D03*
X00868529Y00442473D03*
X00859549Y00451454D03*
G54D163*
X00955028Y01042472D03*
X01009028Y01004372D03*
Y01017072D03*
Y01029772D03*
Y01042472D03*
X00955028Y01004372D03*
Y01017072D03*
Y01029772D03*
G54D164*
X00817182Y01801073D03*
Y01757072D03*
G54D165*
X00884492Y01011733D03*
Y01042733D03*
G54D166*
X01145165Y00444900D03*
X01015739Y00452147D03*
X01128619Y00769139D03*
G54D167*
X01184416Y00444903D03*
X01054988Y00452150D03*
X01167869Y00769144D03*
G54D168*
X01184417Y00482400D03*
X01054989Y00489648D03*
X01167870Y00806640D03*
G54D169*
X01145165Y00482400D03*
X01015739Y00489648D03*
X01128619Y00806640D03*
G54D170*
X01141540Y00537774D03*
X01187540D03*
X01012114Y00545023D03*
X01058114D03*
X01124994Y00862015D03*
X01170994D03*
G54D145*
X01448954Y00974707D03*
X01408955D03*
X01448954Y01177707D03*
Y01370707D03*
Y01319707D03*
X01408955D03*
Y01370707D03*
Y01177707D03*
Y01126707D03*
X01448954D03*
X01408955Y01076707D03*
X01448954D03*
X01408955Y01025707D03*
X01448954D03*
X01408955Y00923707D03*
X01448954D03*
X01408955Y01776707D03*
Y01827707D03*
X01448954Y01776707D03*
Y01827707D03*
X01408955Y01345207D03*
X01448954D03*
X01408955Y01152207D03*
X01448954D03*
X01408955Y01101707D03*
X01448954D03*
X01408955Y01051207D03*
X01448954D03*
X01408955Y00949207D03*
X01448954D03*
X01408955Y00425975D03*
X01448954D03*
X01408955Y00345975D03*
Y00305975D03*
Y00325975D03*
X01448954D03*
Y00305975D03*
Y00345975D03*
Y00365975D03*
X01408955D03*
X01448954Y00385975D03*
X01408955D03*
X01448954Y00405975D03*
X01408955D03*
X01448954Y00445975D03*
X01408955D03*
X01448954Y00273975D03*
Y00253975D03*
G54D146*
X01524376Y00390935D03*
Y00409435D03*
X01481236Y01660618D03*
Y01642118D03*
X02043592Y00764955D03*
Y00746455D03*
X02049942Y00207975D03*
Y00226475D03*
X02051974Y00266861D03*
Y00248361D03*
X02053140Y00300897D03*
Y00282397D03*
X01621444Y00811479D03*
Y00829979D03*
X01774352Y01214535D03*
Y01196035D03*
X01791116Y00253761D03*
Y00272260D03*
G54D147*
X01852076Y01215713D03*
Y01185713D03*
X02016922Y00783659D03*
Y00753659D03*
X01915924Y00251651D03*
Y00281651D03*
X01883412Y00251397D03*
Y00281397D03*
X01689008Y00078047D03*
Y00048047D03*
X02009302Y01278197D03*
Y01248197D03*
X01616364Y00871769D03*
Y00901769D03*
X01782480Y00772201D03*
Y00802201D03*
X01793910Y00424729D03*
Y00454729D03*
X01663862Y00452415D03*
Y00482415D03*
G54D148*
X01448872Y01605589D03*
X01467373D03*
X01897436Y00547679D03*
X01915937D03*
X01495100Y00432363D03*
X01513601D03*
X01957789Y00291393D03*
X01939291D03*
X01804431Y00706937D03*
X01785930D03*
X01782079Y00942903D03*
X01763578D03*
X01813680Y00603305D03*
X01795180D03*
G54D149*
X02042576Y00732741D03*
Y00719741D03*
X01820580Y00260415D03*
Y00273414D03*
X01790100Y00298909D03*
Y00285909D03*
X02006828Y00714455D03*
Y00733455D03*
X02026828Y00723955D03*
X02052736Y00329539D03*
Y00316539D03*
X01800514Y01293781D03*
Y01306781D03*
X01531782Y01677217D03*
X01551782Y01667717D03*
Y01686717D03*
X01489364Y01091597D03*
Y01104597D03*
X01489110Y01135285D03*
Y01148285D03*
X01625508Y01019969D03*
Y01032969D03*
X01695866Y00861773D03*
Y00848773D03*
X01888398Y00881481D03*
Y00868481D03*
X01713552Y00827993D03*
Y00846993D03*
X01733552Y00837493D03*
X01410370Y00581565D03*
Y00594565D03*
X01533400Y00351337D03*
X01513400Y00360837D03*
Y00341837D03*
X01539656Y00422157D03*
Y00435157D03*
X01991776Y00733457D03*
Y00746457D03*
X01959358Y00274731D03*
Y00255731D03*
X01939358Y00265231D03*
X01732384Y00702469D03*
Y00715469D03*
X01768764Y01252125D03*
Y01265125D03*
X01848520Y01246687D03*
Y01259687D03*
X01522130Y01578919D03*
Y01591918D03*
X01770178Y00715469D03*
Y00702469D03*
X01751434Y00715469D03*
Y00702469D03*
X01557784Y01588063D03*
X01537784Y01597563D03*
Y01578563D03*
X01430182Y00581565D03*
Y00594565D03*
X01782988Y01293677D03*
Y01306677D03*
X01705518Y01149555D03*
Y01136555D03*
X01748952Y00811077D03*
Y00824077D03*
X01772574Y00286163D03*
Y00299163D03*
Y00260509D03*
Y00273509D03*
X01666402Y00786335D03*
Y00773335D03*
X01483450Y00363171D03*
Y00350171D03*
Y00337892D03*
X01483449Y00324892D03*
G54D150*
X01989252Y00759017D03*
Y00792017D03*
X01752203Y00298615D03*
Y00265615D03*
X01856535Y00273085D03*
Y00240085D03*
X01976950Y00280931D03*
Y00247931D03*
X01508668Y01648726D03*
Y01681726D03*
X01610014Y00788701D03*
Y00755701D03*
X01553990Y01866183D03*
Y01833183D03*
X01691802Y00796081D03*
Y00763081D03*
X01605696Y01042461D03*
Y01009461D03*
G54D151*
X02024184Y00687887D03*
X02011184D03*
X01959691Y00575111D03*
X01946690D03*
X02010439Y00570285D03*
X01997440D03*
X02041664Y00540567D03*
X02054664D03*
X02041664Y00557585D03*
X02054664D03*
X02054410Y00523295D03*
X02041410D03*
X01532948Y01563679D03*
X01519948D03*
X01474482Y01625501D03*
X01487482D03*
X01772978Y01876353D03*
X01759978D03*
X01968766Y00481385D03*
X01981766D03*
X01955304Y00369625D03*
X01968304D03*
X01993600Y00369371D03*
X01980600D03*
X01968512Y00464113D03*
X01981512D03*
X01993912D03*
X02006912D03*
X01616319Y00159567D03*
X01629318D03*
X01629168Y00142041D03*
X01642168D03*
X01641868Y00159567D03*
X01654868D03*
X01719338Y00577905D03*
X01732338D03*
X02040140Y00704143D03*
X02053140D03*
X02024184Y00671123D03*
X02011184D03*
X01854466Y00564951D03*
X01867466D03*
X01955598Y00549457D03*
X01968598D03*
X01984791Y00570285D03*
X01971792D03*
X01993023Y00550922D03*
X02006022D03*
X01984514Y00516948D03*
X01997514D03*
X01889564Y00650041D03*
X01876564D03*
X02020940Y00229417D03*
X02033940D03*
X02008421Y00229163D03*
X01995421D03*
X02019312Y00334065D03*
X02032312D03*
X01963582Y00347875D03*
X01954082Y00327875D03*
X01973082D03*
X01778924Y01279453D03*
X01765924D03*
X01840242Y01295455D03*
X01853242D03*
X01852988Y01277675D03*
X01839988D03*
X01812048Y01184457D03*
X01825048D03*
X01690634Y01133817D03*
X01671634D03*
X01681134Y01153817D03*
X01721624Y01134165D03*
X01734624D03*
X01721624Y01154739D03*
X01734624D03*
X01616918Y00845621D03*
X01603918D03*
X01651058Y00829111D03*
X01638058D03*
X01638312Y00811077D03*
X01651312D03*
X01643900Y00928933D03*
X01656900D03*
X01711464Y00861877D03*
X01724464D03*
X01680476Y00928679D03*
X01693476D03*
X01968766Y00498403D03*
X01981766D03*
X01498000Y00413153D03*
X01488500Y00393153D03*
X01507500D03*
X02019652Y00534352D03*
X02010152Y00514352D03*
X02029152D03*
X01993912Y00498149D03*
X02006912D03*
X01642272Y00793399D03*
X01632772Y00773399D03*
X01651772D03*
X01526598Y00284027D03*
X01513598D03*
X01646232Y00758499D03*
X01633232D03*
X01803712Y01279453D03*
X01790712D03*
X01664728Y00834445D03*
X01677728D03*
X01968440Y00531677D03*
X01955440D03*
X02041664Y00574401D03*
X02054664D03*
X01967496Y00670107D03*
X01980496D03*
X02000562Y00347781D03*
X01987562D03*
X01995286Y00211637D03*
X02008286D03*
X01734402Y00812601D03*
X01721402D03*
X01781868Y00890579D03*
X01768868D03*
X01760278Y00849685D03*
X01747278D03*
X01750372Y00944681D03*
X01737372D03*
X02040140Y00669599D03*
X02053140D03*
X01975670Y00311459D03*
X01962670D03*
X02020940Y00211383D03*
X02033940D03*
X01657870Y00758753D03*
X01670870D03*
X01938540Y00240593D03*
X01951540D03*
X02006912Y00481131D03*
X01993912D03*
G54D152*
X01774542Y00164183D03*
Y00135183D03*
X01799498Y00164161D03*
Y00135161D03*
X01824390Y00164161D03*
Y00135161D03*
X01723489Y00164183D03*
Y00135183D03*
X01748698Y00164161D03*
Y00135161D03*
X01698660Y00164161D03*
Y00135161D03*
X01428912Y01635583D03*
Y01606583D03*
X01454566Y01653363D03*
Y01624363D03*
X01553880Y01736421D03*
Y01707421D03*
X01666910Y00535001D03*
Y00506001D03*
X01792894Y00504521D03*
Y00475521D03*
X01821850Y01277399D03*
Y01306399D03*
X01481744Y01703909D03*
Y01674909D03*
X01454312Y01696289D03*
Y01667289D03*
X01454566Y01739723D03*
Y01710723D03*
X01481998Y01760043D03*
Y01731043D03*
X01428150Y01724991D03*
Y01695991D03*
X01428404Y01680287D03*
Y01651287D03*
X01782988Y00854025D03*
Y00825025D03*
X01717710Y00906349D03*
Y00877349D03*
X01903892Y00922525D03*
Y00893525D03*
X01887636Y00937547D03*
Y00966547D03*
X01553880Y01820495D03*
Y01791495D03*
Y01778589D03*
Y01749589D03*
X01507144Y01732611D03*
Y01703611D03*
X01801022Y00890303D03*
Y00919303D03*
X01826549Y00893525D03*
Y00922525D03*
X01852330Y00893525D03*
Y00922525D03*
X01878111Y00893525D03*
Y00922525D03*
X01790758Y00646329D03*
Y00675329D03*
X01817250Y00646329D03*
X01817251Y00675329D03*
X01843743Y00646329D03*
Y00675329D03*
G54D153*
X01964598Y00595939D03*
X01977298D03*
X01989998D03*
X02002698D03*
X02015398D03*
X02028098D03*
X02040798D03*
X02053498D03*
X01964598Y00649279D03*
X01977298D03*
X01989998D03*
X02002698D03*
X02015398D03*
X02028098D03*
X02040798D03*
X02053498D03*
G54D154*
X01494204Y00707445D03*
X01464204D03*
X01872664Y00064063D03*
X01842664D03*
X01702738Y01066347D03*
X01672738D03*
X01703218Y00738179D03*
X01733218D03*
X01845486Y01060759D03*
X01815486D03*
X02006014Y01068125D03*
X01976014D03*
X01540178Y00788471D03*
X01510178D03*
G54D155*
X01458366Y01582475D03*
X01425366D03*
X01918360Y00570539D03*
X01885360D03*
X01819808Y00579429D03*
X01786808D03*
X01743354Y00788279D03*
X01710354D03*
X01665396Y00815141D03*
X01698396D03*
X01710608Y00765547D03*
X01743608Y00765548D03*
X01748962Y00964747D03*
X01781962D03*
G54D156*
X01662182Y01098605D03*
X01706183D03*
X01528637Y00458779D03*
X01484636D03*
X01563435Y00713287D03*
X01519434D03*
X01504702Y00757229D03*
X01548703D03*
X01893450Y00163123D03*
X01849450D03*
X01514100Y00625657D03*
X01558101D03*
X01781875Y01061267D03*
X01737874D03*
X01646747Y01067871D03*
X01602746D03*
G54D157*
X01750222Y01741225D03*
X01813722D03*
G54D158*
X01432722Y00566419D03*
X01420022D03*
Y00503539D03*
X01432722D03*
X01978314Y00385175D03*
X01991014D03*
Y00448055D03*
X01978314D03*
G54D159*
X01972450Y00188269D03*
X02001450D03*
X02014614Y00188015D03*
X02043614D03*
X01824114Y01556313D03*
X01853114D03*
X01781696D03*
X01810696D03*
X01613802Y01095303D03*
X01642802D03*
X01881010Y01025961D03*
X01910010D03*
X01446162Y00167441D03*
X01475162D03*
X01516841Y00202493D03*
X01487840D03*
X01516841Y00167441D03*
X01487840D03*
X01475162Y00202493D03*
X01446162D03*
X01526216Y00236783D03*
X01497216D03*
X01526216Y00262183D03*
X01497216D03*
X01722558Y00949761D03*
X01693558D03*
X01680648Y00950015D03*
X01651648D03*
X01938204Y00943665D03*
X01909204D03*
X01722812Y00975415D03*
X01693812D03*
X01680140Y00975923D03*
X01651140D03*
X01493450Y00625149D03*
X01464450D03*
G54D160*
X02035718Y00314837D03*
X01997618Y00260837D03*
X02010318D03*
X02023018D03*
X02035718D03*
X01997618Y00314837D03*
X02010318D03*
X02023018D03*
X01829216Y01258955D03*
X01791116Y01204955D03*
X01803816D03*
X01816516D03*
X01829216D03*
X01791116Y01258955D03*
X01803816D03*
X01816516D03*
X01642526Y00854181D03*
X01680626Y00908181D03*
X01667926D03*
X01655226D03*
X01642526D03*
X01680626Y00854181D03*
X01667926D03*
X01655226D03*
G54D110*
X01508954Y01103685D03*
Y01090985D03*
X01571834D03*
Y01103685D03*
X01572008Y01130355D03*
Y01143055D03*
X01509128D03*
Y01130355D03*
G54D161*
X01963074Y01311897D03*
Y01239897D03*
X01975012Y00869311D03*
Y00941311D03*
G54D162*
X01596005Y00495915D03*
X01604985Y00486934D03*
X01560523Y00442471D03*
X01551544Y00451452D03*
G54D163*
X01647022Y01042471D03*
X01701023Y01004371D03*
Y01017071D03*
Y01029771D03*
Y01042471D03*
X01647022Y01004371D03*
Y01017071D03*
Y01029771D03*
G54D164*
X01509176Y01801071D03*
Y01757071D03*
G54D165*
X01576486Y01011731D03*
Y01042731D03*
G54D166*
X01837159Y00444898D03*
X01707733Y00452146D03*
X01820613Y00769138D03*
G54D167*
X01876410Y00444901D03*
X01746982Y00452148D03*
X01859863Y00769142D03*
G54D168*
X01876411Y00482398D03*
X01746983Y00489646D03*
X01859864Y00806638D03*
G54D169*
X01837159Y00482398D03*
X01707733Y00489646D03*
X01820613Y00806638D03*
G54D170*
X01833534Y00537773D03*
X01879534D03*
X01704108Y00545021D03*
X01750109D03*
X01816989Y00862013D03*
X01862988D03*
G54D145*
X02140952Y00974710D03*
X02100952D03*
X02140952Y01177710D03*
Y01370710D03*
Y01319710D03*
X02100952D03*
Y01370710D03*
Y01177710D03*
Y01126710D03*
X02140952D03*
X02100952Y01076710D03*
X02140952D03*
X02100952Y01025710D03*
X02140952D03*
X02100952Y00923710D03*
X02140952D03*
X02100952Y01776710D03*
Y01827710D03*
X02140952Y01776710D03*
Y01827710D03*
X02100952Y01345210D03*
X02140952D03*
X02100952Y01152210D03*
X02140952D03*
X02100952Y01101710D03*
X02140952D03*
X02100952Y01051210D03*
X02140952D03*
X02100952Y00949210D03*
X02140952D03*
X02100952Y00425978D03*
X02140952D03*
X02100952Y00345978D03*
Y00305978D03*
Y00325978D03*
X02140952D03*
Y00305978D03*
Y00345978D03*
Y00365978D03*
X02100952D03*
X02140952Y00385978D03*
X02100952D03*
X02140952Y00405978D03*
X02100952D03*
X02140952Y00445978D03*
X02100952D03*
X02140952Y00273978D03*
Y00253978D03*
G54D146*
X02216374Y00390938D03*
Y00409438D03*
X02173233Y01660621D03*
Y01642121D03*
X02735589Y00764958D03*
Y00746458D03*
X02741939Y00207978D03*
Y00226478D03*
X02743971Y00266864D03*
Y00248364D03*
X02745138Y00300900D03*
Y00282400D03*
X02313441Y00811482D03*
Y00829982D03*
X02466349Y01214538D03*
Y01196038D03*
X02483113Y00253764D03*
Y00272263D03*
G54D147*
X02544073Y01215716D03*
Y01185716D03*
X02708919Y00783662D03*
Y00753662D03*
X02607921Y00251654D03*
Y00281654D03*
X02575409Y00251400D03*
Y00281400D03*
X02381005Y00078050D03*
Y00048050D03*
X02701299Y01278200D03*
Y01248200D03*
X02308361Y00871772D03*
Y00901772D03*
X02474477Y00772204D03*
Y00802204D03*
X02485907Y00424732D03*
Y00454732D03*
X02355859Y00452418D03*
Y00482418D03*
G54D148*
X02140870Y01605592D03*
X02159370D03*
X02589434Y00547682D03*
X02607934D03*
X02187098Y00432366D03*
X02205598D03*
X02649786Y00291396D03*
X02631288D03*
X02496428Y00706940D03*
X02477928D03*
X02474076Y00942906D03*
X02455576D03*
X02505678Y00603308D03*
X02487177D03*
G54D149*
X02734573Y00732744D03*
Y00719744D03*
X02512577Y00260418D03*
Y00273417D03*
X02482097Y00298912D03*
Y00285912D03*
X02698825Y00714458D03*
Y00733458D03*
X02718825Y00723958D03*
X02744733Y00329542D03*
Y00316542D03*
X02492511Y01293784D03*
Y01306784D03*
X02223779Y01677220D03*
X02243779Y01667720D03*
Y01686720D03*
X02181361Y01091600D03*
Y01104600D03*
X02181107Y01135288D03*
Y01148288D03*
X02317505Y01019972D03*
Y01032972D03*
X02387863Y00861776D03*
Y00848776D03*
X02580395Y00881484D03*
Y00868484D03*
X02405549Y00827996D03*
Y00846996D03*
X02425549Y00837496D03*
X02102367Y00581568D03*
Y00594568D03*
X02225397Y00351340D03*
X02205397Y00360840D03*
Y00341840D03*
X02231653Y00422160D03*
Y00435160D03*
X02683773Y00733460D03*
Y00746460D03*
X02651355Y00274734D03*
Y00255734D03*
X02631355Y00265234D03*
X02424382Y00702472D03*
Y00715472D03*
X02460761Y01252128D03*
Y01265128D03*
X02540517Y01246690D03*
Y01259690D03*
X02214127Y01578922D03*
Y01591921D03*
X02462175Y00715472D03*
Y00702472D03*
X02443432Y00715472D03*
Y00702472D03*
X02249781Y01588066D03*
X02229781Y01597566D03*
Y01578566D03*
X02122179Y00581568D03*
Y00594568D03*
X02474985Y01293680D03*
Y01306680D03*
X02397515Y01149558D03*
Y01136558D03*
X02440949Y00811080D03*
Y00824080D03*
X02464571Y00286166D03*
Y00299166D03*
Y00260512D03*
Y00273512D03*
X02358399Y00786338D03*
Y00773338D03*
X02175448Y00363174D03*
Y00350174D03*
Y00337895D03*
X02175447Y00324895D03*
G54D150*
X02681249Y00759020D03*
Y00792020D03*
X02444200Y00298618D03*
Y00265618D03*
X02548532Y00273088D03*
Y00240088D03*
X02668947Y00280934D03*
Y00247934D03*
X02200665Y01648729D03*
Y01681729D03*
X02302011Y00788704D03*
Y00755704D03*
X02245987Y01866186D03*
Y01833186D03*
X02383799Y00796084D03*
Y00763084D03*
X02297693Y01042464D03*
Y01009464D03*
G54D151*
X02716182Y00687890D03*
X02703182D03*
X02651688Y00575114D03*
X02638687D03*
X02702437Y00570288D03*
X02689437D03*
X02733662Y00540570D03*
X02746662D03*
X02733662Y00557588D03*
X02746662D03*
X02746408Y00523298D03*
X02733408D03*
X02224946Y01563682D03*
X02211946D03*
X02166480Y01625504D03*
X02179480D03*
X02464976Y01876356D03*
X02451976D03*
X02660764Y00481388D03*
X02673764D03*
X02647302Y00369628D03*
X02660302D03*
X02685597Y00369374D03*
X02672597D03*
X02660510Y00464116D03*
X02673510D03*
X02685910D03*
X02698910D03*
X02308316Y00159570D03*
X02321315D03*
X02321166Y00142044D03*
X02334166D03*
X02333866Y00159570D03*
X02346866D03*
X02411336Y00577908D03*
X02424336D03*
X02732138Y00704146D03*
X02745138D03*
X02716182Y00671126D03*
X02703182D03*
X02546464Y00564954D03*
X02559464D03*
X02647595Y00549460D03*
X02660595D03*
X02676788Y00570288D03*
X02663789D03*
X02685021Y00550925D03*
X02698020D03*
X02676512Y00516951D03*
X02689512D03*
X02581562Y00650044D03*
X02568562D03*
X02712937Y00229420D03*
X02725937D03*
X02700419Y00229166D03*
X02687419D03*
X02711310Y00334068D03*
X02724310D03*
X02655579Y00347878D03*
X02646080Y00327878D03*
X02665080D03*
X02470921Y01279456D03*
X02457921D03*
X02532240Y01295458D03*
X02545240D03*
X02544986Y01277678D03*
X02531986D03*
X02504046Y01184460D03*
X02517046D03*
X02382632Y01133820D03*
X02363632D03*
X02373131Y01153820D03*
X02413622Y01134168D03*
X02426622D03*
X02413622Y01154742D03*
X02426622D03*
X02308915Y00845624D03*
X02295915D03*
X02343056Y00829114D03*
X02330056D03*
X02330310Y00811080D03*
X02343310D03*
X02335898Y00928936D03*
X02348898D03*
X02403462Y00861880D03*
X02416462D03*
X02372474Y00928682D03*
X02385474D03*
X02660764Y00498406D03*
X02673764D03*
X02189997Y00413156D03*
X02180498Y00393156D03*
X02199498D03*
X02711649Y00534355D03*
X02702150Y00514355D03*
X02721150D03*
X02685910Y00498152D03*
X02698910D03*
X02334269Y00793402D03*
X02324770Y00773402D03*
X02343770D03*
X02218596Y00284030D03*
X02205596D03*
X02338230Y00758502D03*
X02325230D03*
X02495710Y01279456D03*
X02482710D03*
X02356726Y00834448D03*
X02369726D03*
X02660437Y00531680D03*
X02647437D03*
X02733662Y00574404D03*
X02746662D03*
X02659494Y00670110D03*
X02672494D03*
X02692560Y00347784D03*
X02679560D03*
X02687283Y00211640D03*
X02700283D03*
X02426400Y00812604D03*
X02413400D03*
X02473866Y00890582D03*
X02460866D03*
X02452276Y00849688D03*
X02439276D03*
X02442370Y00944684D03*
X02429370D03*
X02732138Y00669602D03*
X02745138D03*
X02667668Y00311462D03*
X02654668D03*
X02712937Y00211386D03*
X02725937D03*
X02349868Y00758756D03*
X02362868D03*
X02630538Y00240596D03*
X02643538D03*
X02698910Y00481134D03*
X02685910D03*
G54D152*
X02466539Y00164186D03*
Y00135186D03*
X02491495Y00164164D03*
Y00135164D03*
X02516387Y00164164D03*
Y00135164D03*
X02415486Y00164186D03*
Y00135186D03*
X02440695Y00164164D03*
Y00135164D03*
X02390657Y00164164D03*
Y00135164D03*
X02120909Y01635586D03*
Y01606586D03*
X02146563Y01653366D03*
Y01624366D03*
X02245877Y01736424D03*
Y01707424D03*
X02358907Y00535004D03*
Y00506004D03*
X02484891Y00504524D03*
Y00475524D03*
X02513847Y01277402D03*
Y01306402D03*
X02173741Y01703912D03*
Y01674912D03*
X02146309Y01696292D03*
Y01667292D03*
X02146563Y01739726D03*
Y01710726D03*
X02173995Y01760046D03*
Y01731046D03*
X02120147Y01724994D03*
Y01695994D03*
X02120401Y01680290D03*
Y01651290D03*
X02474985Y00854028D03*
Y00825028D03*
X02409707Y00906352D03*
Y00877352D03*
X02595889Y00922528D03*
Y00893528D03*
X02579633Y00937550D03*
Y00966550D03*
X02245877Y01820498D03*
Y01791498D03*
Y01778592D03*
Y01749592D03*
X02199141Y01732614D03*
Y01703614D03*
X02493019Y00890306D03*
Y00919306D03*
X02518546Y00893528D03*
Y00922528D03*
X02544327Y00893528D03*
Y00922528D03*
X02570108Y00893528D03*
Y00922528D03*
X02482756Y00646332D03*
Y00675332D03*
X02509247Y00646332D03*
X02509248Y00675332D03*
X02535740Y00646332D03*
Y00675332D03*
G54D153*
X02656595Y00595942D03*
X02669295D03*
X02681995D03*
X02694695D03*
X02707395D03*
X02720095D03*
X02732795D03*
X02745495D03*
X02656595Y00649282D03*
X02669295D03*
X02681995D03*
X02694695D03*
X02707395D03*
X02720095D03*
X02732795D03*
X02745495D03*
G54D154*
X02186201Y00707448D03*
X02156201D03*
X02564661Y00064066D03*
X02534661D03*
X02394735Y01066350D03*
X02364735D03*
X02395215Y00738182D03*
X02425215D03*
X02537483Y01060762D03*
X02507483D03*
X02698011Y01068128D03*
X02668011D03*
X02232175Y00788474D03*
X02202175D03*
G54D155*
X02150364Y01582478D03*
X02117364D03*
X02610358Y00570542D03*
X02577358D03*
X02511806Y00579432D03*
X02478806D03*
X02435352Y00788282D03*
X02402352D03*
X02357394Y00815144D03*
X02390394D03*
X02402606Y00765550D03*
X02435606Y00765551D03*
X02440960Y00964750D03*
X02473960D03*
G54D156*
X02354179Y01098608D03*
X02398180D03*
X02220634Y00458782D03*
X02176633D03*
X02255432Y00713290D03*
X02211431D03*
X02196699Y00757232D03*
X02240700D03*
X02585447Y00163126D03*
X02541448D03*
X02206097Y00625660D03*
X02250098D03*
X02473872Y01061270D03*
X02429871D03*
X02338744Y01067874D03*
X02294743D03*
G54D157*
X02442219Y01741228D03*
X02505719D03*
G54D158*
X02124719Y00566422D03*
X02112019D03*
Y00503542D03*
X02124719D03*
X02670311Y00385178D03*
X02683011D03*
Y00448058D03*
X02670311D03*
G54D159*
X02664448Y00188272D03*
X02693448D03*
X02706612Y00188018D03*
X02735612D03*
X02516112Y01556316D03*
X02545112D03*
X02473694D03*
X02502694D03*
X02305800Y01095306D03*
X02334800D03*
X02573008Y01025964D03*
X02602008D03*
X02138160Y00167444D03*
X02167160D03*
X02208838Y00202496D03*
X02179837D03*
X02208838Y00167444D03*
X02179837D03*
X02167160Y00202496D03*
X02138160D03*
X02218214Y00236786D03*
X02189214D03*
X02218214Y00262186D03*
X02189214D03*
X02414556Y00949764D03*
X02385556D03*
X02372646Y00950018D03*
X02343646D03*
X02630202Y00943668D03*
X02601202D03*
X02414810Y00975418D03*
X02385810D03*
X02372138Y00975926D03*
X02343138D03*
X02185448Y00625152D03*
X02156448D03*
G54D160*
X02727715Y00314840D03*
X02689615Y00260840D03*
X02702315D03*
X02715015D03*
X02727715D03*
X02689615Y00314840D03*
X02702315D03*
X02715015D03*
X02521213Y01258958D03*
X02483113Y01204958D03*
X02495813D03*
X02508513D03*
X02521213D03*
X02483113Y01258958D03*
X02495813D03*
X02508513D03*
X02334523Y00854184D03*
X02372623Y00908184D03*
X02359923D03*
X02347223D03*
X02334523D03*
X02372623Y00854184D03*
X02359923D03*
X02347223D03*
G54D110*
X02200951Y01103688D03*
Y01090988D03*
X02263831D03*
Y01103688D03*
X02264005Y01130358D03*
Y01143058D03*
X02201125D03*
Y01130358D03*
G54D161*
X02655071Y01311900D03*
Y01239900D03*
X02667009Y00869314D03*
Y00941314D03*
G54D162*
X02288003Y00495918D03*
X02296982Y00486937D03*
X02252521Y00442474D03*
X02243541Y00451455D03*
G54D163*
X02339019Y01042474D03*
X02393020Y01004374D03*
Y01017074D03*
Y01029774D03*
Y01042474D03*
X02339019Y01004374D03*
Y01017074D03*
Y01029774D03*
G54D164*
X02201173Y01801074D03*
Y01757074D03*
G54D165*
X02268483Y01011734D03*
Y01042734D03*
G54D166*
X02529157Y00444901D03*
X02399731Y00452149D03*
X02512610Y00769141D03*
G54D167*
X02568407Y00444904D03*
X02438979Y00452151D03*
X02551861Y00769145D03*
G54D168*
X02568408Y00482401D03*
X02438980Y00489649D03*
X02551862Y00806641D03*
G54D169*
X02529157Y00482401D03*
X02399731Y00489649D03*
X02512610Y00806641D03*
G54D170*
X02525531Y00537776D03*
X02571532D03*
X02396105Y00545024D03*
X02442106D03*
X02508986Y00862016D03*
X02554986D03*
G54D145*
X02832945Y00974711D03*
X02792945D03*
X02832945Y01177711D03*
Y01370711D03*
Y01319711D03*
X02792945D03*
Y01370711D03*
Y01177711D03*
Y01126711D03*
X02832945D03*
X02792945Y01076711D03*
X02832945D03*
X02792945Y01025711D03*
X02832945D03*
X02792945Y00923711D03*
X02832945D03*
X02792945Y01776711D03*
Y01827711D03*
X02832945Y01776711D03*
Y01827711D03*
X02792945Y01345211D03*
X02832945D03*
X02792945Y01152211D03*
X02832945D03*
X02792945Y01101711D03*
X02832945D03*
X02792945Y01051211D03*
X02832945D03*
X02792945Y00949211D03*
X02832945D03*
X02792945Y00425979D03*
X02832945D03*
X02792945Y00345979D03*
Y00305979D03*
Y00325979D03*
X02832945D03*
Y00305979D03*
Y00345979D03*
Y00365979D03*
X02792945D03*
X02832945Y00385979D03*
X02792945D03*
X02832945Y00405979D03*
X02792945D03*
X02832945Y00445979D03*
X02792945D03*
X02832945Y00273979D03*
Y00253979D03*
G54D146*
X02908367Y00390939D03*
Y00409439D03*
X02865227Y01660622D03*
Y01642122D03*
X03427583Y00764959D03*
Y00746459D03*
X03433933Y00207979D03*
Y00226479D03*
X03435965Y00266865D03*
Y00248365D03*
X03437131Y00300901D03*
Y00282401D03*
X03005435Y00811483D03*
Y00829983D03*
X03158343Y01214539D03*
Y01196039D03*
X03175107Y00253765D03*
Y00272264D03*
G54D147*
X03236067Y01215717D03*
Y01185717D03*
X03400913Y00783663D03*
Y00753663D03*
X03299915Y00251655D03*
Y00281655D03*
X03267403Y00251401D03*
Y00281401D03*
X03072999Y00078051D03*
Y00048051D03*
X03393293Y01278201D03*
Y01248201D03*
X03000355Y00871773D03*
Y00901773D03*
X03166471Y00772205D03*
Y00802205D03*
X03177901Y00424733D03*
Y00454733D03*
X03047853Y00452419D03*
Y00482419D03*
G54D148*
X02832863Y01605593D03*
X02851363D03*
X03281427Y00547683D03*
X03299927D03*
X02879091Y00432367D03*
X02897591D03*
X03341780Y00291397D03*
X03323281D03*
X03188421Y00706941D03*
X03169921D03*
X03166069Y00942907D03*
X03147569D03*
X03197671Y00603309D03*
X03179171D03*
G54D149*
X03426567Y00732745D03*
Y00719745D03*
X03204571Y00260419D03*
Y00273418D03*
X03174091Y00298913D03*
Y00285913D03*
X03390819Y00714459D03*
Y00733459D03*
X03410819Y00723959D03*
X03436727Y00329543D03*
Y00316543D03*
X03184505Y01293785D03*
Y01306785D03*
X02915773Y01677221D03*
X02935773Y01667721D03*
Y01686721D03*
X02873355Y01091601D03*
Y01104601D03*
X02873101Y01135289D03*
Y01148289D03*
X03009499Y01019973D03*
Y01032973D03*
X03079857Y00861777D03*
Y00848777D03*
X03272389Y00881485D03*
Y00868485D03*
X03097543Y00827997D03*
Y00846997D03*
X03117543Y00837497D03*
X02794361Y00581569D03*
Y00594569D03*
X02917391Y00351341D03*
X02897391Y00360841D03*
Y00341841D03*
X02923647Y00422161D03*
Y00435161D03*
X03375767Y00733461D03*
Y00746461D03*
X03343349Y00274735D03*
Y00255735D03*
X03323349Y00265235D03*
X03116375Y00702473D03*
Y00715473D03*
X03152755Y01252129D03*
Y01265129D03*
X03232511Y01246691D03*
Y01259691D03*
X02906121Y01578923D03*
Y01591922D03*
X03154169Y00715473D03*
Y00702473D03*
X03135425Y00715473D03*
Y00702473D03*
X02941775Y01588067D03*
X02921775Y01597567D03*
Y01578567D03*
X02814173Y00581569D03*
Y00594569D03*
X03166979Y01293681D03*
Y01306681D03*
X03089509Y01149559D03*
Y01136559D03*
X03132943Y00811081D03*
Y00824081D03*
X03156565Y00286167D03*
Y00299167D03*
Y00260513D03*
Y00273513D03*
X03050393Y00786339D03*
Y00773339D03*
X02867441Y00363175D03*
Y00350175D03*
Y00337896D03*
X02867440Y00324896D03*
G54D150*
X03373243Y00759021D03*
Y00792021D03*
X03136193Y00298619D03*
Y00265619D03*
X03240525Y00273089D03*
Y00240089D03*
X03360941Y00280935D03*
Y00247935D03*
X02892659Y01648730D03*
Y01681730D03*
X02994005Y00788705D03*
Y00755705D03*
X02937981Y01866187D03*
Y01833187D03*
X03075793Y00796085D03*
Y00763085D03*
X02989687Y01042465D03*
Y01009465D03*
G54D151*
X03408175Y00687891D03*
X03395175D03*
X03343681Y00575115D03*
X03330681D03*
X03394430Y00570289D03*
X03381430D03*
X03425655Y00540571D03*
X03438655D03*
X03425655Y00557589D03*
X03438655D03*
X03438401Y00523299D03*
X03425401D03*
X02916939Y01563683D03*
X02903939D03*
X02858473Y01625505D03*
X02871473D03*
X03156969Y01876357D03*
X03143969D03*
X03352757Y00481389D03*
X03365757D03*
X03339295Y00369629D03*
X03352295D03*
X03377591Y00369375D03*
X03364591D03*
X03352503Y00464117D03*
X03365503D03*
X03377903D03*
X03390903D03*
X03000310Y00159571D03*
X03013309D03*
X03013159Y00142045D03*
X03026159D03*
X03025859Y00159571D03*
X03038859D03*
X03103329Y00577909D03*
X03116329D03*
X03424131Y00704147D03*
X03437131D03*
X03408175Y00671127D03*
X03395175D03*
X03238457Y00564955D03*
X03251457D03*
X03339589Y00549461D03*
X03352589D03*
X03368782Y00570289D03*
X03355783D03*
X03377014Y00550926D03*
X03390013D03*
X03368505Y00516952D03*
X03381505D03*
X03273555Y00650045D03*
X03260555D03*
X03404931Y00229421D03*
X03417931D03*
X03392412Y00229167D03*
X03379412D03*
X03403303Y00334069D03*
X03416303D03*
X03347573Y00347879D03*
X03338073Y00327879D03*
X03357073D03*
X03162915Y01279457D03*
X03149915D03*
X03224233Y01295459D03*
X03237233D03*
X03236979Y01277679D03*
X03223979D03*
X03196039Y01184461D03*
X03209039D03*
X03074625Y01133821D03*
X03055625D03*
X03065125Y01153821D03*
X03105615Y01134169D03*
X03118615D03*
X03105615Y01154743D03*
X03118615D03*
X03000909Y00845625D03*
X02987909D03*
X03035049Y00829115D03*
X03022049D03*
X03022303Y00811081D03*
X03035303D03*
X03027891Y00928937D03*
X03040891D03*
X03095455Y00861881D03*
X03108455D03*
X03064467Y00928683D03*
X03077467D03*
X03352757Y00498407D03*
X03365757D03*
X02881991Y00413157D03*
X02872491Y00393157D03*
X02891491D03*
X03403643Y00534356D03*
X03394143Y00514356D03*
X03413143D03*
X03377903Y00498153D03*
X03390903D03*
X03026263Y00793403D03*
X03016763Y00773403D03*
X03035763D03*
X02910589Y00284031D03*
X02897589D03*
X03030223Y00758503D03*
X03017223D03*
X03187703Y01279457D03*
X03174703D03*
X03048719Y00834449D03*
X03061719D03*
X03352431Y00531681D03*
X03339431D03*
X03425655Y00574405D03*
X03438655D03*
X03351487Y00670111D03*
X03364487D03*
X03384553Y00347785D03*
X03371553D03*
X03379277Y00211641D03*
X03392277D03*
X03118393Y00812605D03*
X03105393D03*
X03165859Y00890583D03*
X03152859D03*
X03144269Y00849689D03*
X03131269D03*
X03134363Y00944685D03*
X03121363D03*
X03424131Y00669603D03*
X03437131D03*
X03359661Y00311463D03*
X03346661D03*
X03404931Y00211387D03*
X03417931D03*
X03041861Y00758757D03*
X03054861D03*
X03322531Y00240597D03*
X03335531D03*
X03390903Y00481135D03*
X03377903D03*
G54D152*
X03158533Y00164187D03*
Y00135187D03*
X03183489Y00164165D03*
Y00135165D03*
X03208381Y00164165D03*
Y00135165D03*
X03107480Y00164187D03*
Y00135187D03*
X03132689Y00164165D03*
Y00135165D03*
X03082651Y00164165D03*
Y00135165D03*
X02812903Y01635587D03*
Y01606587D03*
X02838557Y01653367D03*
Y01624367D03*
X02937871Y01736425D03*
Y01707425D03*
X03050901Y00535005D03*
Y00506005D03*
X03176885Y00504525D03*
Y00475525D03*
X03205841Y01277403D03*
Y01306403D03*
X02865735Y01703913D03*
Y01674913D03*
X02838303Y01696293D03*
Y01667293D03*
X02838557Y01739727D03*
Y01710727D03*
X02865989Y01760047D03*
Y01731047D03*
X02812141Y01724995D03*
Y01695995D03*
X02812395Y01680291D03*
Y01651291D03*
X03166979Y00854029D03*
Y00825029D03*
X03101701Y00906353D03*
Y00877353D03*
X03287883Y00922529D03*
Y00893529D03*
X03271627Y00937551D03*
Y00966551D03*
X02937871Y01820499D03*
Y01791499D03*
Y01778593D03*
Y01749593D03*
X02891135Y01732615D03*
Y01703615D03*
X03185013Y00890307D03*
Y00919307D03*
X03210540Y00893529D03*
Y00922529D03*
X03236321Y00893529D03*
Y00922529D03*
X03262102Y00893529D03*
Y00922529D03*
X03174749Y00646333D03*
Y00675333D03*
X03201241Y00646333D03*
X03201242Y00675333D03*
X03227734Y00646333D03*
Y00675333D03*
G54D153*
X03348589Y00595943D03*
X03361289D03*
X03373989D03*
X03386689D03*
X03399389D03*
X03412089D03*
X03424789D03*
X03437489D03*
X03348589Y00649283D03*
X03361289D03*
X03373989D03*
X03386689D03*
X03399389D03*
X03412089D03*
X03424789D03*
X03437489D03*
G54D154*
X02878195Y00707449D03*
X02848195D03*
X03256655Y00064067D03*
X03226655D03*
X03086729Y01066351D03*
X03056729D03*
X03087209Y00738183D03*
X03117209D03*
X03229477Y01060763D03*
X03199477D03*
X03390005Y01068129D03*
X03360005D03*
X02924169Y00788475D03*
X02894169D03*
G54D155*
X02842357Y01582479D03*
X02809357D03*
X03302351Y00570543D03*
X03269351D03*
X03203799Y00579433D03*
X03170799D03*
X03127345Y00788283D03*
X03094345D03*
X03049387Y00815145D03*
X03082387D03*
X03094599Y00765551D03*
X03127599Y00765552D03*
X03132953Y00964751D03*
X03165953D03*
G54D156*
X03046173Y01098609D03*
X03090173D03*
X02912627Y00458783D03*
X02868627D03*
X02947425Y00713291D03*
X02903425D03*
X02888693Y00757233D03*
X02932693D03*
X03277441Y00163127D03*
X03233441D03*
X02898091Y00625661D03*
X02942091D03*
X03165865Y01061271D03*
X03121865D03*
X03030737Y01067875D03*
X02986737D03*
G54D157*
X03134213Y01741229D03*
X03197713D03*
G54D158*
X02816713Y00566423D03*
X02804013D03*
Y00503543D03*
X02816713D03*
X03362305Y00385179D03*
X03375005D03*
Y00448059D03*
X03362305D03*
G54D159*
X03356441Y00188273D03*
X03385441D03*
X03398605Y00188019D03*
X03427605D03*
X03208105Y01556317D03*
X03237105D03*
X03165687D03*
X03194687D03*
X02997793Y01095307D03*
X03026793D03*
X03265001Y01025965D03*
X03294001D03*
X02830153Y00167445D03*
X02859153D03*
X02900831Y00202497D03*
X02871831D03*
X02900831Y00167445D03*
X02871831D03*
X02859153Y00202497D03*
X02830153D03*
X02910207Y00236787D03*
X02881207D03*
X02910207Y00262187D03*
X02881207D03*
X03106549Y00949765D03*
X03077549D03*
X03064639Y00950019D03*
X03035639D03*
X03322195Y00943669D03*
X03293195D03*
X03106803Y00975419D03*
X03077803D03*
X03064131Y00975927D03*
X03035131D03*
X02877441Y00625153D03*
X02848441D03*
G54D160*
X03419709Y00314841D03*
X03381609Y00260841D03*
X03394309D03*
X03407009D03*
X03419709D03*
X03381609Y00314841D03*
X03394309D03*
X03407009D03*
X03213207Y01258959D03*
X03175107Y01204959D03*
X03187807D03*
X03200507D03*
X03213207D03*
X03175107Y01258959D03*
X03187807D03*
X03200507D03*
X03026517Y00854185D03*
X03064617Y00908185D03*
X03051917D03*
X03039217D03*
X03026517D03*
X03064617Y00854185D03*
X03051917D03*
X03039217D03*
G54D110*
X02892945Y01103689D03*
Y01090989D03*
X02955825D03*
Y01103689D03*
X02955999Y01130359D03*
Y01143059D03*
X02893119D03*
Y01130359D03*
G54D161*
X03347065Y01311901D03*
Y01239901D03*
X03359003Y00869315D03*
Y00941315D03*
G54D162*
X02979996Y00495919D03*
X02988976Y00486938D03*
X02944514Y00442475D03*
X02935534Y00451456D03*
G54D163*
X03031013Y01042475D03*
X03085013Y01004375D03*
Y01017075D03*
Y01029775D03*
Y01042475D03*
X03031013Y01004375D03*
Y01017075D03*
Y01029775D03*
G54D164*
X02893167Y01801075D03*
Y01757075D03*
G54D165*
X02960477Y01011735D03*
Y01042735D03*
G54D166*
X03221150Y00444902D03*
X03091724Y00452150D03*
X03204604Y00769142D03*
G54D167*
X03260401Y00444905D03*
X03130973Y00452152D03*
X03243854Y00769146D03*
G54D168*
X03260402Y00482402D03*
X03130974Y00489650D03*
X03243855Y00806642D03*
G54D169*
X03221150Y00482402D03*
X03091724Y00489650D03*
X03204604Y00806642D03*
G54D170*
X03217525Y00537777D03*
X03263525D03*
X03088099Y00545025D03*
X03134099D03*
X03200979Y00862017D03*
X03246979D03*
M02*