G04 CAM350 V9.5 (Build 208) Date:  Thu Apr 06 17:04:20 2023 *
G04 Database: d:\baza\svetovie_tehn\05-04-23\rc150w\rc150w_mdp_1.2_(rsc-p01f-v02).cam *
G04 Layer 3: ReZ_Tmsk *
%FSLAX44Y44*%
%MOIN*%
%SFA1.000B1.000*%

%MIA0B0*%
%IPPOS*%
%AMOverROUNDEDRECTD330*
4,1,76,-0.02655,0.00557,-0.02652,0.00629,-0.02642,0.00717,-0.02623,0.00804,-0.02597,0.00889,-0.02563,0.00971,-0.02522,0.01050,-0.02474,0.01124,-0.02420,0.01194,-0.02360,0.01259,-0.01259,0.02360,-0.01213,0.02404,-0.01144,0.02460,-0.01070,0.02510,-0.00993,0.02553,-0.00912,0.02589,-0.00827,0.02617,-0.00741,0.02637,-0.00653,0.02650,-0.00565,0.02655,-0.00476,0.02651,-0.00388,0.02640,-0.00301,0.02621,-0.00217,0.02594,-0.00135,0.02560,-0.00057,0.02518,0.00018,0.02470,0.00087,0.02415,0.00152,0.02354,0.02354,0.00152,0.02410,0.00093,0.02465,0.00024,0.02514,-0.00050,0.02556,-0.00128,0.02591,-0.00209,0.02619,-0.00294,0.02639,-0.00380,0.02651,-0.00468,0.02655,-0.00557,0.02652,-0.00629,0.02642,-0.00717,0.02623,-0.00804,0.02597,-0.00889,0.02563,-0.00971,0.02522,-0.01050,0.02474,-0.01124,0.02420,-0.01194,0.02360,-0.01259,0.01259,-0.02360,0.01213,-0.02404,0.01144,-0.02460,0.01070,-0.02510,0.00993,-0.02553,0.00912,-0.02589,0.00827,-0.02617,0.00741,-0.02637,0.00653,-0.02650,0.00565,-0.02655,0.00476,-0.02651,0.00388,-0.02640,0.00301,-0.02621,0.00217,-0.02594,0.00135,-0.02560,0.00057,-0.02518,-0.00018,-0.02470,-0.00087,-0.02415,-0.00152,-0.02354,-0.02354,-0.00152,-0.02410,-0.00093,-0.02465,-0.00024,-0.02514,0.00050,-0.02556,0.00128,-0.02591,0.00209,-0.02619,0.00294,-0.02639,0.00380,-0.02651,0.00468,-0.02655,0.00557,0.00000*
%
%AMOverROUNDEDRECTD220*
4,1,76,0.01575,-0.01772,-0.01575,-0.01772,-0.01612,-0.01771,-0.01701,-0.01764,-0.01788,-0.01748,-0.01874,-0.01725,-0.01957,-0.01694,-0.02037,-0.01656,-0.02113,-0.01611,-0.02185,-0.01559,-0.02252,-0.01501,-0.02314,-0.01437,-0.02369,-0.01368,-0.02419,-0.01294,-0.02461,-0.01216,-0.02496,-0.01135,-0.02523,-0.01050,-0.02543,-0.00964,-0.02555,-0.00876,-0.02559,-0.00787,-0.02559,0.00787,-0.02558,0.00825,-0.02551,0.00913,-0.02536,0.01001,-0.02513,0.01086,-0.02482,0.01169,-0.02444,0.01250,-0.02399,0.01326,-0.02347,0.01398,-0.02289,0.01465,-0.02225,0.01527,-0.02156,0.01582,-0.02082,0.01631,-0.02004,0.01673,-0.01922,0.01708,-0.01838,0.01736,-0.01751,0.01756,-0.01663,0.01768,-0.01575,0.01772,0.01575,0.01772,0.01612,0.01771,0.01701,0.01764,0.01788,0.01748,0.01874,0.01725,0.01957,0.01694,0.02037,0.01656,0.02113,0.01611,0.02185,0.01559,0.02252,0.01501,0.02314,0.01437,0.02369,0.01368,0.02419,0.01294,0.02461,0.01216,0.02496,0.01135,0.02523,0.01050,0.02543,0.00964,0.02555,0.00876,0.02559,0.00787,0.02559,-0.00787,0.02558,-0.00825,0.02551,-0.00913,0.02536,-0.01001,0.02513,-0.01086,0.02482,-0.01169,0.02444,-0.01250,0.02399,-0.01326,0.02347,-0.01398,0.02289,-0.01465,0.02225,-0.01527,0.02156,-0.01582,0.02082,-0.01631,0.02004,-0.01673,0.01922,-0.01708,0.01838,-0.01736,0.01751,-0.01756,0.01663,-0.01768,0.01575,-0.01772,0.00000*
%
%AMOverROUNDEDRECTD230*
4,1,76,-0.01772,-0.01575,-0.01772,0.01575,-0.01771,0.01612,-0.01764,0.01701,-0.01748,0.01788,-0.01725,0.01874,-0.01694,0.01957,-0.01656,0.02037,-0.01611,0.02113,-0.01559,0.02185,-0.01501,0.02252,-0.01437,0.02314,-0.01368,0.02369,-0.01294,0.02419,-0.01216,0.02461,-0.01135,0.02496,-0.01050,0.02523,-0.00964,0.02543,-0.00876,0.02555,-0.00787,0.02559,0.00787,0.02559,0.00825,0.02558,0.00913,0.02551,0.01001,0.02536,0.01086,0.02513,0.01169,0.02482,0.01250,0.02444,0.01326,0.02399,0.01398,0.02347,0.01465,0.02289,0.01527,0.02225,0.01582,0.02156,0.01631,0.02082,0.01673,0.02004,0.01708,0.01922,0.01736,0.01838,0.01756,0.01751,0.01768,0.01663,0.01772,0.01575,0.01772,-0.01575,0.01771,-0.01612,0.01764,-0.01701,0.01748,-0.01788,0.01725,-0.01874,0.01694,-0.01957,0.01656,-0.02037,0.01611,-0.02113,0.01559,-0.02185,0.01501,-0.02252,0.01437,-0.02314,0.01368,-0.02369,0.01294,-0.02419,0.01216,-0.02461,0.01135,-0.02496,0.01050,-0.02523,0.00964,-0.02543,0.00876,-0.02555,0.00787,-0.02559,-0.00787,-0.02559,-0.00825,-0.02558,-0.00913,-0.02551,-0.01001,-0.02536,-0.01086,-0.02513,-0.01169,-0.02482,-0.01250,-0.02444,-0.01326,-0.02399,-0.01398,-0.02347,-0.01465,-0.02289,-0.01527,-0.02225,-0.01582,-0.02156,-0.01631,-0.02082,-0.01673,-0.02004,-0.01708,-0.01922,-0.01736,-0.01838,-0.01756,-0.01751,-0.01768,-0.01663,-0.01772,-0.01575,0.00000*
%
%AMOverROUNDEDRECTD540*
4,1,108,-0.04134,-0.01969,-0.04134,0.01969,-0.04131,0.02079,-0.04120,0.02210,-0.04102,0.02341,-0.04075,0.02470,-0.04041,0.02597,-0.03999,0.02721,-0.03949,0.02843,-0.03892,0.02962,-0.03829,0.03077,-0.03758,0.03188,-0.03680,0.03294,-0.03597,0.03396,-0.03507,0.03492,-0.03412,0.03583,-0.03311,0.03668,-0.03205,0.03746,-0.03095,0.03818,-0.02980,0.03883,-0.02862,0.03941,-0.02741,0.03991,-0.02617,0.04035,-0.02490,0.04070,-0.02361,0.04098,-0.02231,0.04118,-0.02100,0.04130,-0.01969,0.04134,0.01969,0.04134,0.02079,0.04131,0.02210,0.04120,0.02341,0.04102,0.02470,0.04075,0.02597,0.04041,0.02721,0.03999,0.02843,0.03949,0.02962,0.03892,0.03077,0.03829,0.03188,0.03758,0.03294,0.03680,0.03396,0.03597,0.03492,0.03507,0.03583,0.03412,0.03668,0.03311,0.03746,0.03205,0.03818,0.03095,0.03883,0.02980,0.03941,0.02862,0.03991,0.02741,0.04035,0.02617,0.04070,0.02490,0.04098,0.02361,0.04118,0.02231,0.04130,0.02100,0.04134,0.01969,0.04134,-0.01969,0.04131,-0.02079,0.04120,-0.02210,0.04102,-0.02341,0.04075,-0.02470,0.04041,-0.02597,0.03999,-0.02721,0.03949,-0.02843,0.03892,-0.02962,0.03829,-0.03077,0.03758,-0.03188,0.03680,-0.03294,0.03597,-0.03396,0.03507,-0.03492,0.03412,-0.03583,0.03311,-0.03668,0.03205,-0.03746,0.03095,-0.03818,0.02980,-0.03883,0.02862,-0.03941,0.02741,-0.03991,0.02617,-0.04035,0.02490,-0.04070,0.02361,-0.04098,0.02231,-0.04118,0.02100,-0.04130,0.01969,-0.04134,-0.01969,-0.04134,-0.02079,-0.04131,-0.02210,-0.04120,-0.02341,-0.04102,-0.02470,-0.04075,-0.02597,-0.04041,-0.02721,-0.03999,-0.02843,-0.03949,-0.02962,-0.03892,-0.03077,-0.03829,-0.03188,-0.03758,-0.03294,-0.03680,-0.03396,-0.03597,-0.03492,-0.03507,-0.03583,-0.03412,-0.03668,-0.03311,-0.03746,-0.03205,-0.03818,-0.03095,-0.03883,-0.02980,-0.03941,-0.02862,-0.03991,-0.02741,-0.04035,-0.02617,-0.04070,-0.02490,-0.04098,-0.02361,-0.04118,-0.02231,-0.04130,-0.02100,-0.04134,-0.01969,0.00000*
%
%ADD10C,0.01000*%
%ADD35C,0.01181*%
%ADD65R,0.05118X0.08661*%
%ADD66C,0.07480*%
%ADD67C,0.08268*%
%ADD68C,0.10236*%
%ADD69C,0.11417*%
%ADD74R,0.03543X0.03937*%
%ADD75R,0.03937X0.03543*%
%ADD76R,0.04134X0.05906*%
%ADD77R,0.07087X0.09055*%
%ADD78R,0.04331X0.07087*%
%ADD79R,0.03937X0.07480*%
%ADD80R,0.05906X0.04134*%
%ADD81R,0.06299X0.08268*%
%ADD82OverROUNDEDRECTD330*%
%ADD83R,0.07480X0.02756*%
%ADD84R,0.07480X0.03937*%
%ADD85OverROUNDEDRECTD220*%
%ADD86R,0.07087X0.04331*%
%ADD87C,0.04331*%
%ADD88R,0.08268X0.06299*%
%ADD89P,0.04688X8X22.5*%
%ADD90R,0.08394X0.03194*%
%ADD91OverROUNDEDRECTD230*%
%ADD92R,0.12205X0.06693*%
%ADD93R,0.02756X0.07480*%
%ADD94R,0.27953X0.27953*%
%ADD95R,0.06693X0.12205*%
%ADD96C,0.12205*%
%ADD97R,0.11417X0.15354*%
%ADD98O,0.14173X0.12205*%
%ADD99C,0.18110*%
%ADD100R,0.05294X0.12894*%
%ADD101R,0.04331X0.11024*%
%ADD102OverROUNDEDRECTD540*%
%ADD103R,0.14173X0.12205*%
%ADD104R,0.11417X0.11417*%
%ADD105C,0.04335*%
%ADD106C,0.14571*%
%ADD108C,0.07874*%
%LNReZ_Tmsk*%
%LPD*%
G36*
X9017Y52356D02*
G01X9013Y52358D01*
X9008Y52359*
X9004Y52360*
X8999*
X8994Y52359*
X8990Y52358*
X8986Y52355*
X8982Y52352*
X8979Y52349*
X8976Y52345*
X8974Y52340*
X8973Y52335*
Y52332*
Y52331*
X8970Y52361*
Y52363*
X8971Y52366*
X8973Y52369*
X8975Y52372*
X8977Y52374*
X8981Y52375*
X8984Y52376*
X8987*
X8991Y52375*
X8994Y52374*
X9010Y52361*
X9017Y52356*
G37*
G36*
Y25112D02*
G01X9013Y25114D01*
X9008Y25115*
X9004Y25116*
X8999*
X8994Y25115*
X8990Y25113*
X8986Y25111*
X8982Y25108*
X8979Y25105*
X8976Y25100*
X8974Y25096*
X8973Y25091*
Y25088*
Y25087*
X8970Y25117*
Y25119*
X8971Y25122*
X8973Y25125*
X8975Y25128*
X8977Y25130*
X8981Y25131*
X8984Y25132*
X8987*
X8991Y25131*
X8994Y25129*
X9010Y25117*
X9017Y25112*
G37*
G36*
X82049Y52356D02*
G01X82044Y52358D01*
X82040Y52359*
X82035Y52360*
X82030*
X82026Y52359*
X82021Y52358*
X82017Y52355*
X82013Y52352*
X82010Y52349*
X82008Y52345*
X82006Y52340*
X82005Y52335*
Y52332*
Y52331*
X82002Y52361*
Y52363*
X82003Y52366*
X82004Y52369*
X82006Y52372*
X82009Y52374*
X82012Y52375*
X82015Y52376*
X82019*
X82022Y52375*
X82025Y52374*
X82041Y52361*
X82049Y52356*
G37*
G36*
Y25112D02*
G01X82044Y25114D01*
X82040Y25115*
X82035Y25116*
X82030*
X82026Y25115*
X82021Y25113*
X82017Y25111*
X82013Y25108*
X82010Y25105*
X82008Y25100*
X82006Y25096*
X82005Y25091*
Y25088*
Y25087*
X82002Y25117*
Y25119*
X82003Y25122*
X82004Y25125*
X82006Y25128*
X82009Y25130*
X82012Y25131*
X82015Y25132*
X82019*
X82022Y25131*
X82025Y25129*
X82041Y25117*
X82049Y25112*
G37*
G36*
X9871Y43362D02*
G01X9872Y43834D01*
X11090*
X11095Y43829*
X11081Y42161*
X10609*
X10620Y43361*
X9871Y43362*
G37*
G36*
Y16117D02*
G01X9872Y16590D01*
X11090*
X11095Y16585*
X11081Y14917*
X10609*
X10620Y16117*
X9871*
G37*
G36*
X82903Y43362D02*
G01Y43834D01*
X84122*
X84126Y43829*
X84113Y42161*
X83640*
X83651Y43361*
X82903Y43362*
G37*
G36*
Y16117D02*
G01Y16590D01*
X84122*
X84126Y16585*
X84113Y14917*
X83640*
X83651Y16117*
X82903*
G37*
G36*
X8994Y52374D02*
G01X8991Y52375D01*
X8987Y52376*
X8984*
X8981Y52375*
X8977Y52374*
X8975Y52372*
X8973Y52369*
X8971Y52366*
Y52363*
X8970Y52361*
X8967Y52388*
X8966Y52398*
X8981Y52384*
X8994Y52374*
G37*
G36*
Y25129D02*
G01X8991Y25131D01*
X8987Y25132*
X8984*
X8981Y25131*
X8977Y25130*
X8975Y25128*
X8973Y25125*
X8971Y25122*
Y25119*
X8970Y25117*
X8967Y25143*
X8966Y25154*
X8981Y25140*
X8994Y25130*
Y25129*
G37*
G36*
X82025Y52374D02*
G01X82022Y52375D01*
X82019Y52376*
X82015*
X82012Y52375*
X82009Y52374*
X82006Y52372*
X82004Y52369*
X82003Y52366*
X82002Y52363*
Y52361*
X81999Y52388*
X81997Y52398*
X82012Y52384*
X82025Y52374*
G37*
G36*
Y25129D02*
G01X82022Y25131D01*
X82019Y25132*
X82015*
X82012Y25131*
X82009Y25130*
X82006Y25128*
X82004Y25125*
X82003Y25122*
X82002Y25119*
Y25117*
X81999Y25143*
X81997Y25154*
X82012Y25140*
X82025Y25130*
Y25129*
G37*
G36*
X9291Y42610D02*
G01X9301Y43814D01*
X9773*
X9762Y42614*
X10510*
Y42141*
X9759*
X9291Y42610*
G37*
G36*
Y15366D02*
G01X9301Y16570D01*
X9773*
X9762Y15370*
X10510*
Y14897*
X9759*
X9291Y15366*
G37*
G36*
X82322Y42610D02*
G01X82332Y43814D01*
X82805*
X82794Y42614*
X83542*
Y42141*
X82791*
X82322Y42610*
G37*
G36*
Y15366D02*
G01X82332Y16570D01*
X82805*
X82794Y15370*
X83542*
Y14897*
X82791*
X82322Y15366*
G37*
G54D65*
X133212Y984D03*
G54D66*
X130389Y8100D03*
G54D67*
X142317Y16906D03*
X131422Y25873D03*
G54D68*
X126174Y5430D03*
G54D69*
X137751Y21457D03*
G54D74*
X133072Y26330D03*
G54D75*
X137014Y25590D03*
G54D76*
X136797Y26310D03*
X135539Y26300D03*
G54D77*
X139624Y20059D03*
G54D74*
X135789Y15300D03*
Y15980D03*
X135793Y17190D03*
G54D78*
X135792Y13700D03*
X136285Y23346D03*
G54D79*
X140724Y14360D03*
Y13368D03*
Y12390D03*
G54D80*
X134574Y22592D03*
G54D81*
X136148Y19664D03*
X136138Y20944D03*
G54D82*
X128644Y7506D03*
G54D83*
X133651Y24160D03*
G54D84*
X138604Y5252D03*
G54D74*
X133127Y4960D03*
X132310Y4338D03*
G54D75*
X132594Y6056D03*
G54D74*
X129626Y4636D03*
G54D85*
X126221Y1420D03*
G54D77*
X118011Y7196D03*
X98781Y12154D03*
G54D86*
X131814Y5550D03*
G54D74*
X131611Y4950D03*
G54D65*
X134000Y2559D03*
G54D74*
X129811Y5226D03*
X131116Y4636D03*
G54D75*
X133754Y4537D03*
G54D86*
X116551Y23340D03*
G54D74*
X117170Y24523D03*
X116658Y23930D03*
X113074Y13764D03*
X113602Y14370D03*
G54D86*
X115011Y14150D03*
X115906Y14160D03*
G54D74*
X117878Y14468D03*
Y15206D03*
Y13718D03*
G54D87*
X127281Y7120D03*
G54D65*
X129275Y2559D03*
G54D74*
X127226Y6600D03*
G54D65*
X103650Y2567D03*
G54D74*
X122638Y1040D03*
X100309Y23260D03*
G54D86*
X115906Y12860D03*
G54D74*
X114114Y14370D03*
G54D75*
X114054Y13797D03*
G54D88*
X116984Y13751D03*
G54D75*
X134586Y5594D03*
X135880Y5220D03*
X133994Y5576D03*
G54D89*
X120454Y20830D03*
G54D75*
Y19906D03*
X124094Y25894D03*
G54D90*
X122584Y25360D03*
G54D75*
X125693Y24156D03*
X125444Y25884D03*
X127774Y23014D03*
G54D85*
X128406Y23400D03*
G54D75*
X119684Y25834D03*
X118324Y26346D03*
X118964Y25206D03*
X137681Y24100D03*
X132350Y22820D03*
X131504Y24002D03*
X132354Y23764D03*
G54D85*
X130881Y23900D03*
G54D75*
X137681Y25080D03*
Y24612D03*
X132894Y25014D03*
X132354Y24276D03*
X127774Y23526D03*
Y24014D03*
G54D74*
X115599Y11120D03*
G54D75*
X116174Y10784D03*
X116184Y10326D03*
X115597Y9796D03*
X134586Y4846D03*
X136667D03*
X137264Y5064D03*
X127094Y23536D03*
X125796Y24653D03*
X126434Y24014D03*
X127104D03*
G54D74*
X132616Y4960D03*
X132122Y4950D03*
X133058Y4338D03*
G54D75*
X132594Y5544D03*
G54D84*
X138604Y3594D03*
Y4110D03*
G54D77*
X102794Y10954D03*
G54D84*
X102924Y10191D03*
X138501Y24840D03*
X138511Y24320D03*
X107624Y11661D03*
X107644Y12199D03*
X108644Y11681D03*
X108654Y12189D03*
X139914Y4110D03*
Y3594D03*
G54D87*
X133872Y13670D03*
G54D65*
X128488Y2559D03*
G54D74*
X134280Y15290D03*
X134275Y15967D03*
G54D78*
X134493Y13700D03*
G54D74*
X135978Y22654D03*
G54D75*
X136574Y22346D03*
G54D78*
X134985Y23346D03*
G54D74*
X112700Y12976D03*
G54D75*
X114054Y13285D03*
G54D78*
X114704Y12120D03*
X114994Y8900D03*
G54D86*
X113954Y12380D03*
G54D74*
X113448Y12976D03*
G54D75*
X131494Y22494D03*
G54D85*
X130881Y23400D03*
G54D74*
X123149Y1820D03*
G54D85*
X123746Y1920D03*
X126221D03*
G54D84*
X139914Y5252D03*
G54D75*
X136667Y5594D03*
X137264Y5576D03*
G54D74*
X104557Y4190D03*
G54D91*
X103131Y4932D03*
G54D75*
X101961Y7964D03*
G54D91*
X102631Y7408D03*
G54D74*
X100666Y8604D03*
G54D75*
X99281Y8872D03*
X101301Y7964D03*
G54D91*
X101544Y7404D03*
G54D74*
X100291Y7816D03*
G54D91*
X101044Y7404D03*
G54D75*
X139341Y24342D03*
G54D84*
X138501Y25982D03*
G54D76*
X137526Y26310D03*
G54D75*
X132894Y25526D03*
G54D83*
X133651Y25160D03*
G54D75*
X114114Y10014D03*
G54D76*
X114098Y9350D03*
G54D74*
X129437Y6014D03*
G54D76*
X129746Y6700D03*
G54D74*
X134792Y15290D03*
X135278Y15300D03*
Y15980D03*
G54D76*
X134809Y14560D03*
X135538D03*
G54D89*
X136454Y24545D03*
G54D75*
X137011Y24612D03*
X137681Y25592D03*
X137014Y25078D03*
G54D83*
X135777Y24660D03*
G54D79*
X140724Y17340D03*
Y16360D03*
Y15377D03*
X139583Y14360D03*
X139582Y13368D03*
X139583Y12390D03*
G54D84*
X108894Y20679D03*
G54D79*
X109134Y19830D03*
X110363Y13140D03*
X107993Y19830D03*
X95891Y14946D03*
X95131Y15930D03*
X96272D03*
X96081Y16940D03*
X93211Y7230D03*
X93142Y8210D03*
G54D84*
X91991Y8959D03*
G54D79*
X92001Y8210D03*
G54D89*
X122994Y20270D03*
G54D86*
X123584Y19740D03*
G54D75*
X123804Y19036D03*
G54D92*
X124874Y19511D03*
G54D80*
X124431Y20439D03*
G54D89*
X122535Y21060D03*
G54D86*
X123584Y21040D03*
G54D80*
X124431Y21167D03*
G54D90*
X120484Y23360D03*
G54D86*
X123234Y15860D03*
G54D75*
X123294Y13716D03*
G54D92*
X124588Y14416D03*
G54D80*
X122294Y16190D03*
X108924Y15674D03*
G54D74*
X111854Y19860D03*
G54D92*
X112108Y18860D03*
G54D86*
X108064Y15670D03*
G54D75*
X108834Y14442D03*
G54D80*
X108924Y14946D03*
G54D74*
X118389Y14468D03*
Y15206D03*
Y13718D03*
G54D80*
X118214Y15826D03*
G54D74*
X129063Y5226D03*
G54D80*
X130431Y5973D03*
G54D86*
X131814Y6849D03*
G54D77*
X128051Y5596D03*
G54D75*
X135374Y5220D03*
X133994Y5064D03*
G54D76*
X129017Y6700D03*
G54D80*
X130431Y6701D03*
G54D93*
X106581Y10366D03*
G54D86*
X104041Y10285D03*
G54D81*
X101622Y12100D03*
G54D74*
X105889Y9510D03*
G54D78*
X106303Y8730D03*
G54D93*
X106081Y10366D03*
G54D75*
X96348Y8204D03*
G54D93*
X96991Y8227D03*
G54D75*
X101301Y8476D03*
X101961D03*
G54D80*
X99191Y10364D03*
G54D93*
X98491Y10353D03*
G54D75*
X99281Y8360D03*
G54D93*
X97991Y10353D03*
G54D74*
X97047Y5870D03*
X98487Y7360D03*
X98517Y6670D03*
G54D93*
X98491Y8227D03*
G54D74*
X96546Y6670D03*
X97976Y7360D03*
X98047Y6670D03*
G54D93*
X97991Y8227D03*
G54D74*
X95256Y8020D03*
Y8710D03*
G54D79*
X94352Y7230D03*
G54D93*
X97491Y8227D03*
G54D90*
X122584Y22860D03*
G54D75*
X124356Y23979D03*
X125114Y23011D03*
X123404Y22667D03*
X124414Y22506D03*
G54D90*
X122584Y23360D03*
G54D75*
X123594Y23655D03*
G54D90*
X122584Y23860D03*
G54D75*
X123594Y24665D03*
X124356Y24491D03*
X125693Y23644D03*
G54D90*
X122584Y24360D03*
G54D75*
X125444Y26396D03*
X124764Y25894D03*
G54D90*
X122584Y24860D03*
G54D75*
X119684Y26346D03*
X123431Y25894D03*
G54D90*
X122584Y25860D03*
G54D75*
X125008Y25027D03*
X119664Y22974D03*
G54D90*
X120484Y22860D03*
G54D69*
X122298Y19193D03*
G54D75*
X119664Y23486D03*
G54D90*
X120484Y23860D03*
G54D89*
X123090Y18550D03*
G54D75*
X123804Y18524D03*
G54D92*
X124874Y17700D03*
G54D94*
X127502Y13510D03*
G54D79*
X125163Y16270D03*
G54D81*
X127484Y11010D03*
G54D74*
X117918Y24523D03*
X117709Y25930D03*
G54D75*
X118324Y25834D03*
X119624Y24694D03*
G54D76*
X116658Y25970D03*
G54D90*
X120484Y24860D03*
G54D89*
X122269Y17600D03*
G54D86*
X123234Y17160D03*
G54D80*
X122294Y16918D03*
G54D90*
X120484Y25360D03*
G54D89*
X114008Y8740D03*
G54D75*
X112114Y13406D03*
X113404Y10004D03*
X114810Y10170D03*
G54D76*
X113369Y9350D03*
G54D79*
X111504Y13140D03*
G54D83*
X112417Y10180D03*
G54D89*
X111064Y12480D03*
G54D75*
X112594Y14304D03*
X109484Y12186D03*
G54D83*
X110291Y11680D03*
Y10680D03*
G54D89*
X108304Y13857D03*
G54D86*
X108064Y14370D03*
G54D75*
X108834Y13930D03*
G54D74*
X112118Y12280D03*
G54D83*
X112417Y11680D03*
G54D89*
X111544Y14770D03*
G54D75*
X110984Y15154D03*
X113194Y11054D03*
G54D83*
X112417Y11180D03*
G54D75*
X109474Y10234D03*
G54D84*
X108644Y10539D03*
G54D75*
X114114Y10526D03*
X113404Y10516D03*
G54D83*
X112417Y10680D03*
X133651Y25660D03*
G54D75*
X133137Y23194D03*
G54D74*
X133584Y26330D03*
G54D76*
X134928Y26346D03*
G54D83*
X135777Y24160D03*
Y25160D03*
G54D75*
X133137Y22446D03*
G54D76*
X136268Y26300D03*
G54D83*
X135777Y25660D03*
G54D89*
X132204Y21750D03*
X133934Y17290D03*
G54D74*
X134787Y15967D03*
X135281Y17190D03*
X135230Y22654D03*
G54D75*
X133784Y22784D03*
X131504Y23490D03*
X131494Y23006D03*
G54D80*
X134574Y21864D03*
G54D75*
X133784Y23296D03*
G54D76*
X134199Y26346D03*
G54D83*
X133651Y24660D03*
G54D89*
X105261Y18750D03*
G54D77*
X104271Y13506D03*
G54D84*
X105631Y19369D03*
G54D88*
X104284Y16989D03*
G54D89*
X117913Y21250D03*
G54D74*
X117544Y25310D03*
X117198Y25930D03*
X117169Y23930D03*
G54D88*
X115471Y24251D03*
G54D89*
X117029Y8000D03*
G54D86*
X116201Y6269D03*
G54D78*
X116294Y8900D03*
G54D89*
X125844Y22515D03*
G54D75*
X126424Y23536D03*
G54D89*
X118974Y3700D03*
G54D77*
X121414Y5124D03*
G54D84*
X121434Y4311D03*
G54D88*
X118194Y4341D03*
G54D89*
X116941Y5230D03*
G54D86*
X116201Y4970D03*
G54D88*
X115004Y4969D03*
G54D74*
X97026Y11139D03*
G54D93*
X97491Y10353D03*
G54D88*
X95664Y11001D03*
G54D89*
X135434Y21500D03*
G54D74*
X135604Y21866D03*
G54D75*
X136574Y21834D03*
G54D78*
X135071Y18590D03*
G54D81*
X134967Y19664D03*
X134957Y20944D03*
G54D79*
X125464Y11139D03*
G54D81*
X126303Y11010D03*
G54D79*
X126304Y16270D03*
G54D81*
X127218Y16150D03*
G54D79*
X113564Y15710D03*
G54D81*
X114463Y15690D03*
G54D89*
X109155Y9721D03*
G54D75*
X112754Y9172D03*
G54D84*
X107624Y10519D03*
G54D83*
X110291Y10180D03*
G54D81*
X110543Y9150D03*
G54D86*
X113954Y11080D03*
G54D75*
X127094Y23024D03*
X116174Y11296D03*
X126424Y23024D03*
G54D82*
X126539Y8903D03*
G54D74*
X127737Y6600D03*
G54D82*
X128290Y7152D03*
G54D86*
X94281Y24020D03*
G54D75*
X93487Y24818D03*
G54D76*
Y25990D03*
G54D95*
X97227Y25555D03*
G54D79*
X97222Y16940D03*
G54D74*
X99798Y23260D03*
G54D89*
X110774Y16040D03*
G54D74*
X111342Y19860D03*
G54D75*
X110984Y15666D03*
G54D92*
X112108Y17049D03*
G54D79*
X110868Y20470D03*
X112423Y15710D03*
X110868Y19455D03*
Y18440D03*
Y17425D03*
X110994Y16420D03*
G54D87*
X110868Y18440D03*
G54D67*
X93400Y21505D03*
G54D68*
X100833Y24806D03*
G54D96*
X99133Y24670D03*
G54D68*
X107244Y24806D03*
X113556D03*
G54D88*
X105614Y24101D03*
G54D94*
X96321Y22642D03*
G54D67*
X103556Y20865D03*
G54D68*
X96802Y12680D03*
G54D96*
X99133Y21717D03*
G54D68*
X100833Y21854D03*
X107244D03*
X113556D03*
G54D89*
X102884Y21860D03*
G54D84*
X108894Y21821D03*
G54D97*
X108986Y23270D03*
X101379Y19100D03*
G54D79*
X97032Y14946D03*
G54D88*
X105614Y22919D03*
G54D89*
X127511Y21120D03*
G54D94*
X127787Y18606D03*
G54D81*
X128399Y16150D03*
G54D67*
X77331Y16257D03*
G54D68*
X85007Y6660D03*
X79485Y9231D03*
G54D67*
X90905Y22870D03*
G54D68*
X93161Y11430D03*
X90311Y16390D03*
G54D98*
X90144Y11258D03*
G54D68*
X87359Y18089D03*
G54D84*
X91991Y10101D03*
G54D68*
X86638Y20803D03*
X86618Y22733D03*
X85836Y24912D03*
X120113Y14389D03*
G54D75*
X120454Y19394D03*
G54D79*
X120600Y18102D03*
Y17059D03*
Y16016D03*
G54D68*
X100902Y16535D03*
G54D77*
X98781Y13886D03*
G54D68*
X126213Y3940D03*
G54D77*
X128051Y3864D03*
G54D65*
X135259Y2559D03*
G54D99*
X142133Y3980D03*
G54D84*
X138604Y2452D03*
G54D67*
X105824Y15890D03*
G54D89*
X106504Y13470D03*
G54D77*
X104271Y11774D03*
G54D93*
X106581Y12492D03*
X106081D03*
X105581D03*
X105081D03*
G54D67*
X105824Y17390D03*
X104391Y20030D03*
X119874Y4270D03*
G54D81*
X104104Y23536D03*
G54D89*
X106764Y19850D03*
G54D84*
X105631Y20511D03*
G54D88*
X104284Y18171D03*
G54D84*
X121434Y3169D03*
G54D88*
X118194Y3159D03*
G54D67*
X119874Y5770D03*
G54D89*
X120704Y6170D03*
G54D77*
X121414Y6856D03*
G54D67*
X141944Y18619D03*
G54D77*
X139624Y18327D03*
G54D79*
X139583Y17340D03*
Y16360D03*
X139582Y15377D03*
G54D89*
X137354Y23172D03*
G54D75*
X137011Y24100D03*
G54D67*
X145171Y16906D03*
X145124Y18230D03*
G54D84*
X138511Y23178D03*
G54D67*
X77331Y13403D03*
G54D68*
X79102Y6660D03*
X79485Y18089D03*
G54D65*
X78059Y2567D03*
G54D67*
X74576Y16257D03*
G54D68*
X83685Y19937D03*
X76966Y19995D03*
G54D99*
X74444Y22970D03*
G54D67*
X77726Y24802D03*
G54D99*
X76533Y25970D03*
G54D65*
X76052Y2567D03*
G54D67*
X74576Y13403D03*
X79012Y23270D03*
G54D68*
X83665Y21867D03*
X79417Y21893D03*
G54D67*
X88875Y22890D03*
X100831Y14039D03*
G54D68*
X93161Y5524D03*
X89367Y19343D03*
X87359Y9231D03*
X100902Y15140D03*
G54D100*
X85581Y11580D03*
G54D74*
X97537Y11139D03*
G54D80*
X99191Y9636D03*
G54D91*
X103131Y7408D03*
G54D74*
X99917Y8604D03*
X99029Y6670D03*
X95767Y8020D03*
Y8710D03*
G54D75*
X96348Y8716D03*
G54D93*
X96991Y10353D03*
G54D88*
X95664Y9819D03*
G54D74*
X97057Y6670D03*
X97536D03*
G54D67*
X87528Y26590D03*
X89558Y26570D03*
G54D68*
X82347Y25528D03*
G54D99*
X80194Y26010D03*
X81102Y25020D03*
G54D67*
X145124Y19411D03*
X144833Y20398D03*
G54D99*
X142944Y21560D03*
G54D88*
X143514Y18369D03*
G54D67*
X141944Y19800D03*
X140103Y25938D03*
G54D99*
X141313Y23660D03*
G54D88*
X143514Y19551D03*
G54D67*
X144833Y24335D03*
X144040Y25938D03*
G54D99*
X144911Y25551D03*
G54D96*
X140174Y10674D03*
G54D69*
X137751Y10039D03*
Y12323D03*
G54D96*
X142139Y6870D03*
G54D89*
X137774Y11170D03*
G54D67*
X142469Y10990D03*
X142317Y14150D03*
G54D96*
X139496Y7160D03*
X144108Y6870D03*
G54D81*
X143121Y12680D03*
G54D65*
X136047Y2559D03*
G54D99*
X144524Y4000D03*
G54D84*
X139914Y2452D03*
G54D65*
X133212Y2559D03*
G54D87*
X137422Y4560D03*
G54D65*
X132425Y2559D03*
G54D75*
X139341Y23830D03*
G54D65*
X130850Y2559D03*
G54D74*
X130137Y4636D03*
X130604D03*
G54D65*
X130063Y2559D03*
G54D74*
X132684Y3551D03*
G54D75*
X133754Y4025D03*
G54D65*
X101642Y913D03*
X94044Y2567D03*
G54D74*
X102406Y4190D03*
G54D91*
X101044Y4928D03*
G54D65*
X96052Y2567D03*
G54D74*
X104046Y4190D03*
G54D65*
X101642Y2567D03*
G54D91*
X102631Y4932D03*
X101544Y4928D03*
G54D65*
X105619Y2567D03*
G54D74*
X122638Y1820D03*
G54D65*
X107626Y2567D03*
G54D74*
X123149Y1040D03*
G54D85*
X123746Y1420D03*
G54D74*
X102917Y4190D03*
G54D65*
X109634Y2567D03*
G54D89*
X105051Y6401D03*
G54D86*
X104041Y8986D03*
G54D84*
X102924Y9049D03*
G54D78*
X105004Y8730D03*
G54D101*
X104993Y7580D03*
G54D87*
X106691Y6754D03*
X126031Y9390D03*
G54D65*
X111642Y2567D03*
G54D67*
X94303Y20215D03*
X102824Y17390D03*
X100831Y10102D03*
X122874Y4270D03*
X127485Y25873D03*
G54D68*
X93161Y12700D03*
X96802Y18585D03*
G54D98*
X90144Y7242D03*
G54D69*
X107720Y9060D03*
G54D75*
X123294Y13204D03*
G54D92*
X124588Y12604D03*
G54D79*
X124323Y11139D03*
G54D82*
X126893Y9256D03*
G54D75*
X112754Y8660D03*
G54D88*
X115004Y6151D03*
G54D81*
X111724Y9150D03*
G54D86*
X115011Y12850D03*
G54D74*
X112629Y12280D03*
X115088Y11120D03*
G54D75*
X112114Y12894D03*
X113194Y11566D03*
X116184Y9814D03*
X115597Y10544D03*
G54D78*
X116003Y12120D03*
G54D88*
X116984Y12569D03*
G54D86*
X116551Y22040D03*
X94281Y25320D03*
G54D75*
X93487Y25330D03*
G54D76*
X94216Y25990D03*
G54D79*
X109726Y20470D03*
Y19455D03*
Y18440D03*
Y17425D03*
X109853Y16420D03*
G54D88*
X115471Y23069D03*
G54D95*
X95416Y25555D03*
G54D87*
X109726Y20470D03*
G54D75*
X109474Y10746D03*
X109484Y11674D03*
G54D83*
X110291Y11180D03*
G54D79*
X119458Y18102D03*
Y17059D03*
Y16016D03*
G54D89*
X102704Y18570D03*
G54D81*
X102923Y23536D03*
G54D90*
X120484Y25860D03*
G54D75*
X124094Y26406D03*
X123431D03*
X127774Y24526D03*
X124764Y26406D03*
X125796Y25401D03*
X126434Y24526D03*
X127104D03*
G54D85*
X128406Y23900D03*
G54D76*
X115929Y25970D03*
G54D90*
X122584Y26360D03*
G54D75*
X123594Y24153D03*
X123404Y22155D03*
X125114Y22499D03*
X123594Y23143D03*
X124414Y23017D03*
X118964Y24694D03*
X119624Y25206D03*
G54D74*
X105378Y9510D03*
G54D93*
X105081Y10366D03*
X105581D03*
G54D101*
X106214Y7580D03*
G54D81*
X100441Y12100D03*
G54D98*
X90144Y9250D03*
G54D74*
X96536Y5870D03*
G54D100*
X88081Y11580D03*
G54D102*
X102824Y14390D03*
G54D77*
X102794Y12686D03*
G54D102*
X122874Y7270D03*
G54D77*
X118011Y5464D03*
G54D68*
X120113Y10452D03*
G54D69*
X122298Y14626D03*
G54D96*
X133429Y8162D03*
X137527Y7160D03*
G54D69*
X137751Y14606D03*
Y16890D03*
Y19173D03*
G54D89*
X137184Y18410D03*
G54D78*
X136371Y18590D03*
G54D69*
X117720Y9060D03*
Y10556D03*
G54D89*
X111954Y21450D03*
G54D94*
X115022Y17954D03*
G54D97*
X111821Y23270D03*
G54D81*
X115644Y15690D03*
G54D68*
X93161Y18606D03*
G54D103*
X90144Y13266D03*
G54D69*
X107720Y18036D03*
G54D89*
X107204Y16610D03*
G54D84*
X107644Y13341D03*
X108654Y13331D03*
G54D97*
X98544Y19100D03*
G54D104*
X117720Y18036D03*
G54D80*
X118214Y16554D03*
G54D75*
X112594Y14816D03*
G54D65*
X131637Y2559D03*
G54D66*
X131374Y8100D03*
G54D67*
X144438Y10990D03*
X145171Y14150D03*
G54D96*
X135134Y7178D03*
X140174Y8706D03*
G54D81*
X144302Y12680D03*
G54D67*
X102824Y15890D03*
X105824Y14390D03*
X122874Y5770D03*
X119874Y7270D03*
G54D65*
X134000Y984D03*
X132425D03*
X131637D03*
X130850D03*
X130063D03*
X129275D03*
X128488D03*
X76050Y913D03*
X78059D03*
X94044D03*
X96052D03*
X103650D03*
X105619D03*
X107626D03*
X95048Y2567D03*
Y913D03*
X102646D03*
X104634D03*
X106622D03*
X102646Y2567D03*
X104634D03*
X106622D03*
X111642Y913D03*
X109634D03*
X110638D03*
Y2567D03*
G54D87*
X140814Y1414D03*
X143394Y23790D03*
X81774Y17536D03*
X87954Y3270D03*
G54D90*
X120484Y24360D03*
Y26360D03*
G54D105*
X145171Y15528D03*
G54D106*
X76281Y5380D03*
X76131Y7307D03*
X75921Y9470D03*
X75874Y11530D03*
X80641Y15710D03*
X85471Y13876D03*
X85831Y15608D03*
X85301Y18952D03*
X85131Y21368D03*
X89821Y21780D03*
X92191Y20206D03*
X92711Y23847D03*
X89171Y24907D03*
X78361Y26270D03*
X75521Y24460D03*
X76471Y22530D03*
X77991Y21368D03*
X84441Y8788D03*
X87311Y5300D03*
X88294Y1680D03*
X83904Y1820D03*
X82104Y3270D03*
X80584Y1780D03*
X93281Y4140D03*
X97821Y4610D03*
X98119Y1690D03*
X105191Y5150D03*
X109251Y7450D03*
X111081D03*
X122431Y10083D03*
X124951Y8000D03*
X124614Y4480D03*
X130701Y10510D03*
X132071Y12090D03*
X132259Y14000D03*
X132094Y16125D03*
X132034Y18340D03*
X132091Y20260D03*
X129554Y25990D03*
X141904Y25935D03*
X144854Y22370D03*
X143762Y15530D03*
X110801Y25475D03*
G54D108*
X87954Y3270D03*
X81774Y17536D03*
X143394Y23790D03*
X140814Y1414D03*
G54D65*
X133212Y28228D03*
X60181Y984D03*
Y28228D03*
G54D66*
X130389Y35344D03*
X57358Y8100D03*
Y35344D03*
G54D67*
X142317Y44150D03*
X69285Y16906D03*
Y44150D03*
X131422Y53117D03*
X58391Y25873D03*
Y53117D03*
G54D68*
X126174Y32674D03*
X53142Y5430D03*
Y32674D03*
G54D69*
X137751Y48701D03*
X64720Y21457D03*
Y48701D03*
G54D74*
X133072Y53574D03*
X60040Y26330D03*
Y53574D03*
G54D75*
X137014Y52834D03*
X63982Y25590D03*
Y52834D03*
G54D76*
X136797Y53554D03*
X63766Y26310D03*
Y53554D03*
X135539Y53544D03*
X62508Y26300D03*
Y53544D03*
G54D77*
X139624Y47303D03*
X66592Y20059D03*
Y47303D03*
G54D74*
X135789Y42544D03*
X62758Y15300D03*
Y42544D03*
X135789Y43224D03*
X62758Y15980D03*
Y43224D03*
X135793Y44434D03*
X62762Y17190D03*
Y44434D03*
G54D78*
X135792Y40944D03*
X62761Y13700D03*
Y40944D03*
X136285Y50590D03*
X63253Y23346D03*
Y50590D03*
G54D79*
X140724Y41604D03*
X67693Y14360D03*
Y41604D03*
X140724Y40612D03*
X67692Y13368D03*
Y40612D03*
X140724Y39634D03*
X67693Y12390D03*
Y39634D03*
G54D80*
X134574Y49836D03*
X61542Y22592D03*
Y49836D03*
G54D81*
X136148Y46908D03*
X63117Y19664D03*
Y46908D03*
X136138Y48188D03*
X63107Y20944D03*
Y48188D03*
G54D82*
X128644Y34750D03*
X55612Y7506D03*
Y34750D03*
G54D83*
X133651Y51404D03*
X60619Y24160D03*
Y51404D03*
G54D84*
X138604Y32496D03*
X65572Y5252D03*
Y32496D03*
G54D74*
X133127Y32204D03*
X60096Y4960D03*
Y32204D03*
X132310Y31582D03*
X59278Y4338D03*
Y31582D03*
G54D75*
X132594Y33300D03*
X59562Y6056D03*
Y33300D03*
G54D74*
X129626Y31880D03*
X56594Y4636D03*
Y31880D03*
G54D85*
X126221Y28664D03*
X53190Y1420D03*
Y28664D03*
G54D77*
X118011Y34440D03*
X44980Y7196D03*
Y34440D03*
X98781Y39398D03*
X25750Y12154D03*
Y39398D03*
G54D86*
X131814Y32794D03*
X58782Y5550D03*
Y32794D03*
G54D74*
X131611Y32194D03*
X58579Y4950D03*
Y32194D03*
G54D65*
X134000Y29803D03*
X60968Y2559D03*
Y29803D03*
G54D74*
X129811Y32470D03*
X56779Y5226D03*
Y32470D03*
X131116Y31880D03*
X58084Y4636D03*
Y31880D03*
G54D75*
X133754Y31781D03*
X60722Y4537D03*
Y31781D03*
G54D86*
X116551Y50584D03*
X43520Y23340D03*
Y50584D03*
G54D74*
X117170Y51767D03*
X44138Y24523D03*
Y51767D03*
X116658Y51174D03*
X43626Y23930D03*
Y51174D03*
X113074Y41008D03*
X40042Y13764D03*
Y41008D03*
X113602Y41614D03*
X40570Y14370D03*
Y41614D03*
G54D86*
X115011Y41394D03*
X41980Y14150D03*
Y41394D03*
X115906Y41404D03*
X42875Y14160D03*
Y41404D03*
G54D74*
X117878Y41712D03*
X44846Y14468D03*
Y41712D03*
X117878Y42450D03*
X44846Y15206D03*
Y42450D03*
X117878Y40962D03*
X44846Y13718D03*
Y40962D03*
G54D87*
X127281Y34364D03*
X54250Y7120D03*
Y34364D03*
G54D65*
X129275Y29803D03*
X56244Y2559D03*
Y29803D03*
G54D74*
X127226Y33844D03*
X54194Y6600D03*
Y33844D03*
G54D65*
X103650Y29811D03*
X30619Y2567D03*
Y29811D03*
G54D74*
X122638Y28284D03*
X49606Y1040D03*
Y28284D03*
X100309Y50504D03*
X27278Y23260D03*
Y50504D03*
G54D86*
X115906Y40104D03*
X42875Y12860D03*
Y40104D03*
G54D74*
X114114Y41614D03*
X41082Y14370D03*
Y41614D03*
G54D75*
X114054Y41041D03*
X41022Y13797D03*
Y41041D03*
G54D88*
X116984Y40995D03*
X43952Y13751D03*
Y40995D03*
G54D75*
X134586Y32838D03*
X61555Y5594D03*
Y32838D03*
X135880Y32464D03*
X62848Y5220D03*
Y32464D03*
X133994Y32820D03*
X60962Y5576D03*
Y32820D03*
G54D89*
X120454Y48074D03*
X47422Y20830D03*
Y48074D03*
G54D75*
X120454Y47150D03*
X47422Y19906D03*
Y47150D03*
X124094Y53138D03*
X51062Y25894D03*
Y53138D03*
G54D90*
X122584Y52604D03*
X49552Y25360D03*
Y52604D03*
G54D75*
X125693Y51400D03*
X52662Y24156D03*
Y51400D03*
X125444Y53128D03*
X52412Y25884D03*
Y53128D03*
X127774Y50258D03*
X54742Y23014D03*
Y50258D03*
G54D85*
X128406Y50644D03*
X55374Y23400D03*
Y50644D03*
G54D75*
X119684Y53078D03*
X46652Y25834D03*
Y53078D03*
X118324Y53590D03*
X45292Y26346D03*
Y53590D03*
X118964Y52450D03*
X45932Y25206D03*
Y52450D03*
X137681Y51344D03*
X64650Y24100D03*
Y51344D03*
X132350Y50064D03*
X59318Y22820D03*
Y50064D03*
X131504Y51246D03*
X58472Y24002D03*
Y51246D03*
X132354Y51008D03*
X59322Y23764D03*
Y51008D03*
G54D85*
X130881Y51144D03*
X57850Y23900D03*
Y51144D03*
G54D75*
X137681Y52324D03*
X64650Y25080D03*
Y52324D03*
X137681Y51856D03*
X64650Y24612D03*
Y51856D03*
X132894Y52258D03*
X59862Y25014D03*
Y52258D03*
X132354Y51520D03*
X59322Y24276D03*
Y51520D03*
X127774Y50770D03*
X54742Y23526D03*
Y50770D03*
X127774Y51258D03*
X54742Y24014D03*
Y51258D03*
G54D74*
X115599Y38364D03*
X42568Y11120D03*
Y38364D03*
G54D75*
X116174Y38028D03*
X43142Y10784D03*
Y38028D03*
X116184Y37570D03*
X43152Y10326D03*
Y37570D03*
X115597Y37040D03*
X42565Y9796D03*
Y37040D03*
X134586Y32090D03*
X61555Y4846D03*
Y32090D03*
X136667D03*
X63636Y4846D03*
Y32090D03*
X137264Y32308D03*
X64232Y5064D03*
Y32308D03*
X127094Y50780D03*
X54062Y23536D03*
Y50780D03*
X125796Y51898D03*
X52764Y24653D03*
Y51898D03*
X126434Y51258D03*
X53402Y24014D03*
Y51258D03*
X127104D03*
X54072Y24014D03*
Y51258D03*
G54D74*
X132616Y32204D03*
X59584Y4960D03*
Y32204D03*
X132122Y32194D03*
X59091Y4950D03*
Y32194D03*
X133058Y31582D03*
X60026Y4338D03*
Y31582D03*
G54D75*
X132594Y32788D03*
X59562Y5544D03*
Y32788D03*
G54D84*
X138604Y30838D03*
X65572Y3594D03*
Y30838D03*
X138604Y31354D03*
X65572Y4110D03*
Y31354D03*
G54D77*
X102794Y38198D03*
X29762Y10954D03*
Y38198D03*
G54D84*
X102924Y37435D03*
X29892Y10191D03*
Y37435D03*
X138501Y52084D03*
X65470Y24840D03*
Y52084D03*
X138511Y51564D03*
X65480Y24320D03*
Y51564D03*
X107624Y38905D03*
X34592Y11661D03*
Y38905D03*
X107644Y39443D03*
X34612Y12199D03*
Y39443D03*
X108644Y38925D03*
X35612Y11681D03*
Y38925D03*
X108654Y39433D03*
X35622Y12189D03*
Y39433D03*
X139914Y31354D03*
X66882Y4110D03*
Y31354D03*
X139914Y30838D03*
X66882Y3594D03*
Y30838D03*
G54D87*
X133872Y40914D03*
X60840Y13670D03*
Y40914D03*
G54D65*
X128488Y29803D03*
X55456Y2559D03*
Y29803D03*
G54D74*
X134280Y42534D03*
X61249Y15290D03*
Y42534D03*
X134275Y43211D03*
X61243Y15967D03*
Y43211D03*
G54D78*
X134493Y40944D03*
X61462Y13700D03*
Y40944D03*
G54D74*
X135978Y49898D03*
X62946Y22654D03*
Y49898D03*
G54D75*
X136574Y49590D03*
X63542Y22346D03*
Y49590D03*
G54D78*
X134985Y50590D03*
X61954Y23346D03*
Y50590D03*
G54D74*
X112700Y40220D03*
X39668Y12976D03*
Y40220D03*
G54D75*
X114054Y40529D03*
X41022Y13285D03*
Y40529D03*
G54D78*
X114704Y39364D03*
X41672Y12120D03*
Y39364D03*
X114994Y36144D03*
X41963Y8900D03*
Y36144D03*
G54D86*
X113954Y39624D03*
X40922Y12380D03*
Y39624D03*
G54D74*
X113448Y40220D03*
X40416Y12976D03*
Y40220D03*
G54D75*
X131494Y49738D03*
X58462Y22494D03*
Y49738D03*
G54D85*
X130881Y50644D03*
X57850Y23400D03*
Y50644D03*
G54D74*
X123149Y29064D03*
X50118Y1820D03*
Y29064D03*
G54D85*
X123746Y29164D03*
X50714Y1920D03*
Y29164D03*
X126221D03*
X53190Y1920D03*
Y29164D03*
G54D84*
X139914Y32496D03*
X66882Y5252D03*
Y32496D03*
G54D75*
X136667Y32838D03*
X63636Y5594D03*
Y32838D03*
X137264Y32820D03*
X64232Y5576D03*
Y32820D03*
G54D74*
X104557Y31434D03*
X31526Y4190D03*
Y31434D03*
G54D91*
X103131Y32176D03*
X30100Y4932D03*
Y32176D03*
G54D75*
X101961Y35208D03*
X28930Y7964D03*
Y35208D03*
G54D91*
X102631Y34652D03*
X29600Y7408D03*
Y34652D03*
G54D74*
X100666Y35848D03*
X27634Y8604D03*
Y35848D03*
G54D75*
X99281Y36116D03*
X26250Y8872D03*
Y36116D03*
X101301Y35208D03*
X28270Y7964D03*
Y35208D03*
G54D91*
X101544Y34648D03*
X28512Y7404D03*
Y34648D03*
G54D74*
X100291Y35060D03*
X27260Y7816D03*
Y35060D03*
G54D91*
X101044Y34648D03*
X28012Y7404D03*
Y34648D03*
G54D75*
X139341Y51586D03*
X66310Y24342D03*
Y51586D03*
G54D84*
X138501Y53226D03*
X65470Y25982D03*
Y53226D03*
G54D76*
X137526Y53554D03*
X64494Y26310D03*
Y53554D03*
G54D75*
X132894Y52770D03*
X59862Y25526D03*
Y52770D03*
G54D83*
X133651Y52404D03*
X60619Y25160D03*
Y52404D03*
G54D75*
X114114Y37258D03*
X41082Y10014D03*
Y37258D03*
G54D76*
X114098Y36594D03*
X41066Y9350D03*
Y36594D03*
G54D74*
X129437Y33258D03*
X56405Y6014D03*
Y33258D03*
G54D76*
X129746Y33944D03*
X56714Y6700D03*
Y33944D03*
G54D74*
X134792Y42534D03*
X61761Y15290D03*
Y42534D03*
X135278Y42544D03*
X62246Y15300D03*
Y42544D03*
X135278Y43224D03*
X62246Y15980D03*
Y43224D03*
G54D76*
X134809Y41804D03*
X61778Y14560D03*
Y41804D03*
X135538D03*
X62506Y14560D03*
Y41804D03*
G54D89*
X136454Y51789D03*
X63422Y24545D03*
Y51789D03*
G54D75*
X137011Y51856D03*
X63980Y24612D03*
Y51856D03*
X137681Y52836D03*
X64650Y25592D03*
Y52836D03*
X137014Y52322D03*
X63982Y25078D03*
Y52322D03*
G54D83*
X135777Y51904D03*
X62745Y24660D03*
Y51904D03*
G54D79*
X140724Y44584D03*
X67693Y17340D03*
Y44584D03*
X140724Y43604D03*
X67693Y16360D03*
Y43604D03*
X140724Y42622D03*
X67692Y15377D03*
Y42622D03*
X139583Y41604D03*
X66551Y14360D03*
Y41604D03*
X139582Y40612D03*
X66550Y13368D03*
Y40612D03*
X139583Y39634D03*
X66551Y12390D03*
Y39634D03*
G54D84*
X108894Y47923D03*
X35862Y20679D03*
Y47923D03*
G54D79*
X109134Y47074D03*
X36103Y19830D03*
Y47074D03*
X110363Y40384D03*
X37331Y13140D03*
Y40384D03*
X107993Y47074D03*
X34961Y19830D03*
Y47074D03*
X95891Y42190D03*
X22859Y14946D03*
Y42190D03*
X95131Y43174D03*
X22099Y15930D03*
Y43174D03*
X96272D03*
X23241Y15930D03*
Y43174D03*
X96081Y44184D03*
X23049Y16940D03*
Y44184D03*
X93211Y34474D03*
X20179Y7230D03*
Y34474D03*
X93142Y35454D03*
X20111Y8210D03*
Y35454D03*
G54D84*
X91991Y36203D03*
X18960Y8959D03*
Y36203D03*
G54D79*
X92001Y35454D03*
X18969Y8210D03*
Y35454D03*
G54D89*
X122994Y47514D03*
X49962Y20270D03*
Y47514D03*
G54D86*
X123584Y46984D03*
X50552Y19740D03*
Y46984D03*
G54D75*
X123804Y46280D03*
X50772Y19036D03*
Y46280D03*
G54D92*
X124874Y46755D03*
X51842Y19511D03*
Y46755D03*
G54D80*
X124431Y47683D03*
X51400Y20439D03*
Y47683D03*
G54D89*
X122535Y48304D03*
X49503Y21060D03*
Y48304D03*
G54D86*
X123584Y48284D03*
X50552Y21040D03*
Y48284D03*
G54D80*
X124431Y48411D03*
X51400Y21167D03*
Y48411D03*
G54D90*
X120484Y50604D03*
X47452Y23360D03*
Y50604D03*
G54D86*
X123234Y43104D03*
X50202Y15860D03*
Y43104D03*
G54D75*
X123294Y40960D03*
X50262Y13716D03*
Y40960D03*
G54D92*
X124588Y41660D03*
X51557Y14416D03*
Y41660D03*
G54D80*
X122294Y43434D03*
X49262Y16190D03*
Y43434D03*
X108924Y42918D03*
X35892Y15674D03*
Y42918D03*
G54D74*
X111854Y47104D03*
X38822Y19860D03*
Y47104D03*
G54D92*
X112108Y46104D03*
X39077Y18860D03*
Y46104D03*
G54D86*
X108064Y42914D03*
X35032Y15670D03*
Y42914D03*
G54D75*
X108834Y41686D03*
X35802Y14442D03*
Y41686D03*
G54D80*
X108924Y42190D03*
X35892Y14946D03*
Y42190D03*
G54D74*
X118389Y41712D03*
X45358Y14468D03*
Y41712D03*
X118389Y42450D03*
X45358Y15206D03*
Y42450D03*
X118389Y40962D03*
X45358Y13718D03*
Y40962D03*
G54D80*
X118214Y43070D03*
X45182Y15826D03*
Y43070D03*
G54D74*
X129063Y32470D03*
X56031Y5226D03*
Y32470D03*
G54D80*
X130431Y33217D03*
X57400Y5973D03*
Y33217D03*
G54D86*
X131814Y34093D03*
X58782Y6849D03*
Y34093D03*
G54D77*
X128051Y32840D03*
X55020Y5596D03*
Y32840D03*
G54D75*
X135374Y32464D03*
X62342Y5220D03*
Y32464D03*
X133994Y32308D03*
X60962Y5064D03*
Y32308D03*
G54D76*
X129017Y33944D03*
X55986Y6700D03*
Y33944D03*
G54D80*
X130431Y33945D03*
X57400Y6701D03*
Y33945D03*
G54D93*
X106581Y37610D03*
X33550Y10366D03*
Y37610D03*
G54D86*
X104041Y37530D03*
X31010Y10285D03*
Y37530D03*
G54D81*
X101622Y39344D03*
X28591Y12100D03*
Y39344D03*
G54D74*
X105889Y36754D03*
X32858Y9510D03*
Y36754D03*
G54D78*
X106303Y35974D03*
X33272Y8730D03*
Y35974D03*
G54D93*
X106081Y37610D03*
X33050Y10366D03*
Y37610D03*
G54D75*
X96348Y35448D03*
X23316Y8204D03*
Y35448D03*
G54D93*
X96991Y35471D03*
X23960Y8227D03*
Y35471D03*
G54D75*
X101301Y35720D03*
X28270Y8476D03*
Y35720D03*
X101961D03*
X28930Y8476D03*
Y35720D03*
G54D80*
X99191Y37608D03*
X26160Y10364D03*
Y37608D03*
G54D93*
X98491Y37597D03*
X25460Y10353D03*
Y37597D03*
G54D75*
X99281Y35604D03*
X26250Y8360D03*
Y35604D03*
G54D93*
X97991Y37597D03*
X24960Y10353D03*
Y37597D03*
G54D74*
X97047Y33114D03*
X24016Y5870D03*
Y33114D03*
X98487Y34604D03*
X25456Y7360D03*
Y34604D03*
X98517Y33914D03*
X25486Y6670D03*
Y33914D03*
G54D93*
X98491Y35471D03*
X25460Y8227D03*
Y35471D03*
G54D74*
X96546Y33914D03*
X23514Y6670D03*
Y33914D03*
X97976Y34604D03*
X24944Y7360D03*
Y34604D03*
X98047Y33914D03*
X25016Y6670D03*
Y33914D03*
G54D93*
X97991Y35471D03*
X24960Y8227D03*
Y35471D03*
G54D74*
X95256Y35264D03*
X22224Y8020D03*
Y35264D03*
X95256Y35954D03*
X22224Y8710D03*
Y35954D03*
G54D79*
X94352Y34474D03*
X21321Y7230D03*
Y34474D03*
G54D93*
X97491Y35471D03*
X24460Y8227D03*
Y35471D03*
G54D90*
X122584Y50104D03*
X49552Y22860D03*
Y50104D03*
G54D75*
X124356Y51223D03*
X51324Y23979D03*
Y51223D03*
X125114Y50255D03*
X52082Y23011D03*
Y50255D03*
X123404Y49911D03*
X50372Y22667D03*
Y49911D03*
X124414Y49750D03*
X51382Y22506D03*
Y49750D03*
G54D90*
X122584Y50604D03*
X49552Y23360D03*
Y50604D03*
G54D75*
X123594Y50899D03*
X50562Y23655D03*
Y50899D03*
G54D90*
X122584Y51104D03*
X49552Y23860D03*
Y51104D03*
G54D75*
X123594Y51909D03*
X50562Y24665D03*
Y51909D03*
X124356Y51735D03*
X51324Y24491D03*
Y51735D03*
X125693Y50888D03*
X52662Y23644D03*
Y50888D03*
G54D90*
X122584Y51604D03*
X49552Y24360D03*
Y51604D03*
G54D75*
X125444Y53640D03*
X52412Y26396D03*
Y53640D03*
X124764Y53138D03*
X51732Y25894D03*
Y53138D03*
G54D90*
X122584Y52104D03*
X49552Y24860D03*
Y52104D03*
G54D75*
X119684Y53590D03*
X46652Y26346D03*
Y53590D03*
X123431Y53138D03*
X50400Y25894D03*
Y53138D03*
G54D90*
X122584Y53104D03*
X49552Y25860D03*
Y53104D03*
G54D75*
X125008Y52272D03*
X51977Y25027D03*
Y52272D03*
X119664Y50218D03*
X46632Y22974D03*
Y50218D03*
G54D90*
X120484Y50104D03*
X47452Y22860D03*
Y50104D03*
G54D69*
X122298Y46437D03*
X49267Y19193D03*
Y46437D03*
G54D75*
X119664Y50730D03*
X46632Y23486D03*
Y50730D03*
G54D90*
X120484Y51104D03*
X47452Y23860D03*
Y51104D03*
G54D89*
X123090Y45794D03*
X50058Y18550D03*
Y45794D03*
G54D75*
X123804Y45768D03*
X50772Y18524D03*
Y45768D03*
G54D92*
X124874Y44944D03*
X51842Y17700D03*
Y44944D03*
G54D94*
X127502Y40754D03*
X54470Y13510D03*
Y40754D03*
G54D79*
X125163Y43514D03*
X52131Y16270D03*
Y43514D03*
G54D81*
X127484Y38254D03*
X54453Y11010D03*
Y38254D03*
G54D74*
X117918Y51767D03*
X44886Y24523D03*
Y51767D03*
X117709Y53174D03*
X44678Y25930D03*
Y53174D03*
G54D75*
X118324Y53078D03*
X45292Y25834D03*
Y53078D03*
X119624Y51938D03*
X46592Y24694D03*
Y51938D03*
G54D76*
X116658Y53214D03*
X43626Y25970D03*
Y53214D03*
G54D90*
X120484Y52104D03*
X47452Y24860D03*
Y52104D03*
G54D89*
X122269Y44844D03*
X49237Y17600D03*
Y44844D03*
G54D86*
X123234Y44404D03*
X50202Y17160D03*
Y44404D03*
G54D80*
X122294Y44162D03*
X49262Y16918D03*
Y44162D03*
G54D90*
X120484Y52604D03*
X47452Y25360D03*
Y52604D03*
G54D89*
X114008Y35984D03*
X40977Y8740D03*
Y35984D03*
G54D75*
X112114Y40650D03*
X39082Y13406D03*
Y40650D03*
X113404Y37248D03*
X40372Y10004D03*
Y37248D03*
X114810Y37414D03*
X41778Y10170D03*
Y37414D03*
G54D76*
X113369Y36594D03*
X40338Y9350D03*
Y36594D03*
G54D79*
X111504Y40384D03*
X38473Y13140D03*
Y40384D03*
G54D83*
X112417Y37424D03*
X39385Y10180D03*
Y37424D03*
G54D89*
X111064Y39724D03*
X38032Y12480D03*
Y39724D03*
G54D75*
X112594Y41548D03*
X39562Y14304D03*
Y41548D03*
X109484Y39430D03*
X36452Y12186D03*
Y39430D03*
G54D83*
X110291Y38924D03*
X37259Y11680D03*
Y38924D03*
X110291Y37924D03*
X37259Y10680D03*
Y37924D03*
G54D89*
X108304Y41101D03*
X35272Y13857D03*
Y41101D03*
G54D86*
X108064Y41614D03*
X35032Y14370D03*
Y41614D03*
G54D75*
X108834Y41174D03*
X35802Y13930D03*
Y41174D03*
G54D74*
X112118Y39524D03*
X39086Y12280D03*
Y39524D03*
G54D83*
X112417Y38924D03*
X39385Y11680D03*
Y38924D03*
G54D89*
X111544Y42014D03*
X38512Y14770D03*
Y42014D03*
G54D75*
X110984Y42398D03*
X37952Y15154D03*
Y42398D03*
X113194Y38298D03*
X40162Y11054D03*
Y38298D03*
G54D83*
X112417Y38424D03*
X39385Y11180D03*
Y38424D03*
G54D75*
X109474Y37478D03*
X36442Y10234D03*
Y37478D03*
G54D84*
X108644Y37783D03*
X35612Y10539D03*
Y37783D03*
G54D75*
X114114Y37770D03*
X41082Y10526D03*
Y37770D03*
X113404Y37760D03*
X40372Y10516D03*
Y37760D03*
G54D83*
X112417Y37924D03*
X39385Y10680D03*
Y37924D03*
X133651Y52904D03*
X60619Y25660D03*
Y52904D03*
G54D75*
X133137Y50438D03*
X60106Y23194D03*
Y50438D03*
G54D74*
X133584Y53574D03*
X60552Y26330D03*
Y53574D03*
G54D76*
X134928Y53590D03*
X61896Y26346D03*
Y53590D03*
G54D83*
X135777Y51404D03*
X62745Y24160D03*
Y51404D03*
X135777Y52404D03*
X62745Y25160D03*
Y52404D03*
G54D75*
X133137Y49690D03*
X60106Y22446D03*
Y49690D03*
G54D76*
X136268Y53544D03*
X63236Y26300D03*
Y53544D03*
G54D83*
X135777Y52904D03*
X62745Y25660D03*
Y52904D03*
G54D89*
X132204Y48994D03*
X59172Y21750D03*
Y48994D03*
X133934Y44534D03*
X60902Y17290D03*
Y44534D03*
G54D74*
X134787Y43211D03*
X61755Y15967D03*
Y43211D03*
X135281Y44434D03*
X62250Y17190D03*
Y44434D03*
X135230Y49898D03*
X62198Y22654D03*
Y49898D03*
G54D75*
X133784Y50028D03*
X60752Y22784D03*
Y50028D03*
X131504Y50734D03*
X58472Y23490D03*
Y50734D03*
X131494Y50250D03*
X58462Y23006D03*
Y50250D03*
G54D80*
X134574Y49108D03*
X61542Y21864D03*
Y49108D03*
G54D75*
X133784Y50540D03*
X60752Y23296D03*
Y50540D03*
G54D76*
X134199Y53590D03*
X61168Y26346D03*
Y53590D03*
G54D83*
X133651Y51904D03*
X60619Y24660D03*
Y51904D03*
G54D89*
X105261Y45994D03*
X32230Y18750D03*
Y45994D03*
G54D77*
X104271Y40750D03*
X31240Y13506D03*
Y40750D03*
G54D84*
X105631Y46613D03*
X32600Y19369D03*
Y46613D03*
G54D88*
X104284Y44234D03*
X31252Y16989D03*
Y44234D03*
G54D89*
X117913Y48494D03*
X44881Y21250D03*
Y48494D03*
G54D74*
X117544Y52554D03*
X44512Y25310D03*
Y52554D03*
X117198Y53174D03*
X44166Y25930D03*
Y53174D03*
X117169Y51174D03*
X44138Y23930D03*
Y51174D03*
G54D88*
X115471Y51495D03*
X42440Y24251D03*
Y51495D03*
G54D89*
X117029Y35244D03*
X43997Y8000D03*
Y35244D03*
G54D86*
X116201Y33513D03*
X43170Y6269D03*
Y33513D03*
G54D78*
X116294Y36144D03*
X43262Y8900D03*
Y36144D03*
G54D89*
X125844Y49759D03*
X52812Y22515D03*
Y49759D03*
G54D75*
X126424Y50780D03*
X53392Y23536D03*
Y50780D03*
G54D89*
X118974Y30944D03*
X45942Y3700D03*
Y30944D03*
G54D77*
X121414Y32368D03*
X48382Y5124D03*
Y32368D03*
G54D84*
X121434Y31555D03*
X48402Y4311D03*
Y31555D03*
G54D88*
X118194Y31585D03*
X45162Y4341D03*
Y31585D03*
G54D89*
X116941Y32474D03*
X43910Y5230D03*
Y32474D03*
G54D86*
X116201Y32214D03*
X43170Y4970D03*
Y32214D03*
G54D88*
X115004D03*
X41972Y4969D03*
Y32214D03*
G54D74*
X97026Y38383D03*
X23994Y11139D03*
Y38383D03*
G54D93*
X97491Y37597D03*
X24460Y10353D03*
Y37597D03*
G54D88*
X95664Y38245D03*
X22632Y11001D03*
Y38245D03*
G54D89*
X135434Y48744D03*
X62402Y21500D03*
Y48744D03*
G54D74*
X135604Y49110D03*
X62572Y21866D03*
Y49110D03*
G54D75*
X136574Y49078D03*
X63542Y21834D03*
Y49078D03*
G54D78*
X135071Y45834D03*
X62040Y18590D03*
Y45834D03*
G54D81*
X134967Y46908D03*
X61936Y19664D03*
Y46908D03*
X134957Y48188D03*
X61926Y20944D03*
Y48188D03*
G54D79*
X125464Y38383D03*
X52433Y11139D03*
Y38383D03*
G54D81*
X126303Y38254D03*
X53271Y11010D03*
Y38254D03*
G54D79*
X126304Y43514D03*
X53273Y16270D03*
Y43514D03*
G54D81*
X127218Y43394D03*
X54187Y16150D03*
Y43394D03*
G54D79*
X113564Y42954D03*
X40533Y15710D03*
Y42954D03*
G54D81*
X114463Y42934D03*
X41431Y15690D03*
Y42934D03*
G54D89*
X109155Y36965D03*
X36124Y9721D03*
Y36965D03*
G54D75*
X112754Y36416D03*
X39722Y9172D03*
Y36416D03*
G54D84*
X107624Y37763D03*
X34592Y10519D03*
Y37763D03*
G54D83*
X110291Y37424D03*
X37259Y10180D03*
Y37424D03*
G54D81*
X110543Y36394D03*
X37511Y9150D03*
Y36394D03*
G54D86*
X113954Y38324D03*
X40922Y11080D03*
Y38324D03*
G54D75*
X127094Y50268D03*
X54062Y23024D03*
Y50268D03*
X116174Y38540D03*
X43142Y11296D03*
Y38540D03*
X126424Y50268D03*
X53392Y23024D03*
Y50268D03*
G54D82*
X126539Y36147D03*
X53508Y8903D03*
Y36147D03*
G54D74*
X127737Y33844D03*
X54706Y6600D03*
Y33844D03*
G54D82*
X128290Y34396D03*
X55258Y7152D03*
Y34396D03*
G54D86*
X94281Y51264D03*
X21250Y24020D03*
Y51264D03*
G54D75*
X93487Y52062D03*
X20456Y24818D03*
Y52062D03*
G54D76*
X93487Y53234D03*
X20456Y25990D03*
Y53234D03*
G54D95*
X97227Y52799D03*
X24196Y25555D03*
Y52799D03*
G54D79*
X97222Y44184D03*
X24191Y16940D03*
Y44184D03*
G54D74*
X99798Y50504D03*
X26766Y23260D03*
Y50504D03*
G54D89*
X110774Y43284D03*
X37742Y16040D03*
Y43284D03*
G54D74*
X111342Y47104D03*
X38310Y19860D03*
Y47104D03*
G54D75*
X110984Y42910D03*
X37952Y15666D03*
Y42910D03*
G54D92*
X112108Y44293D03*
X39077Y17049D03*
Y44293D03*
G54D79*
X110868Y47714D03*
X37836Y20470D03*
Y47714D03*
X112423Y42954D03*
X39391Y15710D03*
Y42954D03*
X110868Y46699D03*
X37836Y19455D03*
Y46699D03*
X110868Y45684D03*
X37836Y18440D03*
Y45684D03*
X110868Y44669D03*
X37836Y17425D03*
Y44669D03*
X110994Y43664D03*
X37963Y16420D03*
Y43664D03*
G54D87*
X110868Y45684D03*
X37836Y18440D03*
Y45684D03*
G54D67*
X93400Y48749D03*
X20369Y21505D03*
Y48749D03*
G54D68*
X100833Y52050D03*
X27802Y24806D03*
Y52050D03*
G54D96*
X99133Y51914D03*
X26102Y24670D03*
Y51914D03*
G54D68*
X107244Y52050D03*
X34212Y24806D03*
Y52050D03*
X113556D03*
X40524Y24806D03*
Y52050D03*
G54D88*
X105614Y51345D03*
X32582Y24101D03*
Y51345D03*
G54D94*
X96321Y49886D03*
X23290Y22642D03*
Y49886D03*
G54D67*
X103556Y48109D03*
X30524Y20865D03*
Y48109D03*
G54D68*
X96802Y39924D03*
X23770Y12680D03*
Y39924D03*
G54D96*
X99133Y48961D03*
X26102Y21717D03*
Y48961D03*
G54D68*
X100833Y49098D03*
X27802Y21854D03*
Y49098D03*
X107244D03*
X34212Y21854D03*
Y49098D03*
X113556D03*
X40524Y21854D03*
Y49098D03*
G54D89*
X102884Y49104D03*
X29852Y21860D03*
Y49104D03*
G54D84*
X108894Y49065D03*
X35862Y21821D03*
Y49065D03*
G54D97*
X108986Y50514D03*
X35955Y23270D03*
Y50514D03*
X101379Y46344D03*
X28347Y19100D03*
Y46344D03*
G54D79*
X97032Y42190D03*
X24001Y14946D03*
Y42190D03*
G54D88*
X105614Y50164D03*
X32582Y22919D03*
Y50164D03*
G54D89*
X127511Y48364D03*
X54479Y21120D03*
Y48364D03*
G54D94*
X127787Y45850D03*
X54755Y18606D03*
Y45850D03*
G54D81*
X128399Y43394D03*
X55368Y16150D03*
Y43394D03*
G54D67*
X77331Y43501D03*
X4300Y16257D03*
Y43501D03*
G54D68*
X85007Y33904D03*
X11976Y6660D03*
Y33904D03*
X79485Y36475D03*
X6453Y9231D03*
Y36475D03*
G54D67*
X90905Y50114D03*
X17873Y22870D03*
Y50114D03*
G54D68*
X93161Y38674D03*
X20130Y11430D03*
Y38674D03*
X90311Y43634D03*
X17280Y16390D03*
Y43634D03*
G54D98*
X90144Y38502D03*
X17112Y11258D03*
Y38502D03*
G54D68*
X87359Y45333D03*
X14327Y18089D03*
Y45333D03*
G54D84*
X91991Y37345D03*
X18960Y10101D03*
Y37345D03*
G54D68*
X86638Y48047D03*
X13606Y20803D03*
Y48047D03*
X86618Y49977D03*
X13586Y22733D03*
Y49977D03*
X85836Y52156D03*
X12805Y24912D03*
Y52156D03*
X120113Y41633D03*
X47082Y14389D03*
Y41633D03*
G54D75*
X120454Y46638D03*
X47422Y19394D03*
Y46638D03*
G54D79*
X120600Y45346D03*
X47568Y18102D03*
Y45346D03*
X120600Y44303D03*
X47568Y17059D03*
Y44303D03*
X120600Y43260D03*
X47568Y16016D03*
Y43260D03*
G54D68*
X100902Y43780D03*
X27870Y16535D03*
Y43780D03*
G54D77*
X98781Y41130D03*
X25750Y13886D03*
Y41130D03*
G54D68*
X126213Y31184D03*
X53182Y3940D03*
Y31184D03*
G54D77*
X128051Y31108D03*
X55020Y3864D03*
Y31108D03*
G54D65*
X135259Y29803D03*
X62228Y2559D03*
Y29803D03*
G54D99*
X142133Y31224D03*
X69102Y3980D03*
Y31224D03*
G54D84*
X138604Y29696D03*
X65572Y2452D03*
Y29696D03*
G54D67*
X105824Y43134D03*
X32792Y15890D03*
Y43134D03*
G54D89*
X106504Y40714D03*
X33472Y13470D03*
Y40714D03*
G54D77*
X104271Y39018D03*
X31240Y11774D03*
Y39018D03*
G54D93*
X106581Y39736D03*
X33550Y12492D03*
Y39736D03*
X106081D03*
X33050Y12492D03*
Y39736D03*
X105581D03*
X32550Y12492D03*
Y39736D03*
X105081D03*
X32050Y12492D03*
Y39736D03*
G54D67*
X105824Y44634D03*
X32792Y17390D03*
Y44634D03*
X104391Y47274D03*
X31360Y20030D03*
Y47274D03*
X119874Y31514D03*
X46842Y4270D03*
Y31514D03*
G54D81*
X104104Y50780D03*
X31073Y23536D03*
Y50780D03*
G54D89*
X106764Y47094D03*
X33732Y19850D03*
Y47094D03*
G54D84*
X105631Y47755D03*
X32600Y20511D03*
Y47755D03*
G54D88*
X104284Y45415D03*
X31252Y18171D03*
Y45415D03*
G54D84*
X121434Y30413D03*
X48402Y3169D03*
Y30413D03*
G54D88*
X118194Y30404D03*
X45162Y3159D03*
Y30404D03*
G54D67*
X119874Y33014D03*
X46842Y5770D03*
Y33014D03*
G54D89*
X120704Y33414D03*
X47672Y6170D03*
Y33414D03*
G54D77*
X121414Y34100D03*
X48382Y6856D03*
Y34100D03*
G54D67*
X141944Y45863D03*
X68912Y18619D03*
Y45863D03*
G54D77*
X139624Y45571D03*
X66592Y18327D03*
Y45571D03*
G54D79*
X139583Y44584D03*
X66551Y17340D03*
Y44584D03*
X139583Y43604D03*
X66551Y16360D03*
Y43604D03*
X139582Y42622D03*
X66550Y15377D03*
Y42622D03*
G54D89*
X137354Y50416D03*
X64322Y23172D03*
Y50416D03*
G54D75*
X137011Y51344D03*
X63980Y24100D03*
Y51344D03*
G54D67*
X145171Y44150D03*
X72139Y16906D03*
Y44150D03*
X145124Y45474D03*
X72092Y18230D03*
Y45474D03*
G54D84*
X138511Y50422D03*
X65480Y23178D03*
Y50422D03*
G54D67*
X77331Y40647D03*
X4300Y13403D03*
Y40647D03*
G54D68*
X79102Y33904D03*
X6070Y6660D03*
Y33904D03*
X79485Y45333D03*
X6453Y18089D03*
Y45333D03*
G54D65*
X78059Y29811D03*
X5028Y2567D03*
Y29811D03*
G54D67*
X74576Y43501D03*
X1544Y16257D03*
Y43501D03*
G54D68*
X83685Y47181D03*
X10654Y19937D03*
Y47181D03*
X76966Y47239D03*
X3934Y19995D03*
Y47239D03*
G54D99*
X74444Y50214D03*
X1412Y22970D03*
Y50214D03*
G54D67*
X77726Y52046D03*
X4695Y24802D03*
Y52046D03*
G54D99*
X76533Y53214D03*
X3502Y25970D03*
Y53214D03*
G54D65*
X76052Y29811D03*
X3020Y2567D03*
Y29811D03*
G54D67*
X74576Y40647D03*
X1544Y13403D03*
Y40647D03*
X79012Y50515D03*
X5980Y23270D03*
Y50515D03*
G54D68*
X83665Y49111D03*
X10633Y21867D03*
Y49111D03*
X79417Y49137D03*
X6386Y21893D03*
Y49137D03*
G54D67*
X88875Y50134D03*
X15843Y22890D03*
Y50134D03*
X100831Y41283D03*
X27800Y14039D03*
Y41283D03*
G54D68*
X93161Y32769D03*
X20130Y5524D03*
Y32769D03*
X89367Y46587D03*
X16335Y19343D03*
Y46587D03*
X87359Y36475D03*
X14327Y9231D03*
Y36475D03*
X100902Y42384D03*
X27870Y15140D03*
Y42384D03*
G54D100*
X85581Y38824D03*
X12550Y11580D03*
Y38824D03*
G54D74*
X97537Y38383D03*
X24506Y11139D03*
Y38383D03*
G54D80*
X99191Y36880D03*
X26160Y9636D03*
Y36880D03*
G54D91*
X103131Y34652D03*
X30100Y7408D03*
Y34652D03*
G54D74*
X99917Y35848D03*
X26886Y8604D03*
Y35848D03*
X99029Y33914D03*
X25998Y6670D03*
Y33914D03*
X95767Y35264D03*
X22736Y8020D03*
Y35264D03*
X95767Y35954D03*
X22736Y8710D03*
Y35954D03*
G54D75*
X96348Y35960D03*
X23316Y8716D03*
Y35960D03*
G54D93*
X96991Y37597D03*
X23960Y10353D03*
Y37597D03*
G54D88*
X95664Y37064D03*
X22632Y9819D03*
Y37064D03*
G54D74*
X97057Y33914D03*
X24026Y6670D03*
Y33914D03*
X97536D03*
X24504Y6670D03*
Y33914D03*
G54D67*
X87528Y53834D03*
X14497Y26590D03*
Y53834D03*
X89558Y53814D03*
X16527Y26570D03*
Y53814D03*
G54D68*
X82347Y52772D03*
X9315Y25528D03*
Y52772D03*
G54D99*
X80194Y53254D03*
X7162Y26010D03*
Y53254D03*
X81102Y52264D03*
X8070Y25020D03*
Y52264D03*
G54D67*
X145124Y46655D03*
X72092Y19411D03*
Y46655D03*
X144833Y47642D03*
X71802Y20398D03*
Y47642D03*
G54D99*
X142944Y48804D03*
X69912Y21560D03*
Y48804D03*
G54D88*
X143514Y45614D03*
X70482Y18369D03*
Y45614D03*
G54D67*
X141944Y47044D03*
X68912Y19800D03*
Y47044D03*
X140103Y53182D03*
X67072Y25938D03*
Y53182D03*
G54D99*
X141313Y50904D03*
X68282Y23660D03*
Y50904D03*
G54D88*
X143514Y46795D03*
X70482Y19551D03*
Y46795D03*
G54D67*
X144833Y51579D03*
X71802Y24335D03*
Y51579D03*
X144040Y53182D03*
X71009Y25938D03*
Y53182D03*
G54D99*
X144911Y52795D03*
X71880Y25551D03*
Y52795D03*
G54D96*
X140174Y37919D03*
X67142Y10674D03*
Y37919D03*
G54D69*
X137751Y37283D03*
X64720Y10039D03*
Y37283D03*
X137751Y39567D03*
X64720Y12323D03*
Y39567D03*
G54D96*
X142139Y34114D03*
X69108Y6870D03*
Y34114D03*
G54D89*
X137774Y38414D03*
X64742Y11170D03*
Y38414D03*
G54D67*
X142469Y38234D03*
X69438Y10990D03*
Y38234D03*
X142317Y41394D03*
X69285Y14150D03*
Y41394D03*
G54D96*
X139496Y34404D03*
X66464Y7160D03*
Y34404D03*
X144108Y34114D03*
X71076Y6870D03*
Y34114D03*
G54D81*
X143121Y39924D03*
X70089Y12680D03*
Y39924D03*
G54D65*
X136047Y29803D03*
X63015Y2559D03*
Y29803D03*
G54D99*
X144524Y31244D03*
X71492Y4000D03*
Y31244D03*
G54D84*
X139914Y29696D03*
X66882Y2452D03*
Y29696D03*
G54D65*
X133212Y29803D03*
X60181Y2559D03*
Y29803D03*
G54D87*
X137422Y31804D03*
X64390Y4560D03*
Y31804D03*
G54D65*
X132425Y29803D03*
X59393Y2559D03*
Y29803D03*
G54D75*
X139341Y51074D03*
X66310Y23830D03*
Y51074D03*
G54D65*
X130850Y29803D03*
X57819Y2559D03*
Y29803D03*
G54D74*
X130137Y31880D03*
X57106Y4636D03*
Y31880D03*
X130604D03*
X57573Y4636D03*
Y31880D03*
G54D65*
X130063Y29803D03*
X57031Y2559D03*
Y29803D03*
G54D74*
X132684Y30795D03*
X59652Y3551D03*
Y30795D03*
G54D75*
X133754Y31269D03*
X60722Y4025D03*
Y31269D03*
G54D65*
X101642Y28157D03*
X28611Y913D03*
Y28157D03*
X94044Y29811D03*
X21012Y2567D03*
Y29811D03*
G54D74*
X102406Y31434D03*
X29374Y4190D03*
Y31434D03*
G54D91*
X101044Y32172D03*
X28012Y4928D03*
Y32172D03*
G54D65*
X96052Y29811D03*
X23020Y2567D03*
Y29811D03*
G54D74*
X104046Y31434D03*
X31014Y4190D03*
Y31434D03*
G54D65*
X101642Y29811D03*
X28611Y2567D03*
Y29811D03*
G54D91*
X102631Y32176D03*
X29600Y4932D03*
Y32176D03*
X101544Y32172D03*
X28512Y4928D03*
Y32172D03*
G54D65*
X105619Y29811D03*
X32587Y2567D03*
Y29811D03*
G54D74*
X122638Y29064D03*
X49606Y1820D03*
Y29064D03*
G54D65*
X107626Y29811D03*
X34595Y2567D03*
Y29811D03*
G54D74*
X123149Y28284D03*
X50118Y1040D03*
Y28284D03*
G54D85*
X123746Y28664D03*
X50714Y1420D03*
Y28664D03*
G54D74*
X102917Y31434D03*
X29886Y4190D03*
Y31434D03*
G54D65*
X109634Y29811D03*
X36603Y2567D03*
Y29811D03*
G54D89*
X105051Y33645D03*
X32020Y6401D03*
Y33645D03*
G54D86*
X104041Y36230D03*
X31010Y8986D03*
Y36230D03*
G54D84*
X102924Y36293D03*
X29892Y9049D03*
Y36293D03*
G54D78*
X105004Y35974D03*
X31972Y8730D03*
Y35974D03*
G54D101*
X104993Y34824D03*
X31962Y7580D03*
Y34824D03*
G54D87*
X106691Y33998D03*
X33660Y6754D03*
Y33998D03*
X126031Y36634D03*
X53000Y9390D03*
Y36634D03*
G54D65*
X111642Y29811D03*
X38611Y2567D03*
Y29811D03*
G54D67*
X94303Y47459D03*
X21272Y20215D03*
Y47459D03*
X102824Y44634D03*
X29792Y17390D03*
Y44634D03*
X100831Y37346D03*
X27800Y10102D03*
Y37346D03*
X122874Y31514D03*
X49842Y4270D03*
Y31514D03*
X127485Y53117D03*
X54454Y25873D03*
Y53117D03*
G54D68*
X93161Y39944D03*
X20130Y12700D03*
Y39944D03*
X96802Y45830D03*
X23770Y18585D03*
Y45830D03*
G54D98*
X90144Y34486D03*
X17112Y7242D03*
Y34486D03*
G54D69*
X107720Y36304D03*
X34689Y9060D03*
Y36304D03*
G54D75*
X123294Y40448D03*
X50262Y13204D03*
Y40448D03*
G54D92*
X124588Y39849D03*
X51557Y12604D03*
Y39849D03*
G54D79*
X124323Y38383D03*
X51291Y11139D03*
Y38383D03*
G54D82*
X126893Y36500D03*
X53862Y9256D03*
Y36500D03*
G54D75*
X112754Y35904D03*
X39722Y8660D03*
Y35904D03*
G54D88*
X115004Y33395D03*
X41972Y6151D03*
Y33395D03*
G54D81*
X111724Y36394D03*
X38693Y9150D03*
Y36394D03*
G54D86*
X115011Y40094D03*
X41980Y12850D03*
Y40094D03*
G54D74*
X112629Y39524D03*
X39598Y12280D03*
Y39524D03*
X115088Y38364D03*
X42056Y11120D03*
Y38364D03*
G54D75*
X112114Y40138D03*
X39082Y12894D03*
Y40138D03*
X113194Y38810D03*
X40162Y11566D03*
Y38810D03*
X116184Y37058D03*
X43152Y9814D03*
Y37058D03*
X115597Y37788D03*
X42565Y10544D03*
Y37788D03*
G54D78*
X116003Y39364D03*
X42972Y12120D03*
Y39364D03*
G54D88*
X116984Y39814D03*
X43952Y12569D03*
Y39814D03*
G54D86*
X116551Y49284D03*
X43520Y22040D03*
Y49284D03*
X94281Y52564D03*
X21250Y25320D03*
Y52564D03*
G54D75*
X93487Y52574D03*
X20456Y25330D03*
Y52574D03*
G54D76*
X94216Y53234D03*
X21184Y25990D03*
Y53234D03*
G54D79*
X109726Y47714D03*
X36694Y20470D03*
Y47714D03*
X109726Y46699D03*
X36694Y19455D03*
Y46699D03*
X109726Y45684D03*
X36694Y18440D03*
Y45684D03*
X109726Y44669D03*
X36694Y17425D03*
Y44669D03*
X109853Y43664D03*
X36821Y16420D03*
Y43664D03*
G54D88*
X115471Y50314D03*
X42440Y23069D03*
Y50314D03*
G54D95*
X95416Y52799D03*
X22384Y25555D03*
Y52799D03*
G54D87*
X109726Y47714D03*
X36694Y20470D03*
Y47714D03*
G54D75*
X109474Y37990D03*
X36442Y10746D03*
Y37990D03*
X109484Y38918D03*
X36452Y11674D03*
Y38918D03*
G54D83*
X110291Y38424D03*
X37259Y11180D03*
Y38424D03*
G54D79*
X119458Y45346D03*
X46426Y18102D03*
Y45346D03*
X119458Y44303D03*
X46426Y17059D03*
Y44303D03*
X119458Y43260D03*
X46426Y16016D03*
Y43260D03*
G54D89*
X102704Y45814D03*
X29672Y18570D03*
Y45814D03*
G54D81*
X102923Y50780D03*
X29891Y23536D03*
Y50780D03*
G54D90*
X120484Y53104D03*
X47452Y25860D03*
Y53104D03*
G54D75*
X124094Y53650D03*
X51062Y26406D03*
Y53650D03*
X123431D03*
X50400Y26406D03*
Y53650D03*
X127774Y51770D03*
X54742Y24526D03*
Y51770D03*
X124764Y53650D03*
X51732Y26406D03*
Y53650D03*
X125796Y52646D03*
X52764Y25401D03*
Y52646D03*
X126434Y51770D03*
X53402Y24526D03*
Y51770D03*
X127104D03*
X54072Y24526D03*
Y51770D03*
G54D85*
X128406Y51144D03*
X55374Y23900D03*
Y51144D03*
G54D76*
X115929Y53214D03*
X42898Y25970D03*
Y53214D03*
G54D90*
X122584Y53604D03*
X49552Y26360D03*
Y53604D03*
G54D75*
X123594Y51397D03*
X50562Y24153D03*
Y51397D03*
X123404Y49399D03*
X50372Y22155D03*
Y49399D03*
X125114Y49744D03*
X52082Y22499D03*
Y49744D03*
X123594Y50387D03*
X50562Y23143D03*
Y50387D03*
X124414Y50262D03*
X51382Y23017D03*
Y50262D03*
X118964Y51938D03*
X45932Y24694D03*
Y51938D03*
X119624Y52450D03*
X46592Y25206D03*
Y52450D03*
G54D74*
X105378Y36754D03*
X32346Y9510D03*
Y36754D03*
G54D93*
X105081Y37610D03*
X32050Y10366D03*
Y37610D03*
X105581D03*
X32550Y10366D03*
Y37610D03*
G54D101*
X106214Y34824D03*
X33182Y7580D03*
Y34824D03*
G54D81*
X100441Y39344D03*
X27409Y12100D03*
Y39344D03*
G54D98*
X90144Y36494D03*
X17112Y9250D03*
Y36494D03*
G54D74*
X96536Y33114D03*
X23504Y5870D03*
Y33114D03*
G54D100*
X88081Y38824D03*
X15050Y11580D03*
Y38824D03*
G54D102*
X102824Y41634D03*
X29792Y14390D03*
Y41634D03*
G54D77*
X102794Y39930D03*
X29762Y12686D03*
Y39930D03*
G54D102*
X122874Y34514D03*
X49842Y7270D03*
Y34514D03*
G54D77*
X118011Y32708D03*
X44980Y5464D03*
Y32708D03*
G54D68*
X120113Y37696D03*
X47082Y10452D03*
Y37696D03*
G54D69*
X122298Y41870D03*
X49267Y14626D03*
Y41870D03*
G54D96*
X133429Y35406D03*
X60398Y8162D03*
Y35406D03*
X137527Y34404D03*
X64496Y7160D03*
Y34404D03*
G54D69*
X137751Y41850D03*
X64720Y14606D03*
Y41850D03*
X137751Y44134D03*
X64720Y16890D03*
Y44134D03*
X137751Y46417D03*
X64720Y19173D03*
Y46417D03*
G54D89*
X137184Y45654D03*
X64152Y18410D03*
Y45654D03*
G54D78*
X136371Y45834D03*
X63339Y18590D03*
Y45834D03*
G54D69*
X117720Y36304D03*
X44689Y9060D03*
Y36304D03*
X117720Y37800D03*
X44689Y10556D03*
Y37800D03*
G54D89*
X111954Y48694D03*
X38922Y21450D03*
Y48694D03*
G54D94*
X115022Y45198D03*
X41990Y17954D03*
Y45198D03*
G54D97*
X111821Y50514D03*
X38789Y23270D03*
Y50514D03*
G54D81*
X115644Y42934D03*
X42613Y15690D03*
Y42934D03*
G54D68*
X93161Y45850D03*
X20130Y18606D03*
Y45850D03*
G54D103*
X90144Y40510D03*
X17112Y13266D03*
Y40510D03*
G54D69*
X107720Y45280D03*
X34689Y18036D03*
Y45280D03*
G54D89*
X107204Y43854D03*
X34172Y16610D03*
Y43854D03*
G54D84*
X107644Y40585D03*
X34612Y13341D03*
Y40585D03*
X108654Y40575D03*
X35622Y13331D03*
Y40575D03*
G54D97*
X98544Y46344D03*
X25513Y19100D03*
Y46344D03*
G54D104*
X117720Y45280D03*
X44689Y18036D03*
Y45280D03*
G54D80*
X118214Y43798D03*
X45182Y16554D03*
Y43798D03*
G54D75*
X112594Y42060D03*
X39562Y14816D03*
Y42060D03*
G54D65*
X131637Y29803D03*
X58606Y2559D03*
Y29803D03*
G54D66*
X131374Y35344D03*
X58342Y8100D03*
Y35344D03*
G54D67*
X144438Y38234D03*
X71406Y10990D03*
Y38234D03*
X145171Y41394D03*
X72139Y14150D03*
Y41394D03*
G54D96*
X135134Y34422D03*
X62102Y7178D03*
Y34422D03*
X140174Y35950D03*
X67142Y8706D03*
Y35950D03*
G54D81*
X144302Y39924D03*
X71271Y12680D03*
Y39924D03*
G54D67*
X102824Y43134D03*
X29792Y15890D03*
Y43134D03*
X105824Y41634D03*
X32792Y14390D03*
Y41634D03*
X122874Y33014D03*
X49842Y5770D03*
Y33014D03*
X119874Y34514D03*
X46842Y7270D03*
Y34514D03*
G54D65*
X134000Y28228D03*
X60968Y984D03*
Y28228D03*
X132425D03*
X59393Y984D03*
Y28228D03*
X131637D03*
X58606Y984D03*
Y28228D03*
X130850D03*
X57819Y984D03*
Y28228D03*
X130063D03*
X57031Y984D03*
Y28228D03*
X129275D03*
X56244Y984D03*
Y28228D03*
X128488D03*
X55456Y984D03*
Y28228D03*
X76050Y28157D03*
X3019Y913D03*
Y28157D03*
X78059D03*
X5028Y913D03*
Y28157D03*
X94044D03*
X21012Y913D03*
Y28157D03*
X96052D03*
X23020Y913D03*
Y28157D03*
X103650D03*
X30619Y913D03*
Y28157D03*
X105619D03*
X32587Y913D03*
Y28157D03*
X107626D03*
X34595Y913D03*
Y28157D03*
X95048Y29811D03*
X22016Y2567D03*
Y29811D03*
X95048Y28157D03*
X22016Y913D03*
Y28157D03*
X102646D03*
X29615Y913D03*
Y28157D03*
X104634D03*
X31603Y913D03*
Y28157D03*
X106622D03*
X33591Y913D03*
Y28157D03*
X102646Y29811D03*
X29615Y2567D03*
Y29811D03*
X104634D03*
X31603Y2567D03*
Y29811D03*
X106622D03*
X33591Y2567D03*
Y29811D03*
X111642Y28157D03*
X38611Y913D03*
Y28157D03*
X109634D03*
X36603Y913D03*
Y28157D03*
X110638D03*
X37607Y913D03*
Y28157D03*
X110638Y29811D03*
X37607Y2567D03*
Y29811D03*
G54D87*
X140814Y28658D03*
X67782Y1414D03*
Y28658D03*
X143394Y51034D03*
X70362Y23790D03*
Y51034D03*
X81774Y44780D03*
X8742Y17536D03*
Y44780D03*
X87954Y30514D03*
X14922Y3270D03*
Y30514D03*
G54D90*
X120484Y51604D03*
X47452Y24360D03*
Y51604D03*
X120484Y53604D03*
X47452Y26360D03*
Y53604D03*
G54D105*
X145171Y42772D03*
X72139Y15528D03*
Y42772D03*
G54D106*
X76281Y32624D03*
X3250Y5380D03*
Y32624D03*
X76131Y34552D03*
X3100Y7307D03*
Y34552D03*
X75921Y36714D03*
X2890Y9470D03*
Y36714D03*
X75874Y38774D03*
X2842Y11530D03*
Y38774D03*
X80641Y42954D03*
X7610Y15710D03*
Y42954D03*
X85471Y41120D03*
X12440Y13876D03*
Y41120D03*
X85831Y42852D03*
X12800Y15608D03*
Y42852D03*
X85301Y46196D03*
X12270Y18952D03*
Y46196D03*
X85131Y48612D03*
X12100Y21368D03*
Y48612D03*
X89821Y49024D03*
X16790Y21780D03*
Y49024D03*
X92191Y47450D03*
X19160Y20206D03*
Y47450D03*
X92711Y51092D03*
X19680Y23847D03*
Y51092D03*
X89171Y52152D03*
X16140Y24907D03*
Y52152D03*
X78361Y53514D03*
X5330Y26270D03*
Y53514D03*
X75521Y51704D03*
X2490Y24460D03*
Y51704D03*
X76471Y49774D03*
X3440Y22530D03*
Y49774D03*
X77991Y48612D03*
X4960Y21368D03*
Y48612D03*
X84441Y36032D03*
X11410Y8788D03*
Y36032D03*
X87311Y32544D03*
X14280Y5300D03*
Y32544D03*
X88294Y28924D03*
X15262Y1680D03*
Y28924D03*
X83904Y29064D03*
X10872Y1820D03*
Y29064D03*
X82104Y30514D03*
X9072Y3270D03*
Y30514D03*
X80584Y29024D03*
X7552Y1780D03*
Y29024D03*
X93281Y31384D03*
X20250Y4140D03*
Y31384D03*
X97821Y31854D03*
X24790Y4610D03*
Y31854D03*
X98119Y28934D03*
X25088Y1690D03*
Y28934D03*
X105191Y32394D03*
X32160Y5150D03*
Y32394D03*
X109251Y34694D03*
X36219Y7450D03*
Y34694D03*
X111081D03*
X38050Y7450D03*
Y34694D03*
X122431Y37327D03*
X49400Y10083D03*
Y37327D03*
X124951Y35244D03*
X51920Y8000D03*
Y35244D03*
X124614Y31724D03*
X51582Y4480D03*
Y31724D03*
X130701Y37754D03*
X57670Y10510D03*
Y37754D03*
X132071Y39334D03*
X59040Y12090D03*
Y39334D03*
X132259Y41244D03*
X59228Y14000D03*
Y41244D03*
X132094Y43369D03*
X59062Y16125D03*
Y43369D03*
X132034Y45584D03*
X59002Y18340D03*
Y45584D03*
X132091Y47504D03*
X59060Y20260D03*
Y47504D03*
X129554Y53234D03*
X56522Y25990D03*
Y53234D03*
X141904Y53179D03*
X68872Y25935D03*
Y53179D03*
X144854Y49614D03*
X71822Y22370D03*
Y49614D03*
X143762Y42774D03*
X70731Y15530D03*
Y42774D03*
X110801Y52719D03*
X37770Y25475D03*
Y52719D03*
G54D108*
X87954Y30514D03*
X14922Y3270D03*
Y30514D03*
X81774Y44780D03*
X8742Y17536D03*
Y44780D03*
X143394Y51034D03*
X70362Y23790D03*
Y51034D03*
X140814Y28658D03*
X67782Y1414D03*
Y28658D03*
G54D35*
X81202Y10458D02*
G01X83525D01*
X81261Y14474D02*
G01X83584D01*
X84391Y11363D02*
G01Y13686D01*
X80375Y11344D02*
G01Y13666D01*
X80104Y250D02*
G01Y840D01*
X80399*
X80497Y742*
Y545*
X80399Y447*
X80104*
X80300D02*
G01X80497Y250D01*
X81087Y742D02*
G01X80989Y840D01*
X80792*
X80694Y742*
Y644*
X80792Y545*
X80989*
X81087Y447*
Y348*
X80989Y250*
X80792*
X80694Y348*
X81678Y742D02*
G01X81579Y840D01*
X81383*
X81284Y742*
Y348*
X81383Y250*
X81579*
X81678Y348*
X81875Y545D02*
G01X82268D01*
X82465Y250D02*
G01Y840D01*
X82760*
X82859Y742*
Y545*
X82760Y447*
X82465*
X83055Y742D02*
G01X83154Y840D01*
X83351*
X83449Y742*
Y348*
X83351Y250*
X83154*
X83055Y348*
Y742*
X83646Y250D02*
G01X83842D01*
X83744*
Y840*
X83646Y742*
X84531Y840D02*
G01X84138D01*
Y545*
X84334*
X84138*
Y250*
X84728Y545D02*
G01X85122D01*
X85318Y840D02*
G01Y447D01*
X85515Y250*
X85712Y447*
Y840*
X85909Y742D02*
G01X86007Y840D01*
X86204*
X86302Y742*
Y348*
X86204Y250*
X86007*
X85909Y348*
Y742*
X86893Y250D02*
G01X86499D01*
X86893Y644*
Y742*
X86794Y840*
X86598*
X86499Y742*
X83604Y10101D02*
G01Y8979D01*
X82364*
Y10101*
X82482*
X83604*
G54D10*
X9825Y36499D02*
G01X10024D01*
X9925*
Y37099*
X9825Y36999*
G54D35*
X81202Y37702D02*
G01X83525D01*
X8171Y10458D02*
G01X10494D01*
X8171Y37702D02*
G01X10494D01*
X81261Y41718D02*
G01X83584D01*
X8230Y14474D02*
G01X10553D01*
X8230Y41718D02*
G01X10553D01*
X84391Y38607D02*
G01Y40930D01*
X11360Y11363D02*
G01Y13686D01*
Y38607D02*
G01Y40930D01*
X80375Y38588D02*
G01Y40911D01*
X7344Y11344D02*
G01Y13666D01*
Y38588D02*
G01Y40911D01*
X80104Y27494D02*
G01Y28084D01*
X80399*
X80497Y27986*
Y27789*
X80399Y27691*
X80104*
X7072Y250D02*
G01Y840D01*
X7367*
X7466Y742*
Y545*
X7367Y447*
X7072*
Y27494D02*
G01Y28084D01*
X7367*
X7466Y27986*
Y27789*
X7367Y27691*
X7072*
X80300D02*
G01X80497Y27494D01*
X7269Y447D02*
G01X7466Y250D01*
X7269Y27691D02*
G01X7466Y27494D01*
X81087Y27986D02*
G01X80989Y28084D01*
X80792*
X80694Y27986*
Y27888*
X80792Y27789*
X80989*
X81087Y27691*
Y27592*
X80989Y27494*
X80792*
X80694Y27592*
X8056Y742D02*
G01X7958Y840D01*
X7761*
X7662Y742*
Y644*
X7761Y545*
X7958*
X8056Y447*
Y348*
X7958Y250*
X7761*
X7662Y348*
X8056Y27986D02*
G01X7958Y28084D01*
X7761*
X7662Y27986*
Y27888*
X7761Y27789*
X7958*
X8056Y27691*
Y27592*
X7958Y27494*
X7761*
X7662Y27592*
X81678Y27986D02*
G01X81579Y28084D01*
X81383*
X81284Y27986*
Y27592*
X81383Y27494*
X81579*
X81678Y27592*
X8646Y742D02*
G01X8548Y840D01*
X8351*
X8253Y742*
Y348*
X8351Y250*
X8548*
X8646Y348*
Y27986D02*
G01X8548Y28084D01*
X8351*
X8253Y27986*
Y27592*
X8351Y27494*
X8548*
X8646Y27592*
X81875Y27789D02*
G01X82268D01*
X8843Y545D02*
G01X9237D01*
X8843Y27789D02*
G01X9237D01*
X82465Y27494D02*
G01Y28084D01*
X82760*
X82859Y27986*
Y27789*
X82760Y27691*
X82465*
X9434Y250D02*
G01Y840D01*
X9729*
X9827Y742*
Y545*
X9729Y447*
X9434*
Y27494D02*
G01Y28084D01*
X9729*
X9827Y27986*
Y27789*
X9729Y27691*
X9434*
X83055Y27986D02*
G01X83154Y28084D01*
X83351*
X83449Y27986*
Y27592*
X83351Y27494*
X83154*
X83055Y27592*
Y27986*
X10024Y742D02*
G01X10122Y840D01*
X10319*
X10417Y742*
Y348*
X10319Y250*
X10122*
X10024Y348*
Y742*
Y27986D02*
G01X10122Y28084D01*
X10319*
X10417Y27986*
Y27592*
X10319Y27494*
X10122*
X10024Y27592*
Y27986*
X83646Y27494D02*
G01X83842D01*
X83744*
Y28084*
X83646Y27986*
X10614Y250D02*
G01X10811D01*
X10713*
Y840*
X10614Y742*
Y27494D02*
G01X10811D01*
X10713*
Y28084*
X10614Y27986*
X84531Y28084D02*
G01X84138D01*
Y27789*
X84334*
X84138*
Y27494*
X11500Y840D02*
G01X11106D01*
Y545*
X11303*
X11106*
Y250*
X11500Y28084D02*
G01X11106D01*
Y27789*
X11303*
X11106*
Y27494*
X84728Y27789D02*
G01X85122D01*
X11697Y545D02*
G01X12090D01*
X11697Y27789D02*
G01X12090D01*
X85318Y28084D02*
G01Y27691D01*
X85515Y27494*
X85712Y27691*
Y28084*
X12287Y840D02*
G01Y447D01*
X12484Y250*
X12680Y447*
Y840*
X12287Y28084D02*
G01Y27691D01*
X12484Y27494*
X12680Y27691*
Y28084*
X85909Y27986D02*
G01X86007Y28084D01*
X86204*
X86302Y27986*
Y27592*
X86204Y27494*
X86007*
X85909Y27592*
Y27986*
X12877Y742D02*
G01X12976Y840D01*
X13172*
X13271Y742*
Y348*
X13172Y250*
X12976*
X12877Y348*
Y742*
Y27986D02*
G01X12976Y28084D01*
X13172*
X13271Y27986*
Y27592*
X13172Y27494*
X12976*
X12877Y27592*
Y27986*
X86893Y27494D02*
G01X86499D01*
X86893Y27888*
Y27986*
X86794Y28084*
X86598*
X86499Y27986*
X13861Y250D02*
G01X13468D01*
X13861Y644*
Y742*
X13763Y840*
X13566*
X13468Y742*
X13861Y27494D02*
G01X13468D01*
X13861Y27888*
Y27986*
X13763Y28084*
X13566*
X13468Y27986*
X83604Y37346D02*
G01Y36224D01*
X82364*
Y37346*
X82482*
X83604*
X10573Y10101D02*
G01Y8979D01*
X9332*
Y10101*
X9451*
X10573*
Y37346D02*
G01Y36224D01*
X9332*
Y37346*
X9451*
X10573*
G54D10*
G01X9759Y9705D02*
Y9733D01*
X9787Y9790D01*
X9815Y9818D01*
X9872Y9846D01*
X9985D01*
X10042Y9818D01*
X10070Y9790D01*
X10098Y9733D01*
Y9676D01*
X10070Y9620D01*
X10014Y9535D01*
X9731Y9252D01*
X10127D01*
G01X82819Y37090D02*
X83130D01*
X82960Y36864D01*
X83045D01*
X83102Y36836D01*
X83130Y36807D01*
X83158Y36722D01*
Y36666D01*
X83130Y36581D01*
X83073Y36524D01*
X82988Y36496D01*
X82904D01*
X82819Y36524D01*
X82790Y36553D01*
X82762Y36609D01*
G01X83045Y9846D02*
X82762Y9450D01*
X83187D01*
X83045Y9846D02*
Y9252D01*
M02*
