M48
METRIC,TZ
VER,1
FMAT,2
T01C0.4F42B423S6H2000
T02C0.4F42B423S6H2000
T03C1.F42B423S6H2000
T04C1.001F42B423S6H2000
T05C1.4F42B423S6H2000
T06C1.6F42B423S6H2000
T07C2.5F42B423S6H2000
T08C3.601F42B423S6H2000
DETECT,ON
ATC,ON
%
T01
X904960Y171550
Y863550
Y1555550
Y2247550
T02
X170700Y81530
X625280Y174240
X639530Y196340
X669000Y184400
X707860Y153920
X743670Y185670
X754600Y205990
X743670Y230890
X786350Y194060
X804130Y203710
X857520Y242570
X898920Y243750
X965720Y259950
X975880Y284730
X985280Y322330
X972830Y352550
X1007330Y353920
X1013980Y369060
X1040910Y359400
X1067830Y371860
X1066050Y385060
X1079260Y348230
X1089670Y325370
X1071640Y309880
X1089670Y296190
X1035830Y296930
X1035060Y283730
X1014740Y301500
X1057920Y247400
X1075200Y219360
X1047320Y216150
X1106690Y219200
X1103140Y166620
X1115780Y141730
X1079770Y131060
X1105370Y100580
X1108420Y68830
X1164350Y121410
X1167400Y170180
X1175780Y182880
X1215910Y231650
X1215660Y302510
X1263100Y390910
X1262900Y419860
X1227130
Y447040
X1229230Y478150
X1229490Y492120
X1187210Y505460
X1177050Y514600
X1166640Y525140
X1145810Y494790
X1130820
X1125730Y507240
X1116840Y518670
X1110050Y507240
X1115840Y494790
X1100850
X1094380Y507240
X1101160Y518670
X1085490
X1078700Y507240
X1085860Y494790
X1081890Y482090
X1081880Y467110
X1081890Y452120
Y437130
X1135140Y421130
X1145810Y410460
X1157490Y398780
X1069810Y518670
X1026680Y491240
X961660Y412750
X877020Y528320
X845530Y583540
X800620Y581410
X791730Y594610
X759730Y590300
X717310Y590040
X715790Y515870
X703290
X691040Y516180
X681660Y452120
X800620Y527560
X750580Y677670
X722200
X693820
X665430
X637050
X603520Y679450
Y666750
Y653290
X641820Y628400
X776440Y328420
X720560Y293380
X699990Y284730
X669510Y294350
X648170Y270000
X647920Y234440
X674170Y235350
X787160Y125000
X823430Y105660
X776440Y83060
X877530Y156220
X921980Y82550
X979390Y77220
X1018760Y80770
X1241060Y74680
X1251730Y55000
X1291860Y40640
Y25150
X1310200Y15490
X1394470Y76210
X1440840Y77720
X1479060Y86380
X1492010Y80520
X1506930Y77160
X1534640Y82750
X1546930Y94490
X1560840Y81030
X1582430Y78230
X1598180Y78490
X1601480Y115060
X1584470Y127250
X1543190Y157340
X1526550Y142490
X1523760Y168660
X1496580Y158750
X1478290Y144530
X1460750Y141990
X1471940Y183900
X1489980Y101600
X1522950Y108460
X1436890Y26920
X1437910Y13970
X1414290Y15750
X1403620Y234700
X1451560Y277880
X1465440Y278380
X1465000Y293120
X1477430Y289560
X1476970Y302010
X1477020Y314960
X1489740Y314710
X1490650Y302260
X1502660Y314440
Y328720
X1489740Y328990
X1477020Y329250
Y343540
X1489740Y343280
X1502660Y343010
Y357300
X1489740Y357570
X1477020Y357820
Y372110
X1476430Y383790
X1463560
X1448580
X1433590
X1418600
X1403620
X1433340Y364430
X1433590Y345060
X1414790
X1433340Y325690
X1433720Y306320
X1448770
X1451560Y292610
X1463820Y306320
X1452390Y345060
X1489740Y372110
X1489300Y383790
X1502170
X1502660Y372110
X1484900Y419350
X1497090Y423930
Y437540
X1484900Y432740
Y446130
X1497090Y451150
Y464770
X1484900Y459520
Y472910
X1497090Y478380
Y492000
X1484900Y486300
Y499690
Y513080
X1470810Y513220
X1470670Y527050
X1455690
X1455820Y513220
X1440840
X1441210Y527050
X1427490Y526800
X1414600
X1401710
X1388820
X1375930
X1363970Y560070
X1391170Y582420
X1404200Y560070
X1440450Y573530
X1455820Y621570
X1403620Y639830
X1399550Y659190
X1372380Y616710
X1365010Y596390
X1348310Y596900
X1349770Y635760
X1289060Y644140
X1275600Y655070
X1285510Y668020
X1287290Y613160
X1274590Y584960
X1290330Y569720
X1299990Y559310
X1309640Y568220
X1277380Y554080
X1254770Y566670
X1238770Y568450
X1235720Y606810
X1209580Y602730
X1202450Y634490
X1219470Y656190
X1217180Y675490
X1186450Y675890
X1166130Y635510
X1139630Y675490
X1410870Y513220
X1425850
X1440190Y492330
X1440450Y472960
X1459240
X1440190Y453590
X1441350Y435750
X1456840
X1471060
Y422910
X1425340Y435750
X1410870
X1421650Y472960
X1497090Y505610
X1557040Y566670
X1576690Y557780
X1587260Y566670
X1577100Y598420
X1571510Y612360
X1614410Y612140
X1607580Y638050
X1604280Y652020
X1577860Y681990
X1637810
X1667470Y682240
X1661430Y651760
X1662440Y637030
X1661170Y609600
X1669810Y591310
X1692920Y598680
X1693380Y584450
X1724930Y572520
X1744740Y575060
X1754900Y545850
X1673870Y509020
X1653550Y450340
X1631960Y423670
X1647890Y369820
X1727470Y365470
Y352590
Y339710
Y326830
Y313940
X1782330
Y326830
Y339710
Y352590
Y365470
X1792750Y371860
X1803160Y381250
X1808750Y397000
X1782080Y401160
Y414720
Y428280
Y441830
Y387600
X1727470Y388370
Y401920
Y415480
Y429040
Y442600
X1843800Y436880
X1860060Y234950
X1875750Y234700
X1733060Y132330
X1700540Y136400
X1668990Y135090
X1716290Y50800
X1418670Y306320
X1403620
X1345580Y287270
X1337070Y295660
X1335290Y309630
X1518680Y621540
X1624850Y556260
X1708110Y645160
X1712230Y672340
X1701760Y683260
X170700Y773530
Y1465530
Y2157530
X625280Y866240
Y1558240
Y2250240
X639530Y888340
Y1580340
Y2272340
X669000Y876400
Y1568400
Y2260400
X707860Y845920
Y1537920
Y2229920
X743670Y877670
Y1569670
Y2261670
X754600Y897990
Y1589990
Y2281990
X743670Y922890
Y1614890
Y2306890
X786350Y886060
Y1578060
Y2270060
X804130Y895710
Y1587710
Y2279710
X857520Y934570
Y1626570
Y2318570
X898920Y935750
Y1627750
Y2319750
X965720Y951950
Y1643950
Y2335950
X975880Y976730
Y1668730
Y2360730
X985280Y1014330
Y1706330
Y2398330
X972830Y1044550
Y1736550
Y2428550
X1007330Y1045920
Y1737920
Y2429920
X1013980Y1061060
Y1753060
Y2445060
X1040910Y1051400
Y1743400
Y2435400
X1067830Y1063860
Y1755860
Y2447860
X1066050Y1077060
Y1769060
Y2461060
X1079260Y1040230
Y1732230
Y2424230
X1089670Y1017370
Y1709370
Y2401370
X1071640Y1001880
Y1693880
Y2385880
X1089670Y988190
Y1680190
Y2372190
X1035830Y988930
Y1680930
Y2372930
X1035060Y975730
Y1667730
Y2359730
X1014740Y993500
Y1685500
Y2377500
X1057920Y939400
Y1631400
Y2323400
X1075200Y911360
Y1603360
Y2295360
X1047320Y908150
Y1600150
Y2292150
X1106690Y911200
Y1603200
Y2295200
X1103140Y858620
Y1550620
Y2242620
X1115780Y833730
Y1525730
Y2217730
X1079770Y823060
Y1515060
Y2207060
X1105370Y792580
Y1484580
Y2176580
X1108420Y760830
Y1452830
Y2144830
X1164350Y813410
Y1505410
Y2197410
X1167400Y862180
Y1554180
Y2246180
X1175780Y874880
Y1566880
Y2258880
X1215910Y923650
Y1615650
Y2307650
X1215660Y994510
Y1686510
Y2378510
X1263100Y1082910
Y1774910
Y2466910
X1262900Y1111860
Y1803860
Y2495860
X1227130Y1111860
Y1803860
Y2495860
Y1139040
Y1831040
Y2523040
X1229230Y1170150
Y1862150
Y2554150
X1229490Y1184120
Y1876120
Y2568120
X1187210Y1197460
Y1889460
Y2581460
X1177050Y1206600
Y1898600
Y2590600
X1166640Y1217140
Y1909140
Y2601140
X1145810Y1186790
Y1878790
Y2570790
X1130820Y1186790
Y1878790
Y2570790
X1125730Y1199240
Y1891240
Y2583240
X1116840Y1210670
Y1902670
Y2594670
X1110050Y1199240
Y1891240
Y2583240
X1115840Y1186790
Y1878790
Y2570790
X1100850Y1186790
Y1878790
Y2570790
X1094380Y1199240
Y1891240
Y2583240
X1101160Y1210670
Y1902670
Y2594670
X1085490Y1210670
Y1902670
Y2594670
X1078700Y1199240
Y1891240
Y2583240
X1085860Y1186790
Y1878790
Y2570790
X1081890Y1174090
Y1866090
Y2558090
X1081880Y1159110
Y1851110
Y2543110
X1081890Y1144120
Y1836120
Y2528120
Y1129130
Y1821130
Y2513130
X1135140Y1113130
Y1805130
Y2497130
X1145810Y1102460
Y1794460
Y2486460
X1157490Y1090780
Y1782780
Y2474780
X1069810Y1210670
Y1902670
Y2594670
X1026680Y1183240
Y1875240
Y2567240
X961660Y1104750
Y1796750
Y2488750
X877020Y1220320
Y1912320
Y2604320
X845530Y1275540
Y1967540
Y2659540
X800620Y1273410
Y1965410
Y2657410
X791730Y1286610
Y1978610
Y2670610
X759730Y1282300
Y1974300
Y2666300
X717310Y1282040
Y1974040
Y2666040
X715790Y1207870
Y1899870
Y2591870
X703290Y1207870
Y1899870
Y2591870
X691040Y1208180
Y1900180
Y2592180
X681660Y1144120
Y1836120
Y2528120
X800620Y1219560
Y1911560
Y2603560
X750580Y1369670
Y2061670
Y2753670
X722200Y1369670
Y2061670
Y2753670
X693820Y1369670
Y2061670
Y2753670
X665430Y1369670
Y2061670
Y2753670
X637050Y1369670
Y2061670
Y2753670
X603520Y1371450
Y2063450
Y2755450
Y1358750
Y2050750
Y2742750
Y1345290
Y2037290
Y2729290
X641820Y1320400
Y2012400
Y2704400
X776440Y1020420
Y1712420
Y2404420
X720560Y985380
Y1677380
Y2369380
X699990Y976730
Y1668730
Y2360730
X669510Y986350
Y1678350
Y2370350
X648170Y962000
Y1654000
Y2346000
X647920Y926440
Y1618440
Y2310440
X674170Y927350
Y1619350
Y2311350
X787160Y817000
Y1509000
Y2201000
X823430Y797660
Y1489660
Y2181660
X776440Y775060
Y1467060
Y2159060
X877530Y848220
Y1540220
Y2232220
X921980Y774550
Y1466550
Y2158550
X979390Y769220
Y1461220
Y2153220
X1018760Y772770
Y1464770
Y2156770
X1241060Y766680
Y1458680
Y2150680
X1251730Y747000
Y1439000
Y2131000
X1291860Y732640
Y1424640
Y2116640
Y717150
Y1409150
Y2101150
X1310200Y707490
Y1399490
Y2091490
X1394470Y768210
Y1460210
Y2152210
X1440840Y769720
Y1461720
Y2153720
X1479060Y778380
Y1470380
Y2162380
X1492010Y772520
Y1464520
Y2156520
X1506930Y769160
Y1461160
Y2153160
X1534640Y774750
Y1466750
Y2158750
X1546930Y786490
Y1478490
Y2170490
X1560840Y773030
Y1465030
Y2157030
X1582430Y770230
Y1462230
Y2154230
X1598180Y770490
Y1462490
Y2154490
X1601480Y807060
Y1499060
Y2191060
X1584470Y819250
Y1511250
Y2203250
X1543190Y849340
Y1541340
Y2233340
X1526550Y834490
Y1526490
Y2218490
X1523760Y860660
Y1552660
Y2244660
X1496580Y850750
Y1542750
Y2234750
X1478290Y836530
Y1528530
Y2220530
X1460750Y833990
Y1525990
Y2217990
X1471940Y875900
Y1567900
Y2259900
X1489980Y793600
Y1485600
Y2177600
X1522950Y800460
Y1492460
Y2184460
X1436890Y718920
Y1410920
Y2102920
X1437910Y705970
Y1397970
Y2089970
X1414290Y707750
Y1399750
Y2091750
X1403620Y926700
Y1618700
Y2310700
X1451560Y969880
Y1661880
Y2353880
X1465440Y970380
Y1662380
Y2354380
X1465000Y985120
Y1677120
Y2369120
X1477430Y981560
Y1673560
Y2365560
X1476970Y994010
Y1686010
Y2378010
X1477020Y1006960
Y1698960
Y2390960
X1489740Y1006710
Y1698710
Y2390710
X1490650Y994260
Y1686260
Y2378260
X1502660Y1006440
Y1698440
Y2390440
Y1020720
Y1712720
Y2404720
X1489740Y1020990
Y1712990
Y2404990
X1477020Y1021250
Y1713250
Y2405250
Y1035540
Y1727540
Y2419540
X1489740Y1035280
Y1727280
Y2419280
X1502660Y1035010
Y1727010
Y2419010
Y1049300
Y1741300
Y2433300
X1489740Y1049570
Y1741570
Y2433570
X1477020Y1049820
Y1741820
Y2433820
Y1064110
Y1756110
Y2448110
X1476430Y1075790
Y1767790
Y2459790
X1463560Y1075790
Y1767790
Y2459790
X1448580Y1075790
Y1767790
Y2459790
X1433590Y1075790
Y1767790
Y2459790
X1418600Y1075790
Y1767790
Y2459790
X1403620Y1075790
Y1767790
Y2459790
X1433340Y1056430
Y1748430
Y2440430
X1433590Y1037060
Y1729060
Y2421060
X1414790Y1037060
Y1729060
Y2421060
X1433340Y1017690
Y1709690
Y2401690
X1433720Y998320
Y1690320
Y2382320
X1448770Y998320
Y1690320
Y2382320
X1451560Y984610
Y1676610
Y2368610
X1463820Y998320
Y1690320
Y2382320
X1452390Y1037060
Y1729060
Y2421060
X1489740Y1064110
Y1756110
Y2448110
X1489300Y1075790
Y1767790
Y2459790
X1502170Y1075790
Y1767790
Y2459790
X1502660Y1064110
Y1756110
Y2448110
X1484900Y1111350
Y1803350
Y2495350
X1497090Y1115930
Y1807930
Y2499930
Y1129540
Y1821540
Y2513540
X1484900Y1124740
Y1816740
Y2508740
Y1138130
Y1830130
Y2522130
X1497090Y1143150
Y1835150
Y2527150
Y1156770
Y1848770
Y2540770
X1484900Y1151520
Y1843520
Y2535520
Y1164910
Y1856910
Y2548910
X1497090Y1170380
Y1862380
Y2554380
Y1184000
Y1876000
Y2568000
X1484900Y1178300
Y1870300
Y2562300
Y1191690
Y1883690
Y2575690
Y1205080
Y1897080
Y2589080
X1470810Y1205220
Y1897220
Y2589220
X1470670Y1219050
Y1911050
Y2603050
X1455690Y1219050
Y1911050
Y2603050
X1455820Y1205220
Y1897220
Y2589220
X1440840Y1205220
Y1897220
Y2589220
X1441210Y1219050
Y1911050
Y2603050
X1427490Y1218800
Y1910800
Y2602800
X1414600Y1218800
Y1910800
Y2602800
X1401710Y1218800
Y1910800
Y2602800
X1388820Y1218800
Y1910800
Y2602800
X1375930Y1218800
Y1910800
Y2602800
X1363970Y1252070
Y1944070
Y2636070
X1391170Y1274420
Y1966420
Y2658420
X1404200Y1252070
Y1944070
Y2636070
X1440450Y1265530
Y1957530
Y2649530
X1455820Y1313570
Y2005570
Y2697570
X1403620Y1331830
Y2023830
Y2715830
X1399550Y1351190
Y2043190
Y2735190
X1372380Y1308710
Y2000710
Y2692710
X1365010Y1288390
Y1980390
Y2672390
X1348310Y1288900
Y1980900
Y2672900
X1349770Y1327760
Y2019760
Y2711760
X1289060Y1336140
Y2028140
Y2720140
X1275600Y1347070
Y2039070
Y2731070
X1285510Y1360020
Y2052020
Y2744020
X1287290Y1305160
Y1997160
Y2689160
X1274590Y1276960
Y1968960
Y2660960
X1290330Y1261720
Y1953720
Y2645720
X1299990Y1251310
Y1943310
Y2635310
X1309640Y1260220
Y1952220
Y2644220
X1277380Y1246080
Y1938080
Y2630080
X1254770Y1258670
Y1950670
Y2642670
X1238770Y1260450
Y1952450
Y2644450
X1235720Y1298810
Y1990810
Y2682810
X1209580Y1294730
Y1986730
Y2678730
X1202450Y1326490
Y2018490
Y2710490
X1219470Y1348190
Y2040190
Y2732190
X1217180Y1367490
Y2059490
Y2751490
X1186450Y1367890
Y2059890
Y2751890
X1166130Y1327510
Y2019510
Y2711510
X1139630Y1367490
Y2059490
Y2751490
X1410870Y1205220
Y1897220
Y2589220
X1425850Y1205220
Y1897220
Y2589220
X1440190Y1184330
Y1876330
Y2568330
X1440450Y1164960
Y1856960
Y2548960
X1459240Y1164960
Y1856960
Y2548960
X1440190Y1145590
Y1837590
Y2529590
X1441350Y1127750
Y1819750
Y2511750
X1456840Y1127750
Y1819750
Y2511750
X1471060Y1127750
Y1819750
Y2511750
Y1114910
Y1806910
Y2498910
X1425340Y1127750
Y1819750
Y2511750
X1410870Y1127750
Y1819750
Y2511750
X1421650Y1164960
Y1856960
Y2548960
X1497090Y1197610
Y1889610
Y2581610
X1557040Y1258670
Y1950670
Y2642670
X1576690Y1249780
Y1941780
Y2633780
X1587260Y1258670
Y1950670
Y2642670
X1577100Y1290420
Y1982420
Y2674420
X1571510Y1304360
Y1996360
Y2688360
X1614410Y1304140
Y1996140
Y2688140
X1607580Y1330050
Y2022050
Y2714050
X1604280Y1344020
Y2036020
Y2728020
X1577860Y1373990
Y2065990
Y2757990
X1637810Y1373990
Y2065990
Y2757990
X1667470Y1374240
Y2066240
Y2758240
X1661430Y1343760
Y2035760
Y2727760
X1662440Y1329030
Y2021030
Y2713030
X1661170Y1301600
Y1993600
Y2685600
X1669810Y1283310
Y1975310
Y2667310
X1692920Y1290680
Y1982680
Y2674680
X1693380Y1276450
Y1968450
Y2660450
X1724930Y1264520
Y1956520
Y2648520
X1744740Y1267060
Y1959060
Y2651060
X1754900Y1237850
Y1929850
Y2621850
X1673870Y1201020
Y1893020
Y2585020
X1653550Y1142340
Y1834340
Y2526340
X1631960Y1115670
Y1807670
Y2499670
X1647890Y1061820
Y1753820
Y2445820
X1727470Y1057470
Y1749470
Y2441470
Y1044590
Y1736590
Y2428590
Y1031710
Y1723710
Y2415710
Y1018830
Y1710830
Y2402830
Y1005940
Y1697940
Y2389940
X1782330Y1005940
Y1697940
Y2389940
Y1018830
Y1710830
Y2402830
Y1031710
Y1723710
Y2415710
Y1044590
Y1736590
Y2428590
Y1057470
Y1749470
Y2441470
X1792750Y1063860
Y1755860
Y2447860
X1803160Y1073250
Y1765250
Y2457250
X1808750Y1089000
Y1781000
Y2473000
X1782080Y1093160
Y1785160
Y2477160
Y1106720
Y1798720
Y2490720
Y1120280
Y1812280
Y2504280
Y1133830
Y1825830
Y2517830
Y1079600
Y1771600
Y2463600
X1727470Y1080370
Y1772370
Y2464370
Y1093920
Y1785920
Y2477920
Y1107480
Y1799480
Y2491480
Y1121040
Y1813040
Y2505040
Y1134600
Y1826600
Y2518600
X1843800Y1128880
Y1820880
Y2512880
X1860060Y926950
Y1618950
Y2310950
X1875750Y926700
Y1618700
Y2310700
X1733060Y824330
Y1516330
Y2208330
X1700540Y828400
Y1520400
Y2212400
X1668990Y827090
Y1519090
Y2211090
X1716290Y742800
Y1434800
Y2126800
X1418670Y998320
Y1690320
Y2382320
X1403620Y998320
Y1690320
Y2382320
X1345580Y979270
Y1671270
Y2363270
X1337070Y987660
Y1679660
Y2371660
X1335290Y1001630
Y1693630
Y2385630
X1518680Y1313540
Y2005540
Y2697540
X1624850Y1248260
Y1940260
Y2632260
X1708110Y1337160
Y2029160
Y2721160
X1712230Y1364340
Y2056340
Y2748340
X1701760Y1375260
Y2067260
Y2759260
T03
X89220Y340430
X159220
Y412930
X89220
X201900Y591070
X169250Y629980
X418220Y675380
X469780Y674870
X452420Y581410
X503980Y580900
X567360Y546230
X590300Y513460
X806720Y441710
Y403610
Y365510
X756120Y356580
Y256580
X882920Y365510
Y403610
Y441710
X846540Y508750
X825320Y529960
X1239790Y184660
Y146560
Y108460
X1315990
Y146560
Y184660
X1500490Y183210
X1516560Y202360
X1813720Y279150
X1863720
X1882340Y359400
Y429400
X1881140Y463030
Y493030
X1873770Y518100
X1800370Y502930
Y472930
X1809840Y429400
Y359400
X1873770Y618100
X1853620Y658820
X1753620
X1533120Y657170
X1433120
X89220Y1032430
Y1724430
Y2416430
X159220Y1032430
Y1724430
Y2416430
Y1104930
Y1796930
Y2488930
X89220Y1104930
Y1796930
Y2488930
X201900Y1283070
Y1975070
Y2667070
X169250Y1321980
Y2013980
Y2705980
X418220Y1367380
Y2059380
Y2751380
X469780Y1366870
Y2058870
Y2750870
X452420Y1273410
Y1965410
Y2657410
X503980Y1272900
Y1964900
Y2656900
X567360Y1238230
Y1930230
Y2622230
X590300Y1205460
Y1897460
Y2589460
X806720Y1133710
Y1825710
Y2517710
Y1095610
Y1787610
Y2479610
Y1057510
Y1749510
Y2441510
X756120Y1048580
Y1740580
Y2432580
Y948580
Y1640580
Y2332580
X882920Y1057510
Y1749510
Y2441510
Y1095610
Y1787610
Y2479610
Y1133710
Y1825710
Y2517710
X846540Y1200750
Y1892750
Y2584750
X825320Y1221960
Y1913960
Y2605960
X1239790Y876660
Y1568660
Y2260660
Y838560
Y1530560
Y2222560
Y800460
Y1492460
Y2184460
X1315990Y800460
Y1492460
Y2184460
Y838560
Y1530560
Y2222560
Y876660
Y1568660
Y2260660
X1500490Y875210
Y1567210
Y2259210
X1516560Y894360
Y1586360
Y2278360
X1813720Y971150
Y1663150
Y2355150
X1863720Y971150
Y1663150
Y2355150
X1882340Y1051400
Y1743400
Y2435400
Y1121400
Y1813400
Y2505400
X1881140Y1155030
Y1847030
Y2539030
Y1185030
Y1877030
Y2569030
X1873770Y1210100
Y1902100
Y2594100
X1800370Y1194930
Y1886930
Y2578930
Y1164930
Y1856930
Y2548930
X1809840Y1121400
Y1813400
Y2505400
Y1051400
Y1743400
Y2435400
X1873770Y1310100
Y2002100
Y2694100
X1853620Y1350820
Y2042820
Y2734820
X1753620Y1350820
Y2042820
Y2734820
X1533120Y1349170
Y2041170
Y2733170
X1433120Y1349170
Y2041170
Y2733170
T04
X1882336Y394400
Y1086400
Y1778400
Y2470400
T05
X204180Y169160
X354180
X561300Y140320
Y290320
Y322580
X653760Y322070
Y472070
X561300Y472580
X488910Y416310
X464910Y491310
X395600Y528400
X395090Y577420
X375240Y632770
X286610Y648400
X320090Y555420
X320600Y506400
X225770Y555080
X131630Y513100
X712990Y551620
X756170Y555080
Y630080
X712990Y626620
X918990Y630080
Y555080
X1079310
Y630080
X1245880Y365470
Y265470
X204180Y861160
Y1553160
Y2245160
X354180Y861160
Y1553160
Y2245160
X561300Y832320
Y1524320
Y2216320
Y982320
Y1674320
Y2366320
Y1014580
Y1706580
Y2398580
X653760Y1014070
Y1706070
Y2398070
Y1164070
Y1856070
Y2548070
X561300Y1164580
Y1856580
Y2548580
X488910Y1108310
Y1800310
Y2492310
X464910Y1183310
Y1875310
Y2567310
X395600Y1220400
Y1912400
Y2604400
X395090Y1269420
Y1961420
Y2653420
X375240Y1324770
Y2016770
Y2708770
X286610Y1340400
Y2032400
Y2724400
X320090Y1247420
Y1939420
Y2631420
X320600Y1198400
Y1890400
Y2582400
X225770Y1247080
Y1939080
Y2631080
X131630Y1205100
Y1897100
Y2589100
X712990Y1243620
Y1935620
Y2627620
X756170Y1247080
Y1939080
Y2631080
Y1322080
Y2014080
Y2706080
X712990Y1318620
Y2010620
Y2702620
X918990Y1322080
Y2014080
Y2706080
Y1247080
Y1939080
Y2631080
X1079310Y1247080
Y1939080
Y2631080
Y1322080
Y2014080
Y2706080
X1245880Y1057470
Y1749470
Y2441470
Y957470
Y1649470
Y2341470
T06
X213910Y234460
X413910
X484650Y234950
Y183950
Y285950
Y336950
X413910Y459460
X213910
X757900Y420000
Y384560
X931100Y458120
Y230120
X1185100
Y268120
X1301380Y371500
Y487500
X1185100Y458120
X1399810Y137920
X1400820Y100080
X1584100Y207320
X1627400Y182320
X1688190Y181860
X1738190
X1755410Y221130
Y271130
X1693880Y255000
Y313000
Y371000
Y429000
Y487000
Y545000
X1805340Y174500
X1855340
X213910Y926460
Y1618460
Y2310460
X413910Y926460
Y1618460
Y2310460
X484650Y926950
Y1618950
Y2310950
Y875950
Y1567950
Y2259950
Y977950
Y1669950
Y2361950
Y1028950
Y1720950
Y2412950
X413910Y1151460
Y1843460
Y2535460
X213910Y1151460
Y1843460
Y2535460
X757900Y1112000
Y1804000
Y2496000
Y1076560
Y1768560
Y2460560
X931100Y1150120
Y1842120
Y2534120
Y922120
Y1614120
Y2306120
X1185100Y922120
Y1614120
Y2306120
Y960120
Y1652120
Y2344120
X1301380Y1063500
Y1755500
Y2447500
Y1179500
Y1871500
Y2563500
X1185100Y1150120
Y1842120
Y2534120
X1399810Y829920
Y1521920
Y2213920
X1400820Y792080
Y1484080
Y2176080
X1584100Y899320
Y1591320
Y2283320
X1627400Y874320
Y1566320
Y2258320
X1688190Y873860
Y1565860
Y2257860
X1738190Y873860
Y1565860
Y2257860
X1755410Y913130
Y1605130
Y2297130
Y963130
Y1655130
Y2347130
X1693880Y947000
Y1639000
Y2331000
Y1005000
Y1697000
Y2389000
Y1063000
Y1755000
Y2447000
Y1121000
Y1813000
Y2505000
Y1179000
Y1871000
Y2563000
Y1237000
Y1929000
Y2621000
X1805340Y866500
Y1558500
Y2250500
X1855340Y866500
Y1558500
Y2250500
T07
X85870Y583440
X138950Y659640
X231920Y660650
X254980Y635510
X1784360Y600960
X1825770Y547620
X1875750Y648990
X1865900Y101600
X1805190Y101090
X85870Y1275440
Y1967440
Y2659440
X138950Y1351640
Y2043640
Y2735640
X231920Y1352650
Y2044650
Y2736650
X254980Y1327510
Y2019510
Y2711510
X1784360Y1292960
Y1984960
Y2676960
X1825770Y1239620
Y1931620
Y2623620
X1875750Y1340990
Y2032990
Y2724990
X1865900Y793600
Y1485600
Y2177600
X1805190Y793090
Y1485090
Y2177090
T08
X132550Y136652
X123406Y240538
X122188Y292862
X243294Y399034
X365976Y352454
X375120Y396431
X357340Y542735
X459956Y632650
X549872Y605726
X536664Y513220
X339814Y223224
X280430Y83058
X241822Y45212
X326150Y46228
X437656Y42672
X687229Y42926
X969966Y189230
X1016470
X1304760Y256102
X1374408Y193802
X1360184Y113792
X1472355Y221329
X1525284Y273916
X1549414Y340237
X1550176Y409579
X1548652Y465836
X1550117Y514604
X1485660Y660146
X1799350Y658753
X1874280Y568198
X1846556Y394462
X1009358Y647056
X185382Y667258
X113246Y621284
X132804Y565658
X132550Y828652
Y1520652
Y2212652
X123406Y932538
Y1624538
Y2316538
X122188Y984862
Y1676862
Y2368862
X243294Y1091034
Y1783034
Y2475034
X365976Y1044454
Y1736454
Y2428454
X375120Y1088431
Y1780431
Y2472431
X357340Y1234735
Y1926735
Y2618735
X459956Y1324650
Y2016650
Y2708650
X549872Y1297726
Y1989726
Y2681726
X536664Y1205220
Y1897220
Y2589220
X339814Y915224
Y1607224
Y2299224
X280430Y775058
Y1467058
Y2159058
X241822Y737212
Y1429212
Y2121212
X326150Y738228
Y1430228
Y2122228
X437656Y734672
Y1426672
Y2118672
X687229Y734926
Y1426926
Y2118926
X969966Y881230
Y1573230
Y2265230
X1016470Y881230
Y1573230
Y2265230
X1304760Y948102
Y1640102
Y2332102
X1374408Y885802
Y1577802
Y2269802
X1360184Y805792
Y1497792
Y2189792
X1472355Y913329
Y1605329
Y2297329
X1525284Y965916
Y1657916
Y2349916
X1549414Y1032237
Y1724237
Y2416237
X1550176Y1101579
Y1793579
Y2485579
X1548652Y1157836
Y1849836
Y2541836
X1550117Y1206604
Y1898604
Y2590604
X1485660Y1352146
Y2044146
Y2736146
X1799350Y1350753
Y2042753
Y2734753
X1874280Y1260198
Y1952198
Y2644198
X1846556Y1086462
Y1778462
Y2470462
X1009358Y1339056
Y2031056
Y2723056
X185382Y1359258
Y2051258
Y2743258
X113246Y1313284
Y2005284
Y2697284
X132804Y1257658
Y1949658
Y2641658
M30
