M48
;Layer_Color=9474304
;FILE_FORMAT=4:4
METRIC
;TYPE=NON_PLATED
T7F00S00C1.0000
T8F00S00C3.6000
%
T07
X02477750Y01344494
T08
X00727964Y01086746
X00724154Y01135704
X00935228Y01173318
X01008126Y01084714
X01033070Y00992766
X00921564Y00996322
X00875844Y01033152
X00837236Y00995306
X01159764Y01055250
X01275080Y01067188
X01282643Y00993020
X01462278Y01080904
X01565380Y01139324
X01611884
X01964182Y01153294
X01955598Y01063886
X02441970Y01344556
X02469694Y01518292
X02145531Y01464698
X02144066Y01415930
X02145590Y01359673
X02149804Y01305694
X02145030Y01257180
X02110232Y01217048
X01900174Y01206196
X01132078Y01463314
X01071880Y01503306
X01055370Y01582744
X01145286Y01555820
X00952754Y01492829
X00957072Y01431478
X00970534Y01346525
X00961390Y01302548
X00838708Y01349128
X00771398Y01492829
X00732790Y01522356
X00708660Y01571378
X00717602Y01242956
X00718820Y01190632
X00780796Y01617352
X01604772Y01597150
X02081074Y01610240
X02394764Y01608847
M30
